Symbol,baseMean,log2FoldChange,lfcSE,svalue
NCU08595,1207.537172,1.000957205,0.438104073,0.002671066
NCU08112,1280.081023,1.011803291,0.525208988,0.00685296
NCU04735,444.7628598,1.018126728,0.409273416,0.001460934
NCU16721,713.8350214,1.022145342,0.428904523,0.001998542
NCU01355,137.9545769,1.024086296,0.284720491,3.07E-05
NCU01000,837.4289503,1.033830845,0.497989845,0.004582138
NCU06075,47907.68294,1.039457307,0.226331551,3.57E-07
NCU03328,836.1166758,1.050133368,0.474274061,0.003249044
NCU02258,284.6884995,1.055443095,0.491725148,0.003793549
NCU00692,4014.934531,1.056810164,0.34289983,1.96E-04
NCU01869,1253.795983,1.057311606,0.251087604,2.31E-06
NCU00055,1424.953416,1.058630343,0.239037042,8.05E-07
NCU06001,5355.974095,1.059576807,0.332123854,1.39E-04
NCU05356,1222.36559,1.061104567,0.221871855,1.11E-07
NCU03661,3986.985748,1.068288959,0.281644409,1.39E-05
NCU02042,199.4880701,1.068558431,0.309013875,5.32E-05
NCU00581,880.8114827,1.068914434,0.253099204,2.14E-06
NCU04579,5842.092054,1.070428626,0.45286798,0.002115571
NCU08898,1458.630348,1.080825325,0.522886283,0.004717392
NCU08302,794.0660443,1.082484132,0.276351713,9.11E-06
NCU09200,555.2398623,1.08479711,0.268027708,4.48E-06
NCU00298,313.0055356,1.088411129,0.323176745,7.59E-05
NCU02073,314.5906403,1.089362615,0.403226796,7.64E-04
NCU09784,311.5385582,1.091308072,0.347839396,1.68E-04
NCU04287,6926.945298,1.093574983,0.532150058,0.004867538
NCU09716,2575.965315,1.093810738,0.486584046,0.002937382
NCU02259,2166.803785,1.095351833,0.320864668,6.61E-05
NCU09910,1814.442553,1.095412976,0.359439578,2.16E-04
NCU09331,6423.81233,1.097193506,0.311671295,3.86E-05
NCU01880,212.2958776,1.102395539,0.480882838,0.002577186
NCU00054,492.2499557,1.103162035,0.592307406,0.008118322
NCU08794,3107.555801,1.104396097,0.292865103,1.51E-05
NCU06138,218.8290104,1.107631446,0.385335617,4.30E-04
NCU00468,1352.873117,1.109501131,0.25606788,1.33E-06
NCU04462,3114.057683,1.117904106,0.338096143,9.25E-05
NCU00874,1413.082043,1.122146642,0.496686627,0.002837599
NCU06966,3533.651643,1.123691587,0.356492222,1.56E-04
NCU04594,1065.84328,1.129369228,0.39189789,4.25E-04
NCU09755,1881.366274,1.129852417,0.345074588,1.13E-04
NCU04626,178.6436261,1.131382377,0.420365694,7.96E-04
NCU03120,1818.519098,1.134982217,0.200523647,8.37E-10
NCU09251,1220.721115,1.135167379,0.309084578,2.22E-05
NCU01022,475.5792982,1.136968833,0.373377297,2.18E-04
NCU03918,195.7693541,1.139656301,0.568733949,0.005610119
NCU03636,1276.848276,1.147404629,0.286937154,6.02E-06
NCU00829,5474.401666,1.153841901,0.496496952,0.002352136
NCU06011,308.9763435,1.156506572,0.337984381,6.19E-05
NCU04851,1517.892951,1.163161477,0.245761845,1.72E-07
NCU05597,447.1760358,1.165759118,0.515508524,0.002828593
NCU05988,719.9101635,1.177154486,0.268517061,1.11E-06
NCU04132,635.2736744,1.179027447,0.258432882,4.60E-07
NCU05603,457.0010575,1.185199946,0.210377186,1.03E-09
NCU04474,2227.898389,1.199392312,0.327725612,2.39E-05
NCU01745,3519.896562,1.203275861,0.223082306,6.53E-09
NCU01270,2385.720246,1.204476091,0.415432384,3.90E-04
NCU06123,14652.11473,1.207527911,0.310357366,1.02E-05
NCU10761,183.4697861,1.214697431,0.566278555,0.003815458
NCU06070,83.08788603,1.214750519,0.364819067,8.69E-05
NCU15067,117.1884321,1.215333342,0.579037876,0.004294096
NCU06806,340.4069308,1.215977673,0.564649327,0.00370635
NCU02904,4059.007591,1.219140506,0.437381997,6.04E-04
NCU16690,39.04723764,1.220471883,0.506484919,0.001821633
NCU01209,3325.297308,1.22233568,0.474750256,0.001107114
NCU00963,1805.085867,1.22846308,0.348136722,3.59E-05
NCU04754,1937.283853,1.228953685,0.518410728,0.002085944
NCU16320,138.2387182,1.232960277,0.486162926,0.001247151
NCU02051,1458.18131,1.233363294,0.322362065,1.19E-05
NCU03500,1684.078942,1.23956095,0.237076257,1.46E-08
NCU07464,182.089478,1.239609628,0.458919858,7.72E-04
NCU02850,459.4994956,1.244201605,0.461597704,7.92E-04
NCU09429,2768.578359,1.249326886,0.442187249,5.29E-04
NCU08644,78.01714719,1.254321009,0.607518757,0.004742208
NCU04816,462.7915769,1.269852975,0.403312211,1.57E-04
NCU10684,408.172676,1.270672792,0.410880594,1.88E-04
NCU00992,768.6711261,1.271083623,0.687172839,0.008542425
NCU00314,268.137922,1.273315436,0.335732672,1.41E-05
NCU08701,1082.56933,1.275562541,0.407091147,1.73E-04
NCU07898,87.52628717,1.279026274,0.503033617,0.001219679
NCU05842,873.5614956,1.279116143,0.666568004,0.006959556
NCU12097,231.9515804,1.284058561,0.34161996,1.69E-05
NCU04216,1331.981725,1.284187947,0.565094052,0.0027577
NCU02167,2262.697552,1.285768871,0.292647419,1.01E-06
NCU03561,1329.118955,1.296309663,0.379235121,6.33E-05
NCU09599,1177.025941,1.317289846,0.467842526,5.44E-04
NCU06804,2769.674594,1.32653947,0.607620925,0.003528718
NCU06187,4352.317617,1.32786857,0.347188033,1.21E-05
NCU06934,204.1880666,1.330510309,0.389723144,6.54E-05
NCU16445,3671.156546,1.333751029,0.496496584,8.16E-04
NCU04384,154.9338799,1.334540632,0.334244568,6.27E-06
NCU07428,1803.706829,1.341909669,0.393578159,6.75E-05
NCU04627,75.94549596,1.345227873,0.39184282,5.84E-05
NCU08872,69.90636525,1.347070163,0.673202255,0.005690972
NCU08988,1478.294203,1.348652061,0.334064148,4.81E-06
NCU03142,2805.468028,1.372188999,0.291819455,2.24E-07
NCU04385,4027.307924,1.374127656,0.642960009,0.003859763
NCU04418,716.1305468,1.375840479,0.57886039,0.002063856
NCU00106,1494.15748,1.376667909,0.397928527,5.26E-05
NCU05243,2241.614598,1.378201688,0.348373698,7.48E-06
NCU06985,1002.540146,1.389031427,0.458868589,2.47E-04
NCU06727,6183.751665,1.397344635,0.251848062,1.99E-09
NCU03868,1056.855317,1.398998893,0.633050721,0.003278163
NCU00803,1290.04753,1.40841176,0.277035132,2.93E-08
NCU09556,1045.136366,1.409249699,0.500682206,5.50E-04
NCU02932,7622.232935,1.411331849,0.504111765,5.78E-04
NCU06401,818.0121044,1.414402535,0.341584073,2.89E-06
NCU06098,150.6560031,1.419130914,0.455491156,1.80E-04
NCU00677,1136.800113,1.419550946,0.349374141,4.05E-06
NCU06339,80.84952702,1.429823975,0.483162294,3.02E-04
NCU00185,64.9153341,1.431221209,0.437989079,1.18E-04
NCU01572,906.5822168,1.432021631,0.318256471,6.10E-07
NCU06364,502.7160826,1.437695406,0.414830124,5.13E-05
NCU04446,2142.864694,1.4417081,0.62595241,0.002475526
NCU05268,214.5698752,1.441717406,0.629561182,0.002619777
NCU02843,93.76774268,1.44862525,0.327891522,8.92E-07
NCU04662,1683.654238,1.449419076,0.209753719,6.87E-13
NCU04935,105.8284477,1.464505971,0.631164167,0.00237654
NCU03768,651.8415587,1.484008937,0.27377798,5.08E-09
NCU01689,13032.80877,1.489372445,0.422191897,3.64E-05
NCU02677,2877.402075,1.493885116,0.512756673,3.67E-04
NCU06006,732.6953207,1.493992725,0.255419491,2.34E-10
NCU04071,1368.025578,1.499236549,0.289892306,1.85E-08
NCU01565,12126.40018,1.514603823,0.3422724,8.63E-07
NCU01374,468.0781153,1.5187415,0.296354262,2.36E-08
NCU05843,2822.543066,1.523261091,0.327597005,2.83E-07
NCU04630,3477.331319,1.537274005,0.414942282,1.92E-05
NCU08901,1710.380823,1.538206521,0.486829541,1.53E-04
NCU09187,5071.310952,1.53954527,0.569134615,7.57E-04
NCU09087,938.0338235,1.547875012,0.305281372,3.15E-08
NCU02602,1452.767874,1.551177544,0.338597036,3.74E-07
NCU08113,60.84958229,1.568660476,0.514338613,2.13E-04
NCU03468,4711.160119,1.586836703,0.352783743,6.32E-07
NCU06963,4155.321524,1.615018508,0.258515587,3.86E-11
NCU07608,2450.450293,1.618289423,0.429313134,1.54E-05
NCU10245,146.6790726,1.622658092,0.482979063,7.83E-05
NCU07518,215.0226656,1.633129939,0.520891937,1.72E-04
NCU07609,457.6435589,1.651377653,0.305015788,5.54E-09
NCU06062,784.4237595,1.654150076,0.572393058,4.11E-04
NCU00865,2870.94315,1.662583606,0.415229839,5.65E-06
NCU09694,1435.077781,1.68851652,0.462882122,2.50E-05
NCU07823,637.6287509,1.697359991,0.534810621,1.49E-04
NCU06596,730.4939881,1.712739496,0.499996958,5.98E-05
NCU00745,71.08781828,1.721317185,0.544094364,1.50E-04
NCU11253,690.1233888,1.723760946,0.626783147,6.68E-04
NCU02128,2806.437089,1.727315912,0.281583373,7.69E-11
NCU00312,40.97734776,1.743660369,0.772163265,0.002855617
NCU04931,16397.22036,1.746808138,0.312401695,1.46E-09
NCU00873,1177.448278,1.754622057,0.561119751,1.75E-04
NCU05016,872.5682842,1.758225769,0.489281097,3.11E-05
NCU12028,111.3994503,1.790607529,0.702451838,0.00117063
NCU01210,6313.099278,1.793961611,0.565214895,1.47E-04
NCU03608,12725.11072,1.797940481,0.552970919,1.21E-04
NCU00932,137.0021489,1.799598723,0.659008215,7.04E-04
NCU03121,6727.432459,1.804586316,0.59632761,2.51E-04
NCU06400,605.3065395,1.806154561,0.411422269,1.08E-06
NCU07287,20329.41651,1.80990575,0.440083254,3.16E-06
NCU04126,186.1505883,1.823622724,0.4390457,2.73E-06
NCU00085,1302.982194,1.825218468,0.263978248,5.79E-13
NCU09782,4213.712798,1.841029465,0.527947922,4.39E-05
NCU09915,5274.517743,1.84743309,0.483779794,1.23E-05
NCU00355,9698.450102,1.852093461,0.652948548,5.08E-04
NCU05094,1841.043875,1.85905358,0.544472212,6.47E-05
NCU07270,383.9443688,1.85945109,0.445907835,2.58E-06
NCU06063,250.6674594,1.864027557,0.642972621,3.93E-04
NCU08696,2877.985589,1.87301111,0.253486531,1.62E-14
NCU06341,19010.01111,1.878124434,0.510493964,2.12E-05
NCU08535,9253.681423,1.899468715,0.584666823,1.24E-04
NCU09549,780.1473655,1.904355318,0.46554553,3.44E-06
NCU02209,35444.28735,1.905718438,0.41928905,5.31E-07
NCU09053,4247.264685,1.914828625,0.691279147,6.27E-04
NCU02924,1410.449401,1.920554691,0.77164461,0.001454926
NCU17137,206.8348272,1.922385472,0.315708317,9.18E-11
NCU09855,753.3116057,1.938996373,0.897110522,0.003663237
NCU02097,6010.111563,1.942840278,0.568579004,6.40E-05
NCU04928,3461.850495,1.943191748,0.537137913,2.86E-05
NCU03213,293.0557712,1.944767277,0.309511722,2.67E-11
NCU02903,4645.57287,1.947116278,0.461242535,2.25E-06
NCU06785,34093.73406,1.955814486,0.39641813,4.76E-08
NCU02527,490.9484922,1.970288562,0.371140633,9.71E-09
NCU01561,554.6124014,1.972581075,0.505723383,9.73E-06
NCU07767,1341.696188,1.979363519,0.406696894,6.37E-08
NCU02880,3652.766699,1.980299393,0.602369519,1.02E-04
NCU04416,1596.509544,1.988628038,0.590710214,7.67E-05
NCU08337,777.2610791,2.028296938,0.694897938,3.52E-04
NCU07970,232.7536331,2.035572776,0.711844306,4.63E-04
NCU07307,18138.84031,2.069020237,0.528280099,9.26E-06
NCU08384,2220.228359,2.074063353,0.480105269,1.53E-06
NCU09099,63.21049458,2.084490064,0.805395502,0.001066744
NCU07308,16177.12202,2.085505075,0.53303008,9.57E-06
NCU09448,17.72080038,2.087410223,0.911672488,0.002628289
NCU09054,2060.414434,2.097499925,0.824132586,0.001203353
NCU10457,402.6907664,2.114619887,0.444426773,1.45E-07
NCU07254,400.9157284,2.131516945,0.677279175,1.62E-04
NCU00128,989.4419728,2.135739563,0.528711362,4.70E-06
NCU06783,31190.32112,2.164362383,0.407457407,8.98E-09
NCU10239,687.8828583,2.177330215,0.536098554,4.16E-06
NCU11286,118.8561665,2.207526466,0.747084919,3.07E-04
NCU17188,2618.524995,2.235093362,0.402929605,2.26E-09
NCU08805,256.5111848,2.240799353,0.47606884,2.03E-07
NCU01055,5515.575699,2.255130526,0.464017316,6.97E-08
NCU00825,680.27711,2.2842645,0.263544144,1.20E-18
NCU05495,23434.0315,2.33126273,0.627419598,1.86E-05
NCU01061,264.0599724,2.364980425,0.75115184,1.59E-04
NCU06951,237.8870881,2.376858488,0.35457029,1.21E-12
NCU04608,33.01475308,2.416238938,0.746856705,1.30E-04
NCU05788,1178.013277,2.4375023,0.700002325,4.45E-05
NCU02922,6176.561665,2.448199428,0.683188552,3.24E-05
NCU06964,5061.922472,2.511109202,0.753389037,8.51E-05
NCU08691,1479.669047,2.519862144,0.480388773,1.36E-08
NCU06005,24726.14232,2.529140805,0.499282112,3.37E-08
NCU05411,4330.834739,2.530996026,0.503734801,3.64E-08
NCU09350,50.61960652,2.574961395,0.579638087,7.76E-07
NCU00790,57009.24325,2.582727618,0.503601055,2.19E-08
NCU01313,31.15073163,2.634367098,0.806112739,1.17E-04
NCU02486,406.5693651,2.641629308,0.860637254,2.07E-04
NCU16960,113.8474964,2.670973198,1.208381465,0.003268441
NCU09729,1440.57025,2.694394899,0.362697058,7.96E-15
NCU14089,3681.777599,2.763344412,0.435199649,1.62E-11
NCU08069,456.8015971,2.773892256,0.337562023,2.18E-17
NCU11306,5114.449832,2.789956671,1.05545398,9.41E-04
NCU03584,13541.32506,2.792785789,1.313443053,0.004038933
NCU09418,22.91039419,2.803440204,1.100446036,0.001186979
NCU01151,1549.17291,2.807756034,0.523475157,7.60E-09
NCU09390,4967.40592,2.815252036,1.120875206,0.001343405
NCU14115,13.50889455,2.880256664,1.204178354,0.001955088
NCU16418,322.2639838,2.891800955,0.742921027,1.01E-05
NCU05192,400.8362026,2.903584967,0.772054499,1.66E-05
NCU00844,889.6235923,2.916984084,0.41701604,3.66E-13
NCU03198,617.3068086,2.967464046,0.60802404,5.78E-08
NCU00871,192.2496481,2.986358557,1.013346321,3.16E-04
NCU08813,99.38388944,3.052446475,0.866590196,3.81E-05
NCU02029,46.44122315,3.073887317,0.915021687,7.91E-05
NCU04391,800.1623264,3.129892248,1.17285652,8.81E-04
NCU07180,284.2723155,3.192293006,0.501531344,1.23E-11
NCU09854,711.2658016,3.290246135,0.616007267,8.23E-09
NCU08812,141.2288881,3.452133918,0.962983822,3.20E-05
NCU07525,29.53306562,3.530754013,0.756417696,2.70E-07
NCU05821,405.4109618,3.628682931,0.849990824,1.70E-06
NCU05236,4295.288497,3.71886585,1.283239439,3.98E-04
NCU04400,20.41785253,3.747858871,1.771423956,0.004084439
NCU16406,17.57440673,3.899558669,1.143209383,6.68E-05
NCU02921,6139.569218,3.920192129,1.045060107,1.74E-05
NCU04438,10.73611799,4.002537917,1.169197153,6.12E-05
NCU02925,10848.19292,4.006952988,0.725148517,2.82E-09
NCU05134,2012.275376,4.465136655,0.699525342,8.38E-12
NCU07920,170.1577965,4.846006223,1.37282946,3.53E-05
NCU02655,10.37652828,6.200554824,1.922582189,1.33E-04
NCU06548,13.66772446,6.497543441,1.50312224,1.49E-06
