Symbol,baseMean,log2FoldChange,lfcSE,svalue
NCU08541,70.04938992,-2.644796824,1.472479087,0.009956245
NCU09848,193.3055139,-1.525133524,0.846348998,0.009751357
NCU02390,1681.896574,-1.008095789,0.555511732,0.009359886
NCU08495,59.65502703,-4.563852009,2.511624319,0.009274964
NCU02700,375.9669942,-1.617323983,0.886834302,0.009139683
NCU08049,159.3928046,-1.229984072,0.669389368,0.008772613
NCU00992,768.6711261,1.271083623,0.687172839,0.008542425
NCU05883,9.929145025,-4.480440339,2.411354756,0.008232388
NCU00054,492.2499557,1.103162035,0.592307406,0.008118322
NCU07108,813.9229889,-1.334252249,0.707743331,0.007699831
NCU06128,1114.273238,-1.365295977,0.723529056,0.007684071
NCU01546,13171.45515,-1.36940777,0.725457679,0.007668375
NCU12050,130.9335403,-1.517064821,0.801479173,0.007527162
NCU17042,11.2603565,-4.885416358,2.564788736,0.007341363
NCU08544,31.95293476,-1.351902809,0.706407881,0.007097034
NCU02098,1111.468121,-1.314700406,0.685606286,0.006974832
NCU05842,873.5614956,1.279116143,0.666568004,0.006959556
NCU08112,1280.081023,1.011803291,0.525208988,0.00685296
NCU07375,771.0667308,-1.338334321,0.694566691,0.006822857
NCU04543,1745.824561,-1.271682027,0.659033738,0.006792761
NCU00886,150.9667258,-1.781241775,0.920767356,0.006673199
NCU09992,666.5967746,-1.525405924,0.785488719,0.006569482
NCU16013,129.2071544,-1.874821595,0.96112102,0.006423331
NCU00701,243.2673414,-1.431730133,0.729397377,0.006220803
NCU06803,1659.272001,-1.790707634,0.910316511,0.006178005
NCU08827,469.6888784,-1.119397904,0.568922733,0.006149575
NCU06120,426.2147246,-1.257678888,0.635736467,0.005994296
NCU12034,117.8711704,-1.172617538,0.586561073,0.005704526
NCU08872,69.90636525,1.347070163,0.673202255,0.005690972
NCU03918,195.7693541,1.139656301,0.568733949,0.005610119
NCU01127,376.1567558,-1.428225317,0.711280885,0.005529421
NCU01070,407.511803,-1.816624169,0.904309282,0.005502506
NCU00176,78.54714412,-3.12322324,1.553756008,0.00542163
NCU05083,29.72296324,-2.945952715,1.455893981,0.00517937
NCU08469,59.97892717,-2.044169002,1.006335684,0.005099896
NCU05887,176.5733902,-1.201235045,0.591123377,0.005060335
NCU00957,7782.307215,-1.042595846,0.51267112,0.005047136
NCU02765,5974.962149,-1.430089607,0.697455498,0.004943124
NCU01357,947.9093946,-2.81490322,1.370482944,0.004892694
NCU04287,6926.945298,1.093574983,0.532150058,0.004867538
NCU08770,148.4196307,-1.768057875,0.858542198,0.004804701
NCU08644,78.01714719,1.254321009,0.607518757,0.004742208
NCU08898,1458.630348,1.080825325,0.522886283,0.004717392
NCU01000,837.4289503,1.033830845,0.497989845,0.004582138
NCU03430,247.6814719,-1.355647024,0.65191914,0.004521183
NCU08603,1067.679464,-1.152484626,0.553932038,0.004496794
NCU05844,739.9725587,-2.753675917,1.31319198,0.004329566
NCU15067,117.1884321,1.215333342,0.579037876,0.004294096
NCU06254,429.9932532,-1.012468724,0.482200464,0.004282264
NCU08390,624.1079653,-2.130238015,1.008562159,0.004188351
NCU14161,259.621823,-1.378374661,0.652377463,0.004142241
NCU04400,20.41785253,3.747858871,1.771423956,0.004084439
NCU09213,317.4821127,-1.687038526,0.794551197,0.004061506
NCU03534,89.60410684,-1.858527441,0.874311201,0.004050184
NCU03584,13541.32506,2.792785789,1.313443053,0.004038933
NCU04385,4027.307924,1.374127656,0.642960009,0.003859763
NCU10761,183.4697861,1.214697431,0.566278555,0.003815458
NCU02258,284.6884995,1.055443095,0.491725148,0.003793549
NCU16867,31.62908602,-2.338884795,1.088465002,0.003771701
NCU06806,340.4069308,1.215977673,0.564649327,0.00370635
NCU09855,753.3116057,1.938996373,0.897110522,0.003663237
NCU02014,132.6612489,-1.730025163,0.797595022,0.003642125
NCU06815,2221.679734,-1.504650557,0.693421455,0.003631698
NCU06804,2769.674594,1.32653947,0.607620925,0.003528718
NCU08123,178.0412661,-2.926499711,1.338714261,0.00347795
NCU04996,855.7260471,-1.154702508,0.526579035,0.003417339
NCU14174,13326.30852,-1.429910995,0.649698052,0.003347216
NCU04879,10.48804072,-6.439586403,2.921553704,0.003307685
NCU03868,1056.855317,1.398998893,0.633050721,0.003278163
NCU16960,113.8474964,2.670973198,1.208381465,0.003268441
NCU03328,836.1166758,1.050133368,0.474274061,0.003249044
NCU03273,1676.655709,-1.021281446,0.45797454,0.003078228
NCU09716,2575.965315,1.093810738,0.486584046,0.002937382
NCU04368,2066.108478,-1.124109312,0.499298418,0.002919131
NCU00312,40.97734776,1.743660369,0.772163265,0.002855617
NCU00874,1413.082043,1.122146642,0.496686627,0.002837599
NCU05597,447.1760358,1.165759118,0.515508524,0.002828593
NCU11289,99.73359674,-1.271089562,0.561457335,0.002801776
NCU04216,1331.981725,1.284187947,0.565094052,0.0027577
NCU11054,212.716361,-1.203871129,0.528653689,0.00273147
NCU05046,11034.58902,-1.235687993,0.541448654,0.002688239
NCU08595,1207.537172,1.000957205,0.438104073,0.002671066
NCU09448,17.72080038,2.087410223,0.911672488,0.002628289
NCU05268,214.5698752,1.441717406,0.629561182,0.002619777
NCU01880,212.2958776,1.102395539,0.480882838,0.002577186
NCU04374,145.7307619,-1.243718406,0.541705982,0.002560177
NCU09043,4004.950595,-1.506826611,0.65571544,0.002526256
NCU04446,2142.864694,1.4417081,0.62595241,0.002475526
NCU08867,125.076462,-2.044751631,0.884511957,0.002442318
NCU01095,12.41960154,-4.305750313,1.85941002,0.002401136
NCU04935,105.8284477,1.464505971,0.631164167,0.00237654
NCU07101,40.0020455,-3.004779179,1.294684508,0.002368397
NCU05477,545.4202445,-1.997586258,0.860093699,0.002360251
NCU00829,5474.401666,1.153841901,0.496496952,0.002352136
NCU16738,10.06656733,-6.615053731,2.830013387,0.00227186
NCU03318,2374.544532,-1.243216273,0.53170473,0.002248173
NCU05915,114.4588151,-2.208827424,0.942502791,0.002208855
NCU00249,632.9091755,-1.364016112,0.581219554,0.002185359
NCU08716,171.1960076,-1.985947991,0.845820027,0.002177546
NCU09532,278.7809546,-2.179202498,0.926629755,0.002146433
NCU04579,5842.092054,1.070428626,0.45286798,0.002115571
NCU16350,271.8217989,-1.764788601,0.744539659,0.00210069
NCU04754,1937.283853,1.228953685,0.518410728,0.002085944
NCU04418,716.1305468,1.375840479,0.57886039,0.002063856
NCU02322,1935.611918,-2.22417791,0.934197292,0.002034845
NCU16721,713.8350214,1.022145342,0.428904523,0.001998542
NCU08171,2315.244284,-2.114256306,0.886585781,0.001991283
NCU01891,513.8699675,-1.833489739,0.768840868,0.001984048
NCU08771,2387.584019,-1.195247045,0.500982549,0.001969543
NCU14115,13.50889455,2.880256664,1.204178354,0.001955088
NCU02059,1109.163572,-1.142003569,0.475046891,0.001870535
NCU05667,5658.036423,-1.84209883,0.764474855,0.001828604
NCU16690,39.04723764,1.220471883,0.506484919,0.001821633
NCU07133,231.8332557,-1.411709367,0.585765439,0.001800629
NCU09535,2427.782534,-1.220233081,0.504172581,0.00174502
NCU09263,4489.656615,-1.09116341,0.446782802,0.001643895
NCU07953,2839.016503,-1.324062027,0.540780975,0.001611128
NCU09724,916.4143741,-1.842077741,0.747551921,0.001559968
NCU07142,898.9870486,-1.781767499,0.720190326,0.001516188
NCU07037,458.0534647,-1.456603445,0.587997794,0.00149151
NCU01233,445.159272,-1.376257603,0.554841397,0.001479208
NCU04735,444.7628598,1.018126728,0.409273416,0.001460934
NCU02924,1410.449401,1.920554691,0.77164461,0.001454926
NCU09873,11963.3125,-2.157075933,0.864669067,0.001431036
NCU05376,511.6223366,-2.118467549,0.846584008,0.001395786
NCU02139,3471.585321,-1.000159832,0.399252398,0.001378233
NCU08791,9460.632652,-1.954671978,0.779701864,0.001372399
NCU09390,4967.40592,2.815252036,1.120875206,0.001343405
NCU01395,1187.147144,-1.495883784,0.594188875,0.001326149
NCU08755,268.6017833,-1.555961558,0.617716989,0.00131474
NCU05148,819.7826708,-1.945802314,0.771314421,0.001297722
NCU08738,720.4636439,-2.229891811,0.879871624,0.001252689
NCU16320,138.2387182,1.232960277,0.486162926,0.001247151
NCU07898,87.52628717,1.279026274,0.503033617,0.001219679
NCU04268,2495.131289,-1.189858651,0.4675553,0.00120879
NCU09054,2060.414434,2.097499925,0.824132586,0.001203353
NCU09418,22.91039419,2.803440204,1.100446036,0.001186979
NCU12028,111.3994503,1.790607529,0.702451838,0.00117063
NCU07102,47.37960194,-2.504894534,0.97555847,0.001132988
NCU09057,3920.587934,-2.287326718,0.890521091,0.001127804
NCU01494,587.9891747,-1.467883356,0.570906497,0.001117435
NCU01209,3325.297308,1.22233568,0.474750256,0.001107114
NCU03603,1143.61943,-1.007208691,0.390282189,0.001091794
NCU17053,205.4066248,-1.388820235,0.537000796,0.001076714
NCU16742,1981.5079,-1.798160994,0.695247034,0.001071734
NCU09099,63.21049458,2.084490064,0.805395502,0.001066744
NCU05784,1300.466993,-1.031080923,0.397112207,0.001046882
NCU08554,1724.210873,-1.140578258,0.437042495,0.001012915
NCU04362,611.7334094,-1.219603549,0.463188912,9.72E-04
NCU06416,4565.745965,-1.084605124,0.411368078,9.67E-04
NCU00943,181.3619008,-1.730771031,0.655020138,9.46E-04
NCU11306,5114.449832,2.789956671,1.05545398,9.41E-04
NCU03477,41.44834666,-2.821970732,1.067474205,9.37E-04
NCU06080,427.8610966,-1.048290573,0.39650552,9.33E-04
NCU02127,2107.769987,-1.388148691,0.524192526,9.20E-04
NCU09821,6556.373505,-2.035911859,0.766884329,9.02E-04
NCU04391,800.1623264,3.129892248,1.17285652,8.81E-04
NCU06303,504.5087422,-2.331219552,0.873488046,8.77E-04
NCU05524,256.4626841,-1.245394446,0.466197125,8.61E-04
NCU00262,423.4146286,-1.560911826,0.582828406,8.40E-04
NCU10775,1598.819997,-1.115104821,0.415920201,8.36E-04
NCU16445,3671.156546,1.333751029,0.496496584,8.16E-04
NCU08229,7108.539346,-1.620800699,0.602894626,8.04E-04
NCU04626,178.6436261,1.131382377,0.420365694,7.96E-04
NCU02850,459.4994956,1.244201605,0.461597704,7.92E-04
NCU03388,2034.737831,-1.352380366,0.501591918,7.84E-04
NCU07464,182.089478,1.239609628,0.458919858,7.72E-04
NCU14006,397.2660453,-1.76051113,0.651694452,7.68E-04
NCU02073,314.5906403,1.089362615,0.403226796,7.64E-04
NCU12067,338.4621395,-1.542874553,0.570745417,7.60E-04
NCU09187,5071.310952,1.53954527,0.569134615,7.57E-04
NCU01064,386.9699727,-2.282331254,0.841737122,7.45E-04
NCU09245,269.2411748,-1.44544621,0.533087141,7.41E-04
NCU06425,3077.640138,-1.010154396,0.371619401,7.30E-04
NCU03208,431.6295314,-3.390589632,1.246048546,7.26E-04
NCU07840,604.8188469,-1.264507415,0.463306295,7.07E-04
NCU00932,137.0021489,1.799598723,0.659008215,7.04E-04
NCU03205,547.6550833,-2.075672735,0.758926527,6.96E-04
NCU09403,1262.724988,-1.237938855,0.452056845,6.86E-04
NCU05980,235.1783965,-2.492279634,0.910080945,6.82E-04
NCU05202,1128.249625,-1.019724723,0.371781313,6.78E-04
NCU11253,690.1233888,1.723760946,0.626783147,6.68E-04
NCU01697,644.9535033,-1.35159494,0.491364058,6.64E-04
NCU07352,2197.419093,-1.009605818,0.36661291,6.61E-04
NCU17264,30.45956672,-2.211574002,0.802816111,6.57E-04
NCU10007,11763.06135,-1.076156415,0.390095228,6.50E-04
NCU04339,119.3878618,-1.2077407,0.43628458,6.37E-04
NCU09053,4247.264685,1.914828625,0.691279147,6.27E-04
NCU04039,197.5245919,-2.329367283,0.840155983,6.20E-04
NCU02904,4059.007591,1.219140506,0.437381997,6.04E-04
NCU01108,380.3100957,-2.633106835,0.943067826,5.94E-04
NCU02932,7622.232935,1.411331849,0.504111765,5.78E-04
NCU01944,699.1783847,-1.044902848,0.373149085,5.72E-04
NCU00802,1087.595106,-1.320819557,0.470806335,5.63E-04
NCU09990,67.43866947,-2.643885289,0.942392704,5.59E-04
NCU07332,1748.09141,-1.94405256,0.690976542,5.53E-04
NCU09556,1045.136366,1.409249699,0.500682206,5.50E-04
NCU09599,1177.025941,1.317289846,0.467842526,5.44E-04
NCU09429,2768.578359,1.249326886,0.442187249,5.29E-04
NCU11050,1445.159683,-2.249068018,0.795834217,5.26E-04
NCU07776,5709.486515,-1.283860617,0.453547327,5.20E-04
NCU05828,1454.160841,-1.412907017,0.499085546,5.17E-04
NCU09306,541.2356508,-1.510249488,0.533061994,5.11E-04
NCU00355,9698.450102,1.852093461,0.652948548,5.08E-04
NCU09933,106.277096,-2.435040986,0.858339753,5.05E-04
NCU08404,90.84350288,-1.560959571,0.54974406,5.00E-04
NCU01845,3063.789003,-1.041308817,0.365495458,4.97E-04
NCU01886,7134.031704,-1.541635366,0.541068241,4.94E-04
NCU00304,539.0685863,-1.591515795,0.557868748,4.80E-04
NCU07970,232.7536331,2.035572776,0.711844306,4.63E-04
NCU09176,565.3287147,-2.906713377,1.015073065,4.60E-04
NCU10030,505.2175373,-1.310207273,0.457522042,4.58E-04
NCU05826,447.0493473,-1.904606187,0.66472588,4.55E-04
NCU16599,43.54098739,-2.464845676,0.859143281,4.44E-04
NCU03821,1397.798629,-1.268620912,0.441992344,4.36E-04
NCU06138,218.8290104,1.107631446,0.385335617,4.30E-04
NCU08852,449.6837144,-2.264421485,0.787268028,4.27E-04
NCU04594,1065.84328,1.129369228,0.39189789,4.25E-04
NCU08522,37.41813164,-3.044797547,1.055231531,4.22E-04
NCU01830,576.7882644,-1.734469558,0.600523234,4.17E-04
NCU06062,784.4237595,1.654150076,0.572393058,4.11E-04
NCU05236,4295.288497,3.71886585,1.283239439,3.98E-04
NCU09663,1151.842993,-1.32198616,0.456120358,3.96E-04
NCU06063,250.6674594,1.864027557,0.642972621,3.93E-04
NCU01270,2385.720246,1.204476091,0.415432384,3.90E-04
NCU07434,711.8173428,-2.351210017,0.809795167,3.77E-04
NCU07318,10038.75796,-3.004981765,1.034950209,3.75E-04
NCU02677,2877.402075,1.493885116,0.512756673,3.67E-04
NCU07624,250.4699144,-3.106038266,1.065649466,3.64E-04
NCU08337,777.2610791,2.028296938,0.694897938,3.52E-04
NCU07569,1829.47447,-1.200071115,0.41064142,3.46E-04
NCU09040,1499.648311,-3.620194517,1.23869654,3.44E-04
NCU03921,1950.675757,-1.139507762,0.389199394,3.29E-04
NCU02244,322.2808061,-1.166797443,0.397776914,3.24E-04
NCU00871,192.2496481,2.986358557,1.013346321,3.16E-04
NCU11286,118.8561665,2.207526466,0.747084919,3.07E-04
NCU09864,1541.299546,-1.46734521,0.496198969,3.04E-04
NCU06339,80.84952702,1.429823975,0.483162294,3.02E-04
NCU02616,850.9567996,-1.397059765,0.470540458,2.83E-04
NCU06505,53.74076468,-3.409834892,1.143696728,2.72E-04
NCU09831,37.51592558,-2.584254465,0.866766771,2.70E-04
NCU06847,983.9357544,-1.4178867,0.474963618,2.68E-04
NCU06895,1841.056383,-2.00750831,0.671319266,2.65E-04
NCU06326,91.20618596,-3.111433015,1.039040792,2.63E-04
NCU07067,2056.278898,-2.255234394,0.750532383,2.61E-04
NCU05071,172.9652185,-3.463656829,1.148063779,2.53E-04
NCU03121,6727.432459,1.804586316,0.59632761,2.51E-04
NCU06985,1002.540146,1.389031427,0.458868589,2.47E-04
NCU01324,1641.207346,-1.283943568,0.423403724,2.43E-04
NCU09281,498.7186104,-1.905790157,0.62795387,2.41E-04
NCU09241,1935.945499,-1.017690636,0.334421302,2.28E-04
NCU07723,1845.133375,-3.503023493,1.15094591,2.26E-04
NCU08568,1475.9707,-1.101883978,0.361954352,2.24E-04
NCU00248,357.7828542,-1.866082933,0.612931173,2.22E-04
NCU01022,475.5792982,1.136968833,0.373377297,2.18E-04
NCU09910,1814.442553,1.095412976,0.359439578,2.16E-04
NCU10011,1647.563326,-1.333549527,0.437410546,2.15E-04
NCU08113,60.84958229,1.568660476,0.514338613,2.13E-04
NCU07927,279.1048192,-1.769737268,0.57688833,2.09E-04
NCU02486,406.5693651,2.641629308,0.860637254,2.07E-04
NCU07921,739.4723396,-2.824627352,0.919638707,2.03E-04
NCU08549,2701.461035,-3.393737565,1.104364955,2.02E-04
NCU00692,4014.934531,1.056810164,0.34289983,1.96E-04
NCU04342,1296.810312,-1.376480482,0.445885057,1.95E-04
NCU16848,1797.312575,-1.264343749,0.409334858,1.91E-04
NCU05977,570.4801337,-1.199689339,0.387932605,1.90E-04
NCU10684,408.172676,1.270672792,0.410880594,1.88E-04
NCU04619,387.5536885,-1.293895269,0.415648342,1.81E-04
NCU06098,150.6560031,1.419130914,0.455491156,1.80E-04
NCU05854,720.0089232,-1.642813695,0.526632326,1.77E-04
NCU00873,1177.448278,1.754622057,0.561119751,1.75E-04
NCU08701,1082.56933,1.275562541,0.407091147,1.73E-04
NCU07518,215.0226656,1.633129939,0.520891937,1.72E-04
NCU09784,311.5385582,1.091308072,0.347839396,1.68E-04
NCU03660,424.4630324,-2.167403792,0.689557628,1.63E-04
NCU07254,400.9157284,2.131516945,0.677279175,1.62E-04
NCU01061,264.0599724,2.364980425,0.75115184,1.59E-04
NCU04816,462.7915769,1.269852975,0.403312211,1.57E-04
NCU06966,3533.651643,1.123691587,0.356492222,1.56E-04
NCU08901,1710.380823,1.538206521,0.486829541,1.53E-04
NCU00745,71.08781828,1.721317185,0.544094364,1.50E-04
NCU07823,637.6287509,1.697359991,0.534810621,1.49E-04
NCU01210,6313.099278,1.793961611,0.565214895,1.47E-04
NCU06001,5355.974095,1.059576807,0.332123854,1.39E-04
NCU02655,10.37652828,6.200554824,1.922582189,1.33E-04
NCU04608,33.01475308,2.416238938,0.746856705,1.30E-04
NCU08535,9253.681423,1.899468715,0.584666823,1.24E-04
NCU03608,12725.11072,1.797940481,0.552970919,1.21E-04
NCU00185,64.9153341,1.431221209,0.437989079,1.18E-04
NCU01313,31.15073163,2.634367098,0.806112739,1.17E-04
NCU06875,3185.955586,-1.088882725,0.33298395,1.16E-04
NCU00591,2178.887919,-1.702642753,0.520030939,1.14E-04
NCU09755,1881.366274,1.129852417,0.345074588,1.13E-04
NCU11295,2192.709801,-3.517284971,1.07015293,1.04E-04
NCU02880,3652.766699,1.980299393,0.602369519,1.02E-04
NCU05964,1528.429359,-1.350868547,0.410198928,9.83E-05
NCU09533,1742.711433,-1.46994709,0.446278622,9.74E-05
NCU09049,12720.8355,-2.819049165,0.855128474,9.54E-05
NCU04801,1790.887462,-1.086937553,0.329474232,9.44E-05
NCU04462,3114.057683,1.117904106,0.338096143,9.25E-05
NCU00838,1689.804591,-2.614746718,0.788636286,8.96E-05
NCU05686,3131.933189,-1.196213698,0.359963326,8.87E-05
NCU06070,83.08788603,1.214750519,0.364819067,8.69E-05
NCU06964,5061.922472,2.511109202,0.753389037,8.51E-05
NCU05885,139.2851408,-1.393338806,0.417014431,8.25E-05
NCU08164,444.4259771,-1.565276428,0.467389049,8.08E-05
NCU08622,271.0793267,-2.230196936,0.663916611,7.99E-05
NCU02029,46.44122315,3.073887317,0.915021687,7.91E-05
NCU10245,146.6790726,1.622658092,0.482979063,7.83E-05
NCU04230,2810.699891,-1.120669083,0.333308867,7.75E-05
NCU04416,1596.509544,1.988628038,0.590710214,7.67E-05
NCU00298,313.0055356,1.088411129,0.323176745,7.59E-05
NCU02147,1232.64957,-1.115015651,0.330761641,7.51E-05
NCU01427,3999.346428,-1.298088947,0.384945579,7.43E-05
NCU04260,343.0242195,-1.651409309,0.488626347,7.27E-05
NCU00586,1825.44897,-2.673631863,0.789904132,7.19E-05
NCU09683,78.10714573,-1.586585294,0.468203837,7.12E-05
NCU07363,5689.392143,-1.005939923,0.296223742,7.04E-05
NCU07428,1803.706829,1.341909669,0.393578159,6.75E-05
NCU16406,17.57440673,3.899558669,1.143209383,6.68E-05
NCU02259,2166.803785,1.095351833,0.320864668,6.61E-05
NCU06934,204.1880666,1.330510309,0.389723144,6.54E-05
NCU05094,1841.043875,1.85905358,0.544472212,6.47E-05
NCU02097,6010.111563,1.942840278,0.568579004,6.40E-05
NCU03561,1329.118955,1.296309663,0.379235121,6.33E-05
NCU06337,193.0607388,-1.243694758,0.36373888,6.26E-05
NCU06011,308.9763435,1.156506572,0.337984381,6.19E-05
NCU04438,10.73611799,4.002537917,1.169197153,6.12E-05
NCU06596,730.4939881,1.712739496,0.499996958,5.98E-05
NCU16673,8477.897743,-2.606373311,0.759346862,5.91E-05
NCU04627,75.94549596,1.345227873,0.39184282,5.84E-05
NCU10572,454.909256,-2.860714724,0.831455557,5.71E-05
NCU01060,518.7221405,-2.001597208,0.581264085,5.64E-05
NCU08712,396.2992556,-1.517826288,0.439910188,5.58E-05
NCU02798,2111.085849,-1.530063855,0.443403807,5.51E-05
NCU02042,199.4880701,1.068558431,0.309013875,5.32E-05
NCU00106,1494.15748,1.376667909,0.397928527,5.26E-05
NCU01080,2524.689193,-1.235984041,0.356863865,5.20E-05
NCU06364,502.7160826,1.437695406,0.414830124,5.13E-05
NCU07337,165.1887488,-2.890781052,0.833459988,5.07E-05
NCU05105,366.1851056,-1.579379209,0.455197167,4.95E-05
NCU11338,9446.439757,-1.824800773,0.52534844,4.76E-05
NCU11395,2932.130707,-2.511115668,0.722192777,4.70E-05
NCU08601,425.7571736,-1.940263385,0.557338096,4.52E-05
NCU05788,1178.013277,2.4375023,0.700002325,4.45E-05
NCU09782,4213.712798,1.841029465,0.527947922,4.39E-05
NCU06380,2778.869895,-1.241638898,0.355115544,4.15E-05
NCU09794,1486.484857,-1.479330718,0.421307189,3.98E-05
NCU09183,310.499821,-2.323554717,0.661085579,3.92E-05
NCU09331,6423.81233,1.097193506,0.311671295,3.86E-05
NCU08813,99.38388944,3.052446475,0.866590196,3.81E-05
NCU01689,13032.80877,1.489372445,0.422191897,3.64E-05
NCU00963,1805.085867,1.22846308,0.348136722,3.59E-05
NCU07920,170.1577965,4.846006223,1.37282946,3.53E-05
NCU07513,669.7083264,-1.082084843,0.303604526,3.43E-05
NCU05818,838.1313273,-4.724394196,1.322786819,3.38E-05
NCU00716,209.7432723,-3.276499766,0.916315131,3.29E-05
NCU02922,6176.561665,2.448199428,0.683188552,3.24E-05
NCU08812,141.2288881,3.452133918,0.962983822,3.20E-05
NCU03863,238.555147,-1.746130836,0.486577158,3.15E-05
NCU05016,872.5682842,1.758225769,0.489281097,3.11E-05
NCU01355,137.9545769,1.024086296,0.284720491,3.07E-05
NCU01893,1373.432333,-1.804779724,0.49964141,2.90E-05
NCU04928,3461.850495,1.943191748,0.537137913,2.86E-05
NCU04479,10285.58354,-1.326568518,0.365915332,2.70E-05
NCU11264,309.2319125,-2.585877403,0.71295464,2.66E-05
NCU00268,1769.753329,-1.008391902,0.277398364,2.58E-05
NCU09694,1435.077781,1.68851652,0.462882122,2.50E-05
NCU09760,3335.274995,-1.076832782,0.294459715,2.43E-05
NCU04474,2227.898389,1.199392312,0.327725612,2.39E-05
NCU00585,6750.000022,-2.125032071,0.579647064,2.36E-05
NCU10028,4524.230032,-1.280849462,0.348867126,2.25E-05
NCU09251,1220.721115,1.135167379,0.309084578,2.22E-05
NCU06341,19010.01111,1.878124434,0.510493964,2.12E-05
NCU07200,447.6213277,-1.515097039,0.410652132,2.08E-05
NCU08742,355.8833231,-1.131817852,0.306318726,2.02E-05
NCU04630,3477.331319,1.537274005,0.414942282,1.92E-05
NCU01422,10136.57442,-1.222057707,0.328981139,1.89E-05
NCU05495,23434.0315,2.33126273,0.627419598,1.86E-05
NCU03913,709.8159059,-1.840337123,0.494304752,1.83E-05
NCU05971,780.0567331,-1.121578484,0.299997607,1.77E-05
NCU02921,6139.569218,3.920192129,1.045060107,1.74E-05
NCU12097,231.9515804,1.284058561,0.34161996,1.69E-05
NCU05192,400.8362026,2.903584967,0.772054499,1.66E-05
NCU02853,913.547617,-1.032061794,0.274368979,1.64E-05
NCU00995,2635.143641,-2.735259681,0.726200684,1.61E-05
NCU05899,2820.151967,-1.951025534,0.517667265,1.56E-05
NCU07608,2450.450293,1.618289423,0.429313134,1.54E-05
NCU08794,3107.555801,1.104396097,0.292865103,1.51E-05
NCU07277,7930.36619,-1.41825684,0.375830224,1.49E-05
NCU10603,5521.853705,-1.615043572,0.426832222,1.44E-05
NCU00314,268.137922,1.273315436,0.335732672,1.41E-05
NCU03661,3986.985748,1.068288959,0.281644409,1.39E-05
NCU09513,4466.58673,-1.131173875,0.297419754,1.36E-05
NCU09097,1476.955667,-1.451226508,0.381133934,1.34E-05
NCU06884,1088.313902,-1.315719995,0.345235287,1.32E-05
NCU08487,723.2416692,-1.383382388,0.36240612,1.25E-05
NCU09915,5274.517743,1.84743309,0.483779794,1.23E-05
NCU06187,4352.317617,1.32786857,0.347188033,1.21E-05
NCU02051,1458.18131,1.233363294,0.322362065,1.19E-05
NCU05683,2323.705557,-1.513524984,0.393686267,1.12E-05
NCU16947,596.1983821,-1.080386933,0.281016867,1.10E-05
NCU00121,3238.425277,-1.297943201,0.336819654,1.06E-05
NCU05195,511.440968,-1.070160566,0.277155055,1.04E-05
NCU06123,14652.11473,1.207527911,0.310357366,1.02E-05
NCU16418,322.2639838,2.891800955,0.742921027,1.01E-05
NCU04622,1287.165155,-1.419505896,0.36437672,9.90E-06
NCU01561,554.6124014,1.972581075,0.505723383,9.73E-06
NCU07308,16177.12202,2.085505075,0.53303008,9.57E-06
NCU07233,967.7612122,-1.789331041,0.457168589,9.42E-06
NCU07307,18138.84031,2.069020237,0.528280099,9.26E-06
NCU08302,794.0660443,1.082484132,0.276351713,9.11E-06
NCU07876,862.6039675,-1.19830625,0.305391875,8.80E-06
NCU00247,384.9387649,-2.599660034,0.658785289,8.04E-06
NCU03333,2009.429776,-1.043278579,0.264030459,7.76E-06
NCU04526,751.4424888,-2.429410853,0.614690591,7.62E-06
NCU05243,2241.614598,1.378201688,0.348373698,7.48E-06
NCU00090,6408.941525,-1.141025356,0.288292067,7.34E-06
NCU02287,10706.79501,-1.474734961,0.372517419,7.20E-06
NCU09773,84.96718126,-5.385330192,1.359515411,7.06E-06
NCU17136,788.8874867,-3.129092462,0.789577249,6.92E-06
NCU08169,1431.06272,-1.428879853,0.359649994,6.78E-06
NCU08907,746.4345441,-4.813611444,1.206239066,6.40E-06
NCU04384,154.9338799,1.334540632,0.334244568,6.27E-06
NCU09259,778.9679419,-1.124325959,0.281273851,6.15E-06
NCU03636,1276.848276,1.147404629,0.286937154,6.02E-06
NCU00619,1165.085216,-1.232867807,0.308292748,5.90E-06
NCU01879,2778.307542,-1.407958765,0.35186486,5.78E-06
NCU00865,2870.94315,1.662583606,0.415229839,5.65E-06
NCU01063,805.8136111,-1.462446964,0.365096185,5.53E-06
NCU10387,61.36409997,-6.13525851,1.531358718,5.40E-06
NCU08988,1478.294203,1.348652061,0.334064148,4.81E-06
NCU00128,989.4419728,2.135739563,0.528711362,4.70E-06
NCU09200,555.2398623,1.08479711,0.268027708,4.48E-06
NCU03591,4960.071529,-1.41053618,0.347779624,4.37E-06
NCU02623,7311.17818,-1.236806645,0.304795381,4.26E-06
NCU10239,687.8828583,2.177330215,0.536098554,4.16E-06
NCU00677,1136.800113,1.419550946,0.349374141,4.05E-06
NCU05649,1195.78287,-2.752783868,0.677226511,3.95E-06
NCU09031,2455.766393,-1.776063802,0.436220999,3.84E-06
NCU00818,681.3505151,-2.436036878,0.598157893,3.74E-06
NCU02877,1557.803057,-1.245265461,0.305526444,3.64E-06
NCU09365,815.7272505,-1.96157499,0.480261489,3.53E-06
NCU09549,780.1473655,1.904355318,0.46554553,3.44E-06
NCU07287,20329.41651,1.80990575,0.440083254,3.16E-06
NCU10883,1525.210716,-1.606009802,0.389344211,2.98E-06
NCU06401,818.0121044,1.414402535,0.341584073,2.89E-06
NCU04796,12839.63246,-1.647171608,0.397392768,2.81E-06
NCU04126,186.1505883,1.823622724,0.4390457,2.73E-06
NCU02099,4288.822877,-1.547748581,0.372617295,2.66E-06
NCU07270,383.9443688,1.85945109,0.445907835,2.58E-06
NCU02826,1795.953191,-1.275777991,0.30430407,2.44E-06
NCU01869,1253.795983,1.057311606,0.251087604,2.31E-06
NCU02903,4645.57287,1.947116278,0.461242535,2.25E-06
NCU01645,4556.123542,-1.146829925,0.271652409,2.19E-06
NCU00581,880.8114827,1.068914434,0.253099204,2.14E-06
NCU08695,1406.575181,-1.476231747,0.348891864,2.08E-06
NCU05143,1397.487592,-3.237869559,0.764594049,2.02E-06
NCU05138,92.75178452,-1.99510422,0.470203841,1.96E-06
NCU05652,1352.616407,-3.633158673,0.855764371,1.91E-06
NCU02596,1932.137121,-3.31100609,0.77782385,1.86E-06
NCU04266,2568.437522,-3.474819604,0.815892905,1.80E-06
NCU05821,405.4109618,3.628682931,0.849990824,1.70E-06
NCU04314,6298.04485,-1.689873419,0.393634038,1.65E-06
NCU01861,4305.415729,-5.354686636,1.240752405,1.61E-06
NCU08384,2220.228359,2.074063353,0.480105269,1.53E-06
NCU06548,13.66772446,6.497543441,1.50312224,1.49E-06
NCU04410,3642.42602,-2.525633207,0.58392611,1.45E-06
NCU05126,339.318305,-5.802177721,1.341229764,1.41E-06
NCU05627,2693.375748,-3.031375262,0.70051977,1.37E-06
NCU00468,1352.873117,1.109501131,0.25606788,1.33E-06
NCU05629,347.7620177,-5.898940094,1.357910692,1.29E-06
NCU08397,4674.176978,-3.589341531,0.823068975,1.21E-06
NCU09536,3308.492143,-3.406628044,0.779806757,1.18E-06
NCU00673,73677.54151,-1.20595512,0.275287357,1.14E-06
NCU05988,719.9101635,1.177154486,0.268517061,1.11E-06
NCU06400,605.3065395,1.806154561,0.411422269,1.08E-06
NCU05712,147.4658733,-4.901420805,1.116153946,1.05E-06
NCU02167,2262.697552,1.285768871,0.292647419,1.01E-06
NCU08418,1026.513683,-2.372212371,0.538219886,9.82E-07
NCU08184,175.0842215,-3.370166405,0.76396063,9.52E-07
NCU00985,291.122394,-4.547457023,1.030451869,9.22E-07
NCU02843,93.76774268,1.44862525,0.327891522,8.92E-07
NCU01565,12126.40018,1.514603823,0.3422724,8.63E-07
NCU00055,1424.953416,1.058630343,0.239037042,8.05E-07
NCU09350,50.61960652,2.574961395,0.579638087,7.76E-07
NCU04256,3102.572555,-1.707668579,0.382965939,7.49E-07
NCU05855,1189.320967,-4.945014554,1.105262622,7.24E-07
NCU10539,107.2271036,-5.064259427,1.131132602,7.01E-07
NCU09739,950.4532891,-1.292602321,0.288576381,6.77E-07
NCU09986,1874.290061,-1.303069361,0.289935475,6.54E-07
NCU03468,4711.160119,1.586836703,0.352783743,6.32E-07
NCU01572,906.5822168,1.432021631,0.318256471,6.10E-07
NCU04343,3950.868614,-2.674779083,0.592128178,5.89E-07
NCU03484,793.9425156,-1.740606897,0.382990418,5.49E-07
NCU02209,35444.28735,1.905718438,0.41928905,5.31E-07
NCU08183,1592.778536,-4.476889813,0.984145201,5.13E-07
NCU08775,618.101219,-1.280562739,0.281237838,4.95E-07
NCU04132,635.2736744,1.179027447,0.258432882,4.60E-07
NCU09422,1638.074456,-1.658034411,0.363408479,4.43E-07
NCU08429,235.0279256,-4.211589464,0.922809175,4.26E-07
NCU07802,1843.403473,-1.86767761,0.408381573,4.08E-07
NCU08746,413.0935067,-3.146615178,0.68790616,3.91E-07
NCU02602,1452.767874,1.551177544,0.338597036,3.74E-07
NCU06075,47907.68294,1.039457307,0.226331551,3.57E-07
NCU07798,529.6172453,-2.404158613,0.522346892,3.41E-07
NCU07098,1458.402807,-1.687174651,0.365589517,3.25E-07
NCU00552,12960.59155,-1.768451898,0.3815892,2.96E-07
NCU05843,2822.543066,1.523261091,0.327597005,2.83E-07
NCU07525,29.53306562,3.530754013,0.756417696,2.70E-07
NCU05822,114.2845238,-5.824723074,1.247464085,2.59E-07
NCU06597,2600.307909,-3.613770152,0.772291223,2.35E-07
NCU03142,2805.468028,1.372188999,0.291819455,2.24E-07
NCU06273,2446.885003,-1.619274266,0.344230081,2.14E-07
NCU08805,256.5111848,2.240799353,0.47606884,2.03E-07
NCU05141,2202.868419,-1.607213388,0.341135851,1.93E-07
NCU03378,1329.266704,-1.2137526,0.257423403,1.83E-07
NCU04851,1517.892951,1.163161477,0.245761845,1.72E-07
NCU08824,1103.379968,-1.233297377,0.259946913,1.63E-07
NCU04025,313.3731743,-3.369640252,0.708804427,1.54E-07
NCU10457,402.6907664,2.114619887,0.444426773,1.45E-07
NCU05499,737.3577075,-2.711384792,0.56845424,1.28E-07
NCU00357,1755.249519,-1.118346352,0.234252533,1.19E-07
NCU05356,1222.36559,1.061104567,0.221871855,1.11E-07
NCU03146,1244.605792,-1.366832154,0.28529794,1.03E-07
NCU06166,487.3894967,-1.504142746,0.311576559,9.47E-08
NCU02704,1276.445098,-3.110006114,0.642282152,8.81E-08
NCU00239,2457.524695,-1.171524243,0.241742831,8.19E-08
NCU02084,628.6247704,-3.057636544,0.629445371,7.57E-08
NCU01055,5515.575699,2.255130526,0.464017316,6.97E-08
NCU07767,1341.696188,1.979363519,0.406696894,6.37E-08
NCU03198,617.3068086,2.967464046,0.60802404,5.78E-08
NCU08839,208.02031,-3.948440664,0.802627488,5.22E-08
NCU06785,34093.73406,1.955814486,0.39641813,4.76E-08
NCU05411,4330.834739,2.530996026,0.503734801,3.64E-08
NCU06005,24726.14232,2.529140805,0.499282112,3.37E-08
NCU09087,938.0338235,1.547875012,0.305281372,3.15E-08
NCU00803,1290.04753,1.40841176,0.277035132,2.93E-08
NCU11337,9516.540025,-1.792544201,0.351455391,2.73E-08
NCU09428,639.5248594,-4.344656818,0.849029869,2.54E-08
NCU01374,468.0781153,1.5187415,0.296354262,2.36E-08
NCU00790,57009.24325,2.582727618,0.503601055,2.19E-08
NCU06981,1615.862015,-1.78326943,0.346863443,2.02E-08
NCU04071,1368.025578,1.499236549,0.289892306,1.85E-08
NCU00175,2884.917767,-2.94044486,0.567269285,1.71E-08
NCU03500,1684.078942,1.23956095,0.237076257,1.46E-08
NCU08691,1479.669047,2.519862144,0.480388773,1.36E-08
NCU02257,1385.55474,-1.637757877,0.31192041,1.26E-08
NCU07514,1547.25287,-1.223205864,0.232859483,1.16E-08
NCU08986,1847.287997,-2.206856195,0.419055511,1.06E-08
NCU02527,490.9484922,1.970288562,0.371140633,9.71E-09
NCU06783,31190.32112,2.164362383,0.407457407,8.98E-09
NCU09854,711.2658016,3.290246135,0.616007267,8.23E-09
NCU01151,1549.17291,2.807756034,0.523475157,7.60E-09
NCU04635,2839.328988,-3.020737895,0.561081013,7.04E-09
NCU01745,3519.896562,1.203275861,0.223082306,6.53E-09
NCU05131,597.4656979,-2.322110395,0.430472942,6.04E-09
NCU07609,457.6435589,1.651377653,0.305015788,5.54E-09
NCU03768,651.8415587,1.484008937,0.27377798,5.08E-09
NCU00282,1013.282233,-1.337353392,0.246479312,4.62E-09
NCU02814,2456.566282,-1.182182673,0.216869313,4.16E-09
NCU05692,214.6078097,-1.678987894,0.306756047,3.76E-09
NCU00246,429.2082652,-1.931194178,0.350378343,3.40E-09
NCU04823,1280.115783,-4.171307417,0.756439545,3.11E-09
NCU02925,10848.19292,4.006952988,0.725148517,2.82E-09
NCU02126,1406.731109,-2.486831886,0.449412595,2.54E-09
NCU17188,2618.524995,2.235093362,0.402929605,2.26E-09
NCU06727,6183.751665,1.397344635,0.251848062,1.99E-09
NCU03704,793.0292453,-1.418354264,0.254724655,1.72E-09
NCU04931,16397.22036,1.746808138,0.312401695,1.46E-09
NCU07915,2545.724046,-1.894402096,0.337488092,1.23E-09
NCU05603,457.0010575,1.185199946,0.210377186,1.03E-09
NCU03120,1818.519098,1.134982217,0.200523647,8.37E-10
NCU02086,707.4603264,-4.558743754,0.791630468,5.12E-10
NCU08699,778.9292073,-2.81840325,0.488785262,4.14E-10
NCU10809,901.3377322,-1.705150084,0.293873055,3.16E-10
NCU06006,732.6953207,1.493992725,0.255419491,2.34E-10
NCU06315,1502.595513,-1.730913376,0.294544361,1.70E-10
NCU02190,1225.745402,-2.903314243,0.481532998,1.13E-10
NCU17137,206.8348272,1.922385472,0.315708317,9.18E-11
NCU02128,2806.437089,1.727315912,0.281583373,7.69E-11
NCU09041,9624.685954,-5.179283179,0.843013668,6.56E-11
NCU06294,2431.891372,-1.8202629,0.293583106,5.44E-11
NCU06963,4155.321524,1.615018508,0.258515587,3.86E-11
NCU07345,493.8897789,-4.997137678,0.796613045,3.23E-11
NCU03213,293.0557712,1.944767277,0.309511722,2.67E-11
NCU08232,847.2806929,-2.843853078,0.450596045,2.11E-11
NCU14089,3681.777599,2.763344412,0.435199649,1.62E-11
NCU07180,284.2723155,3.192293006,0.501531344,1.23E-11
NCU05134,2012.275376,4.465136655,0.699525342,8.38E-12
NCU08895,1261.041154,-1.342541374,0.20745266,4.64E-12
NCU05995,50446.86951,-1.259719168,0.190032848,2.45E-12
NCU08398,200.9808858,-3.178366639,0.474208841,1.69E-12
NCU06951,237.8870881,2.376858488,0.35457029,1.21E-12
NCU04662,1683.654238,1.449419076,0.209753719,6.87E-13
NCU00085,1302.982194,1.825218468,0.263978248,5.79E-13
NCU03684,3499.83343,-2.617607421,0.376461366,4.61E-13
NCU00844,889.6235923,2.916984084,0.41701604,3.66E-13
NCU07817,3759.400402,-3.133329247,0.447836455,2.92E-13
NCU00477,27904.25094,-1.309397964,0.186127995,2.07E-13
NCU06361,6912.970963,-1.688241702,0.239368542,1.36E-13
NCU08230,1332.340033,-2.645746613,0.366092896,6.16E-14
NCU08816,657.1702227,-4.918483699,0.680174266,4.10E-14
NCU08696,2877.985589,1.87301111,0.253486531,1.62E-14
NCU09729,1440.57025,2.694394899,0.362697058,7.96E-15
NCU06660,8585.976551,-3.133333081,0.393031678,1.48E-16
NCU08069,456.8015971,2.773892256,0.337562023,2.18E-17
NCU00825,680.27711,2.2842645,0.263544144,1.20E-18
NCU07325,768.8216164,-3.038040111,0.350076417,8.63E-19
NCU05188,866.8785388,-5.164070469,0.585115189,2.90E-19
NCU04360,9766.23018,-2.144744385,0.235053179,3.60E-20
