Symbol,baseMean,log2FoldChange,lfcSE,svalue
NCU08676,5309.479284,-1.000402518,0.204496845,5.16E-08
NCU07514,1547.25287,-1.000421166,0.221701501,3.70E-07
NCU03056,273.3927909,-1.000638754,0.316167928,1.09E-04
NCU05387,3511.647496,-1.000819926,0.345950439,2.86E-04
NCU05393,182.9392991,-1.000923845,0.351920048,3.40E-04
NCU08354,1269.713497,-1.002574963,0.241787439,2.02E-06
NCU04270,4023.547461,-1.003237434,0.206557763,6.57E-08
NCU14049,111.0597742,-1.004341548,0.487371171,0.003578605
NCU06538,351.6960111,-1.005220662,0.386737746,7.40E-04
NCU01411,300.613499,-1.007764411,0.314449628,9.60E-05
NCU08127,4207.501621,-1.008124833,0.219653266,2.66E-07
NCU00790,57009.24325,-1.009559323,0.49352183,0.003743263
NCU06193,735.258936,-1.011566325,0.251013608,3.22E-06
NCU08436,642.3765632,-1.011943616,0.272879785,1.43E-05
NCU08018,604.8585825,-1.012333698,0.337817226,2.09E-04
NCU07927,279.1048192,-1.013122158,0.503256701,0.004051073
NCU06131,1189.264541,-1.01472026,0.586293115,0.008042421
NCU03151,3409.362567,-1.018798692,0.302705375,5.44E-05
NCU07802,1843.403473,-1.018820437,0.387372105,6.77E-04
NCU05885,139.2851408,-1.018940469,0.36364498,3.95E-04
NCU08434,6082.739177,-1.019357714,0.44790435,0.001892279
NCU06310,502.8090955,-1.021518586,0.290405509,3.09E-05
NCU10232,1983.324767,-1.024454273,0.198097621,1.17E-08
NCU08011,282.327935,-1.024895751,0.450396412,0.001896071
NCU08356,4934.698778,-1.026246094,0.293557604,3.43E-05
NCU01967,603.5021465,-1.028159507,0.368179935,4.04E-04
NCU08044,1993.22779,-1.028999701,0.236753903,7.76E-07
NCU00758,471.3763748,-1.029296182,0.204216771,2.49E-08
NCU06578,2287.620836,-1.030346772,0.184220059,8.52E-10
NCU08298,1020.667055,-1.032677699,0.386382132,5.99E-04
NCU07057,619.6203224,-1.033576467,0.307258485,5.54E-05
NCU08165,345.7757527,-1.035775024,0.336166061,1.52E-04
NCU05830,1520.880447,-1.036275367,0.489484796,0.003003806
NCU00106,1494.15748,-1.037255904,0.380193206,4.87E-04
NCU11288,2257.215589,-1.037514102,0.283999089,1.74E-05
NCU03303,1719.975188,-1.037949737,0.228404172,3.21E-07
NCU05426,479.3455139,-1.039768157,0.384905323,5.35E-04
NCU00867,3314.63039,-1.042152319,0.35068879,2.23E-04
NCU11363,373.0021452,-1.044772758,0.5812903,0.006996573
NCU11146,263.2503807,-1.045707525,0.578891901,0.006744244
NCU11245,396.8621917,-1.047995616,0.389847156,5.66E-04
NCU08895,1261.041154,-1.049470758,0.199605342,6.47E-09
NCU07953,2839.016503,-1.050292091,0.497460812,0.003050192
NCU01860,590.0862451,-1.051197835,0.488842626,0.002736302
NCU09191,1565.130606,-1.051328248,0.343966641,1.67E-04
NCU11370,1248.915155,-1.052637989,0.263172359,3.94E-06
NCU02270,689.3557324,-1.052724242,0.259410197,2.98E-06
NCU06960,568.9921671,-1.054028771,0.312992237,5.37E-05
NCU03306,1482.802107,-1.054812711,0.26433472,4.16E-06
NCU01985,5258.434623,-1.058312558,0.424307254,0.001015227
NCU08280,2959.658348,-1.059626245,0.330505035,9.56E-05
NCU04282,242.8530283,-1.06255848,0.55048947,0.004916699
NCU02630,1841.546841,-1.063854985,0.43396276,0.001166804
NCU08273,2296.107348,-1.066677581,0.284771338,1.17E-05
NCU05001,1966.864007,-1.066805343,0.157564662,6.26E-13
NCU01900,235.1305074,-1.067429253,0.400919565,6.07E-04
NCU03462,811.3761851,-1.068389729,0.53912989,0.004373275
NCU04380,7092.672089,-1.069431728,0.226352191,1.32E-07
NCU16769,1525.006566,-1.069651566,0.288100404,1.38E-05
NCU00536,1495.794272,-1.070811871,0.244725111,6.12E-07
NCU07694,864.7479977,-1.071192033,0.221965478,8.20E-08
NCU06183,2021.394114,-1.072420612,0.225476479,1.06E-07
NCU00983,5951.809516,-1.073386129,0.280868001,8.27E-06
NCU09715,13518.22346,-1.073506651,0.343801725,1.26E-04
NCU04099,187.7165434,-1.073687129,0.519644807,0.003505988
NCU01083,2565.50104,-1.073934038,0.356139301,1.95E-04
NCU00305,417.3015435,-1.074052069,0.326835598,7.23E-05
NCU02162,441.1622706,-1.076177373,0.299771255,2.21E-05
NCU00369,966.5844057,-1.076590724,0.313621191,4.24E-05
NCU00155,1049.448146,-1.077928302,0.425610689,9.04E-04
NCU02632,1205.618289,-1.078770783,0.242431278,4.90E-07
NCU01347,1021.161282,-1.078783782,0.600200212,0.006987866
NCU00575,15052.46494,-1.083331302,0.344565327,1.19E-04
NCU06207,6275.875091,-1.08340544,0.400489018,5.29E-04
NCU11337,9516.540025,-1.08392636,0.342576576,1.09E-04
NCU06589,220.8738649,-1.0850018,0.6374843,0.008600077
NCU02565,1304.299324,-1.085065981,0.291178128,1.29E-05
NCU07837,1427.810025,-1.086738966,0.332874389,7.81E-05
NCU07947,4317.37373,-1.087149978,0.292679611,1.37E-05
NCU01975,1449.7217,-1.089103867,0.295506562,1.57E-05
NCU05853,804.4927103,-1.089652744,0.390689048,4.10E-04
NCU00403,1128.143333,-1.090770448,0.281535806,6.56E-06
NCU02361,606.6126037,-1.091222131,0.521691258,0.003243939
NCU06063,250.6674594,-1.09176097,0.604724686,0.006752907
NCU00876,1131.843409,-1.093253204,0.275534221,4.60E-06
NCU07008,447.6750907,-1.097306743,0.395731733,4.21E-04
NCU08164,444.4259771,-1.097412383,0.425703296,7.90E-04
NCU09746,1562.359707,-1.097667614,0.225174683,5.97E-08
NCU01517,5763.88381,-1.098036237,0.536864536,0.003760473
NCU01118,2625.466626,-1.098387407,0.301080637,1.80E-05
NCU03057,358.9962493,-1.099040201,0.386293632,3.38E-04
NCU07798,529.6172453,-1.100656801,0.495758479,0.002226262
NCU07153,8988.611552,-1.101035039,0.287619176,8.15E-06
NCU01969,356.5314424,-1.101330051,0.304711658,2.03E-05
NCU09304,323.9522046,-1.103296198,0.333578523,6.74E-05
NCU00677,1136.800113,-1.103656383,0.338896976,8.08E-05
NCU09228,8110.049437,-1.10519306,0.223576884,3.89E-08
NCU04402,288.6160419,-1.106769909,0.257122395,9.07E-07
NCU05154,2465.839415,-1.107220704,0.478014584,0.001653973
NCU05384,429.4187844,-1.107348769,0.487809206,0.001922859
NCU03029,850.3707688,-1.111382144,0.301381294,1.56E-05
NCU09959,245.9552602,-1.112460493,0.471834065,0.001494527
NCU03741,3714.158569,-1.112790746,0.267932649,1.95E-06
NCU06989,5095.238772,-1.113822169,0.272203262,2.50E-06
NCU02514,31622.02611,-1.11437873,0.228108714,5.51E-08
NCU08398,200.9808858,-1.116272891,0.435033383,8.18E-04
NCU14048,116.8628147,-1.117759235,0.351402761,1.05E-04
NCU05430,37482.27751,-1.120005799,0.243596517,2.56E-07
NCU08626,1234.015191,-1.120085522,0.270184016,2.04E-06
NCU07619,316.4960844,-1.120320992,0.421707664,6.21E-04
NCU00737,1517.925175,-1.121305034,0.265263356,1.31E-06
NCU10904,192.9961134,-1.121560703,0.283196954,4.78E-06
NCU02888,2055.084502,-1.121731104,0.433398909,7.65E-04
NCU17227,497.3254171,-1.121987064,0.445243771,9.48E-04
NCU04946,3649.709392,-1.122004644,0.158183743,5.10E-14
NCU08137,3562.282574,-1.122090977,0.426802796,6.82E-04
NCU02882,2736.146262,-1.122812886,0.431423601,7.29E-04
NCU16917,808.8342267,-1.125139534,0.279040882,3.19E-06
NCU06025,177.757786,-1.128097378,0.336282889,5.77E-05
NCU03346,42.58340798,-1.128973442,0.598527809,0.005571702
NCU07738,1474.327768,-1.129249708,0.347236035,8.21E-05
NCU03749,2698.300698,-1.130833453,0.265052466,1.09E-06
NCU03284,3159.409496,-1.131458628,0.18361021,3.51E-11
NCU00154,1867.550718,-1.131483292,0.209331434,3.24E-09
NCU01608,92.74410093,-1.132386849,0.442630996,8.41E-04
NCU06576,1195.990613,-1.132607509,0.166466629,5.01E-13
NCU04383,2199.724259,-1.136178013,0.194614298,2.89E-10
NCU02027,2922.239394,-1.137085882,0.295349627,7.27E-06
NCU11027,4303.318173,-1.141109941,0.209587156,2.52E-09
NCU05225,2110.429695,-1.14368424,0.321067534,2.47E-05
NCU04768,1434.830965,-1.147979537,0.550695317,0.003308322
NCU06107,935.7058898,-1.149801302,0.289614173,4.49E-06
NCU05350,227.2117857,-1.150925043,0.526500318,0.002467731
NCU04797,8639.616878,-1.150956167,0.462896044,0.00103924
NCU04472,2730.266809,-1.152123208,0.370710013,1.36E-04
NCU09931,4760.202545,-1.152626793,0.38098102,1.90E-04
NCU05624,88.89799854,-1.153079213,0.399385117,2.93E-04
NCU09770,2902.516629,-1.154434993,0.311104832,1.40E-05
NCU03751,842.7203656,-1.157013891,0.538816024,0.002750791
NCU09646,3765.777187,-1.157651799,0.302469823,8.21E-06
NCU08677,4840.996412,-1.158121887,0.407319584,3.42E-04
NCU06352,1043.797435,-1.15832499,0.229167255,2.36E-08
NCU07362,1401.192716,-1.158401991,0.304256311,8.99E-06
NCU02798,2111.085849,-1.158670131,0.422951305,4.67E-04
NCU05619,112.0879651,-1.160839919,0.645667016,0.00695301
NCU08047,1749.25589,-1.161378676,0.324178133,2.32E-05
NCU09732,2314.688975,-1.163529788,0.312772213,1.33E-05
NCU04655,1163.853356,-1.163793882,0.288055202,3.14E-06
NCU03803,3711.864808,-1.165056593,0.280738316,1.97E-06
NCU09652,337.0806543,-1.165636137,0.439439224,6.28E-04
NCU00519,1854.17717,-1.167041569,0.33756728,3.90E-05
NCU09212,6910.240595,-1.167304603,0.553542783,0.003081244
NCU06265,10163.82546,-1.167441067,0.624765652,0.00580212
NCU07394,1069.399968,-1.168058559,0.22883213,1.65E-08
NCU14030,162.0792221,-1.170527411,0.538277385,0.002571886
NCU04139,72.46265236,-1.171671681,0.602317182,0.004728417
NCU06156,77.12410275,-1.171676607,0.589608956,0.004302454
NCU14077,307.6711074,-1.174044281,0.592010503,0.004334545
NCU02022,201.8107644,-1.174737475,0.580315723,0.003948398
NCU02846,939.9440448,-1.176084241,0.281355438,1.64E-06
NCU01516,2311.708644,-1.178168228,0.350221265,5.49E-05
NCU00605,612.5531882,-1.178290886,0.45719209,7.92E-04
NCU09741,7575.329938,-1.178819346,0.258268413,2.99E-07
NCU08302,794.0660443,-1.180523645,0.267773589,5.45E-07
NCU08048,1302.82114,-1.180803455,0.397912048,2.27E-04
NCU07914,29048.55245,-1.180923707,0.218612337,3.31E-09
NCU02629,5505.020139,-1.182725437,0.304249665,6.41E-06
NCU04332,240.1500507,-1.182974203,0.389229385,1.80E-04
NCU08622,271.0793267,-1.184127599,0.621241829,0.005235025
NCU03647,555.8533265,-1.184842478,0.661159616,0.007057854
NCU16496,215.3287065,-1.184980394,0.356921136,6.54E-05
NCU09534,4752.028591,-1.186439132,0.368614015,9.21E-05
NCU04435,1688.947018,-1.189750717,0.314553019,1.00E-05
NCU04940,600.0793489,-1.191836321,0.458614579,7.42E-04
NCU07690,2242.592465,-1.192263887,0.417781474,3.25E-04
NCU05881,5165.805277,-1.192571319,0.38187632,1.26E-04
NCU07494,355.7900247,-1.194396158,0.336129251,2.59E-05
NCU07076,219.7100147,-1.196481533,0.394157976,1.82E-04
NCU10012,1541.793791,-1.20005183,0.377211069,1.04E-04
NCU09526,2762.57143,-1.200363236,0.4459172,5.56E-04
NCU04264,2345.019408,-1.20092412,0.282217668,1.17E-06
NCU07072,700.962089,-1.201982552,0.359008636,5.90E-05
NCU08124,687.6751012,-1.203036547,0.327563922,1.63E-05
NCU00360,798.3185698,-1.205990817,0.387128757,1.32E-04
NCU06537,372.7738048,-1.206367261,0.457415582,6.63E-04
NCU00520,2439.749716,-1.206476143,0.388479367,1.38E-04
NCU00295,3210.555424,-1.210321961,0.282312909,9.92E-07
NCU03401,632.3120088,-1.210544004,0.223005806,2.65E-09
NCU04193,836.5387207,-1.210763929,0.257485404,1.52E-07
NCU03737,6559.699509,-1.214490189,0.447435239,5.11E-04
NCU11196,1602.313606,-1.214912061,0.285350561,1.14E-06
NCU08943,282.8142678,-1.217101971,0.379298808,9.44E-05
NCU07993,808.4251912,-1.217331669,0.359403851,4.92E-05
NCU05585,305.1345841,-1.217353592,0.3388268,2.18E-05
NCU06867,509.4897808,-1.217751425,0.310326949,5.67E-06
NCU07083,859.2013932,-1.219342513,0.619978964,0.004511091
NCU04358,858.0749827,-1.221539739,0.236833543,1.22E-08
NCU01810,1940.321557,-1.221734574,0.386097195,1.09E-04
NCU00326,1767.308944,-1.225621133,0.264312135,2.26E-07
NCU02799,251.6745952,-1.227486295,0.364521422,5.39E-05
NCU14085,284.964722,-1.229216802,0.426331049,2.97E-04
NCU10106,64.99691311,-1.229424866,0.72465201,0.00875292
NCU01487,13120.86046,-1.230019551,0.418670844,2.45E-04
NCU03361,233.9158487,-1.230602724,0.246820435,3.00E-08
NCU00987,575.1661459,-1.231287016,0.463904123,6.26E-04
NCU07811,225.1500448,-1.231757295,0.354644299,3.68E-05
NCU12057,228.6377238,-1.23230298,0.321126343,7.82E-06
NCU10506,1737.246444,-1.232338846,0.213007953,3.75E-10
NCU08809,1025.108127,-1.233690938,0.456232317,5.30E-04
NCU09343,289.4027254,-1.235339053,0.435608324,3.50E-04
NCU16370,234.3176004,-1.238091069,0.386914055,9.76E-05
NCU06890,757.8252507,-1.240733036,0.524112439,0.001469042
NCU05897,527.2323781,-1.241516397,0.563730401,0.002325243
NCU00537,2723.685811,-1.242155045,0.359125236,3.88E-05
NCU05683,2323.705557,-1.243834042,0.373285158,6.27E-05
NCU04301,2083.036593,-1.24697638,0.22341619,1.04E-09
NCU02568,370.7053782,-1.247549391,0.483886889,7.88E-04
NCU07325,768.8216164,-1.248623251,0.323881814,7.06E-06
NCU03590,595.5688192,-1.249390522,0.242905527,1.38E-08
NCU07349,288.3181471,-1.2507025,0.619734326,0.003990343
NCU02297,83.98539777,-1.251070502,0.674147978,0.00600719
NCU05070,1456.163727,-1.257561656,0.484853449,7.48E-04
NCU01768,24851.02893,-1.258580746,0.411638471,1.66E-04
NCU05842,873.5614956,-1.25858875,0.604891447,0.003335445
NCU07849,2765.74157,-1.259736112,0.363548824,3.80E-05
NCU00078,361.5879329,-1.259966437,0.327490301,7.38E-06
NCU00487,336.3881471,-1.261047303,0.412994734,1.69E-04
NCU00793,33460.24621,-1.261895208,0.525129198,0.001317648
NCU08935,1247.874569,-1.262443154,0.369493764,4.43E-05
NCU06142,1077.825184,-1.262493257,0.334908297,1.06E-05
NCU09073,161.6277511,-1.262860229,0.761686101,0.009561282
NCU07281,21536.58939,-1.262876898,0.257397522,4.90E-08
NCU08721,1078.291834,-1.263208373,0.386505601,7.74E-05
NCU04086,766.6034753,-1.265286733,0.349406675,1.94E-05
NCU11383,1184.78156,-1.26639103,0.35314671,2.25E-05
NCU05527,2517.684285,-1.266403351,0.392877392,8.90E-05
NCU00104,10621.27059,-1.268000772,0.379713194,6.08E-05
NCU01891,513.8699675,-1.271799342,0.700967172,0.006632495
NCU17261,506.4481011,-1.271898765,0.3656579,3.64E-05
NCU06325,92.54910064,-1.272488513,0.735441095,0.008061906
NCU07108,813.9229889,-1.272581348,0.635076128,0.004125266
NCU07478,650.9142396,-1.275309251,0.38507419,6.66E-05
NCU09533,1742.711433,-1.277012171,0.424388531,2.02E-04
NCU07883,2651.319134,-1.277879851,0.320553872,4.19E-06
NCU02580,21124.89363,-1.27808763,0.334667446,8.51E-06
NCU03190,185.5568398,-1.279517702,0.360077482,2.58E-05
NCU16394,211.2838934,-1.281392502,0.710681912,0.006805001
NCU04921,1919.782362,-1.281541588,0.378535313,5.01E-05
NCU08718,241.802908,-1.283464759,0.365335947,3.17E-05
NCU07360,880.7286899,-1.283598763,0.323727112,4.67E-06
NCU05499,737.3577075,-1.284043301,0.544920348,0.001500952
NCU09419,874.0620731,-1.287367072,0.340121833,9.87E-06
NCU16947,596.1983821,-1.288911346,0.259384604,3.42E-08
NCU00076,2061.768546,-1.290801751,0.317829734,2.93E-06
NCU02786,6478.448158,-1.292403479,0.242150093,4.38E-09
NCU04721,822.8969227,-1.292466198,0.47056542,4.52E-04
NCU07889,4140.424588,-1.295083047,0.313614404,2.19E-06
NCU09425,1600.303749,-1.295230011,0.310846709,1.79E-06
NCU09600,1677.187491,-1.298667559,0.351667623,1.55E-05
NCU09138,2017.982399,-1.302671265,0.225832051,4.10E-10
NCU06941,409.5981153,-1.303604598,0.314362257,2.00E-06
NCU10476,1422.428802,-1.304088546,0.288412601,3.45E-07
NCU12067,338.4621395,-1.306169681,0.516414152,9.13E-04
NCU04237,524.8248177,-1.30891851,0.401190358,7.87E-05
NCU04310,1484.04091,-1.309634741,0.356178444,1.61E-05
NCU06348,1518.199901,-1.314104387,0.355792087,1.54E-05
NCU02254,1126.088625,-1.31420578,0.217289047,7.41E-11
NCU02063,715.2950131,-1.314708719,0.261572389,2.58E-08
NCU06512,25927.17682,-1.315176387,0.295119304,4.68E-07
NCU16661,109.7834135,-1.315371582,0.516818935,8.76E-04
NCU09599,1177.025941,-1.316137733,0.448004603,2.46E-04
NCU07075,6311.322493,-1.31771244,0.364001827,1.96E-05
NCU00653,128.1786263,-1.321716979,0.773889024,0.008468196
NCU01874,521.9739578,-1.323206298,0.347533624,8.93E-06
NCU01449,5732.440253,-1.325720714,0.353369383,1.16E-05
NCU01881,7214.774352,-1.328611776,0.388425058,4.39E-05
NCU01815,2713.803164,-1.33119766,0.331163335,3.48E-06
NCU04899,13099.42878,-1.331362362,0.293485717,3.28E-07
NCU06086,4820.587505,-1.33140711,0.384434179,3.84E-05
NCU01053,733.1863792,-1.33704524,0.319800231,1.61E-06
NCU00937,457.1623507,-1.338721736,0.729494179,0.006347172
NCU01190,2281.562884,-1.344377063,0.216857141,2.65E-11
NCU08828,19307.80708,-1.344418063,0.344499093,6.10E-06
NCU08146,387.4622675,-1.344514094,0.652540682,0.003584207
NCU06717,1693.82072,-1.345263695,0.198987048,6.63E-13
NCU01285,1906.920625,-1.346010714,0.183142896,4.47E-15
NCU03886,2563.022495,-1.346784327,0.307958134,6.28E-07
NCU00903,14268.99498,-1.3473987,0.213878972,1.17E-11
NCU09331,6423.81233,-1.349128314,0.303029847,4.85E-07
NCU08556,1025.610043,-1.351544373,0.253023448,4.27E-09
NCU02267,2284.846279,-1.354604515,0.189216083,2.90E-14
NCU00129,705.7904172,-1.354742877,0.288728949,1.58E-07
NCU07066,502.2192365,-1.355028368,0.37235832,1.84E-05
NCU07836,146.8435108,-1.357015849,0.496553255,4.78E-04
NCU06519,345.8794997,-1.357021971,0.383973973,2.81E-05
NCU01420,1808.861924,-1.359778545,0.24723089,1.86E-09
NCU04269,164.7005748,-1.360972222,0.809076558,0.009082799
NCU07323,77.91108598,-1.362877857,0.77246202,0.007608025
NCU02479,3989.925545,-1.363734187,0.312438476,6.60E-07
NCU00236,2096.820722,-1.364774843,0.365883416,1.28E-05
NCU11424,3177.687473,-1.365907277,0.253995614,3.67E-09
NCU01871,12804.22156,-1.366296037,0.501639408,4.97E-04
NCU08827,469.6888784,-1.368544943,0.51245209,6.02E-04
NCU08703,299.9747012,-1.370591083,0.720860718,0.005323728
NCU09709,4736.316094,-1.371258053,0.120520716,2.71E-31
NCU09689,746.036457,-1.371428226,0.3415528,3.57E-06
NCU16378,128.9213901,-1.371475348,0.47927517,3.17E-04
NCU12104,250.1984796,-1.372126937,0.588840346,0.001595054
NCU05574,279.9032853,-1.373130775,0.489519455,3.89E-04
NCU00943,181.3619008,-1.373150158,0.576682976,0.001401121
NCU01156,1108.826979,-1.376715305,0.35788319,7.43E-06
NCU05923,188.2992423,-1.377048087,0.453522612,1.81E-04
NCU03673,757.9486648,-1.378540897,0.387310857,2.49E-05
NCU09579,1208.922898,-1.384417316,0.517086824,5.85E-04
NCU05992,302.346167,-1.387343711,0.319749785,8.02E-07
NCU01385,125.2083379,-1.399675358,0.72844905,0.005023892
NCU01744,9399.125002,-1.400127455,0.306592584,2.95E-07
NCU06986,8614.583088,-1.403727059,0.399144869,3.11E-05
NCU02801,1184.617391,-1.404776413,0.320024041,5.82E-07
NCU08191,114.3802476,-1.406031427,0.428990821,7.48E-05
NCU01753,1879.419046,-1.406035545,0.371461947,9.74E-06
NCU09611,399.7039207,-1.406345315,0.503073826,4.01E-04
NCU08921,1057.999988,-1.409072472,0.290063684,6.47E-08
NCU06081,5883.208714,-1.411981532,0.23282915,6.92E-11
NCU01512,733.3314507,-1.414387145,0.297791289,1.11E-07
NCU08359,1905.706246,-1.414803136,0.408384697,3.82E-05
NCU01089,1587.84635,-1.416358065,0.258170935,2.16E-09
NCU07441,424.0787118,-1.418136601,0.838963069,0.008927155
NCU02665,2735.143092,-1.421545452,0.243126946,2.73E-10
NCU01704,2825.869465,-1.421716606,0.396783728,2.30E-05
NCU10264,616.5204191,-1.422793579,0.362053494,5.31E-06
NCU09551,315.4018905,-1.42776089,0.394602606,2.00E-05
NCU08351,352.5610323,-1.428478809,0.499808689,3.20E-04
NCU07024,12187.07173,-1.429197527,0.370853788,7.17E-06
NCU09653,84.22429525,-1.430074823,0.420754206,4.76E-05
NCU08804,1386.887249,-1.4309394,0.263808584,2.79E-09
NCU03732,6031.39393,-1.434084669,0.275581018,9.13E-09
NCU02459,3553.416495,-1.435096449,0.231965086,3.12E-11
NCU00456,1354.198305,-1.435398794,0.454440736,1.12E-04
NCU07142,898.9870486,-1.436663113,0.67976737,0.0030244
NCU07340,667.2910416,-1.436677211,0.269183484,4.49E-09
NCU06605,2599.032084,-1.44153172,0.176932227,2.07E-17
NCU08954,1013.032856,-1.442260353,0.493777075,2.62E-04
NCU05882,1616.506605,-1.44249473,0.28556776,2.40E-08
NCU16896,461.665367,-1.443999274,0.221015511,2.08E-12
NCU05157,1242.770648,-1.444596383,0.662905222,0.00254905
NCU04025,313.3731743,-1.445615317,0.686969073,0.003122769
NCU09559,7403.370992,-1.44648596,0.359425905,3.25E-06
NCU08671,861.6593352,-1.448049908,0.310313151,1.88E-07
NCU04129,1816.187314,-1.449987176,0.409360436,2.72E-05
NCU04848,1743.210691,-1.450019783,0.357277479,2.95E-06
NCU03332,1013.113249,-1.451110214,0.294151199,4.10E-08
NCU00127,9485.290482,-1.451428818,0.33108491,5.89E-07
NCU11411,958.9224781,-1.453026456,0.259189806,7.61E-10
NCU16506,321.1467635,-1.454095068,0.225268833,4.27E-12
NCU16725,1306.671755,-1.454243074,0.529650743,4.53E-04
NCU07260,468.3412513,-1.457022438,0.349277623,1.76E-06
NCU09598,3914.655545,-1.457584973,0.245981601,1.40E-10
NCU00132,1163.911689,-1.460598866,0.248637983,2.01E-10
NCU17285,55.59512511,-1.460657659,0.649582874,0.002041343
NCU08167,3000.196443,-1.462222155,0.328150622,4.74E-07
NCU06062,784.4237595,-1.46303819,0.552218735,6.38E-04
NCU07170,1021.158056,-1.465871989,0.250644277,2.66E-10
NCU12151,1511.351677,-1.47041565,0.479359542,1.60E-04
NCU02583,1661.953727,-1.470518049,0.263416293,1.01E-09
NCU04298,592.1522054,-1.471327628,0.274059616,3.76E-09
NCU06658,964.4981051,-1.472548683,0.367592913,3.84E-06
NCU04133,2707.522331,-1.477633889,0.321012841,2.50E-07
NCU03474,28.98344462,-1.481730259,0.899969005,0.009856312
NCU08848,1166.502169,-1.482515052,0.343855981,8.77E-07
NCU06745,333.3184687,-1.486582661,0.424605402,3.34E-05
NCU09102,635.0507133,-1.486603554,0.53982944,4.41E-04
NCU02894,629.7268325,-1.486639532,0.397470212,1.20E-05
NCU03471,1138.548922,-1.495758958,0.310183163,8.43E-08
NCU03362,4823.079404,-1.495877154,0.269938851,1.38E-09
NCU10055,595.0611731,-1.497922629,0.517614152,2.83E-04
NCU09705,932.2358826,-1.503666681,0.329143621,2.89E-07
NCU09615,1950.796943,-1.508804309,0.250077935,7.97E-11
NCU05518,10366.13689,-1.509789197,0.525705548,3.08E-04
NCU16589,471.5775183,-1.511258763,0.268058038,7.02E-10
NCU05419,958.4694354,-1.51241334,0.394056837,7.76E-06
NCU08770,148.4196307,-1.513100279,0.750104369,0.004008487
NCU01260,669.6536291,-1.514129553,0.312191523,6.88E-08
NCU01181,2185.043232,-1.517399422,0.273160427,1.19E-09
NCU05625,1313.064709,-1.5195444,0.296926621,1.58E-08
NCU07165,2769.704946,-1.519746792,0.17167513,3.54E-20
NCU07869,1578.823469,-1.520305171,0.399912665,9.36E-06
NCU07021,1184.253032,-1.521854158,0.220671461,2.45E-13
NCU04443,2528.144794,-1.523583707,0.375642624,3.00E-06
NCU01926,608.6043719,-1.530290823,0.534797039,3.18E-04
NCU03497,1068.717349,-1.531799838,0.496162833,1.49E-04
NCU00846,336.8227212,-1.534217874,0.657979656,0.001581416
NCU10987,812.6684881,-1.534483711,0.342069501,4.16E-07
NCU05488,16258.79366,-1.535917345,0.230239793,1.07E-12
NCU05128,171.9312194,-1.537116439,0.520237943,2.36E-04
NCU00655,1738.292478,-1.540061261,0.383635709,3.63E-06
NCU08670,196.2618978,-1.541061647,0.686699061,0.002069526
NCU07506,1442.063538,-1.541493249,0.424776076,1.91E-05
NCU02358,2301.967421,-1.542461525,0.241418897,7.23E-12
NCU00111,526.664236,-1.542491197,0.517710847,2.17E-04
NCU14170,237.8895014,-1.543199948,0.758557212,0.003835971
NCU00715,1125.954574,-1.544662225,0.413552714,1.22E-05
NCU01086,582.9117896,-1.547909402,0.525837482,2.43E-04
NCU00122,4234.507802,-1.549060396,0.216501417,3.21E-14
NCU08924,4111.516737,-1.55444977,0.397057897,5.88E-06
NCU07991,1152.71843,-1.554669596,0.239032885,3.15E-12
NCU02157,1074.255838,-1.561848297,0.463766196,5.32E-05
NCU04318,294.8879841,-1.562411897,0.327050682,9.98E-08
NCU03205,547.6550833,-1.564864119,0.722451831,0.002636647
NCU01759,2867.45056,-1.565095866,0.456824733,4.35E-05
NCU11323,4012.87265,-1.567884937,0.475444262,7.07E-05
NCU07885,428.1841733,-1.569369516,0.374386493,1.53E-06
NCU02133,17103.26894,-1.570543341,0.351738646,4.52E-07
NCU09621,1213.54336,-1.573854257,0.237634948,1.33E-12
NCU08269,2525.62417,-1.575935358,0.273457729,4.22E-10
NCU01970,247.8669168,-1.576096921,0.501032064,1.17E-04
NCU04725,2380.711555,-1.57817145,0.849830372,0.005991255
NCU11278,171.1710753,-1.582025604,0.486245168,8.11E-05
NCU11195,954.8955756,-1.582610041,0.464785534,4.58E-05
NCU09161,577.6628665,-1.584445087,0.322396608,4.57E-08
NCU07422,354.3810881,-1.592871183,0.561914994,3.52E-04
NCU00299,206.7693212,-1.593659054,0.476301073,5.95E-05
NCU03814,628.1950899,-1.597689054,0.257495459,2.31E-11
NCU00304,539.0685863,-1.599939807,0.531847151,2.04E-04
NCU01555,3218.90487,-1.601657722,0.407961837,5.59E-06
NCU04791,1741.561246,-1.602067981,0.517700628,1.44E-04
NCU11367,914.0379776,-1.602355,0.326509312,4.74E-08
NCU03561,1329.118955,-1.602577588,0.368681953,7.67E-07
NCU04266,2568.437522,-1.604627104,0.862164647,0.005911976
NCU10008,11476.80935,-1.606929913,0.263763415,5.65E-11
NCU08126,262.1763451,-1.613537928,0.779848067,0.003478277
NCU08750,459.5327983,-1.620191329,0.490662634,6.92E-05
NCU08771,2387.584019,-1.620857952,0.471065904,4.14E-05
NCU07959,7081.637338,-1.623699845,0.402050763,3.16E-06
NCU01275,361.2802752,-1.624015556,0.426755556,9.05E-06
NCU09058,1938.90217,-1.625407525,0.426347572,8.81E-06
NCU03793,1139.132106,-1.626497147,0.447341337,1.87E-05
NCU08292,6155.432772,-1.627047424,0.408734526,4.36E-06
NCU06978,452.1818449,-1.627088061,0.335415455,6.78E-08
NCU08922,3798.031222,-1.627381978,0.388264003,1.55E-06
NCU06263,22.60212006,-1.629528288,0.902848812,0.006761578
NCU17136,788.8874867,-1.642189655,0.811191372,0.003942431
NCU08190,1295.571648,-1.642883185,0.344768744,1.03E-07
NCU08076,664.146363,-1.644933503,0.390303625,1.38E-06
NCU10360,4277.717513,-1.645899569,0.26489178,2.20E-11
NCU00233,146.1458947,-1.649270837,0.395212807,1.74E-06
NCU07906,176.90978,-1.655212471,0.437299756,9.81E-06
NCU05151,1912.669533,-1.657940023,0.810314686,0.003737522
NCU00586,1825.44897,-1.660195196,0.802974576,0.003500427
NCU08291,5842.858098,-1.66220671,0.268642934,3.00E-11
NCU06497,1513.171087,-1.665349829,0.347158479,9.30E-08
NCU09549,780.1473655,-1.666031859,0.461282348,2.09E-05
NCU09474,408.513758,-1.666660829,0.338501439,4.18E-08
NCU07067,2056.278898,-1.667626614,0.738637391,0.001965692
NCU08687,1696.546395,-1.66888314,0.344797921,7.52E-08
NCU08268,884.1611816,-1.670715969,0.377088325,5.20E-07
NCU03358,638.8359014,-1.675620785,0.3996009,1.48E-06
NCU07022,1315.708785,-1.677134232,0.820592792,0.003771967
NCU02597,1247.355148,-1.680102098,0.760595658,0.002303423
NCU07724,3349.330238,-1.685350245,0.267784542,1.30E-11
NCU05119,453.7088936,-1.689570641,0.584088893,2.88E-04
NCU04085,235.0815392,-1.694745142,0.39064852,8.11E-07
NCU07363,5689.392143,-1.703028275,0.287251607,1.35E-10
NCU00808,113.2725775,-1.706803139,0.530090266,9.09E-05
NCU02771,4312.63174,-1.708505977,0.270998634,1.04E-11
NCU07550,33840.80787,-1.709907465,0.323954375,5.36E-09
NCU09335,1404.839667,-1.712205433,0.518817049,6.98E-05
NCU04676,3130.870777,-1.712616609,0.243599606,8.00E-14
NCU10101,78.53004026,-1.713955507,0.936223218,0.006421575
NCU08611,1423.250788,-1.714139039,0.459371954,1.26E-05
NCU05851,221.236283,-1.714705256,0.434563705,5.04E-06
NCU06908,1097.521266,-1.715905187,0.277368105,3.24E-11
NCU06417,1265.17605,-1.718376605,0.298624408,4.47E-10
NCU07034,142.4221132,-1.723418652,0.368387437,1.77E-07
NCU10058,17573.80411,-1.724553729,0.214039952,4.47E-17
NCU07742,828.6432303,-1.724588583,0.464916098,1.42E-05
NCU09830,2169.253475,-1.725493157,0.517190017,6.16E-05
NCU00678,389.336768,-1.725697748,0.688595881,9.82E-04
NCU14033,47.10218298,-1.726011683,0.983728229,0.007746445
NCU08678,1467.964485,-1.727746696,0.314558552,2.06E-09
NCU00365,572.7305104,-1.728723575,0.617327838,3.97E-04
NCU01972,1365.269178,-1.732271836,0.747453628,0.001650456
NCU05306,1233.024724,-1.735046502,0.495762644,3.36E-05
NCU05196,1474.357783,-1.743790662,0.425529582,2.45E-06
NCU08977,6255.926037,-1.7441721,0.207151783,9.09E-19
NCU00223,843.5902701,-1.744240569,0.414000737,1.41E-06
NCU05520,157.1167094,-1.753015734,0.329321185,4.95E-09
NCU02700,375.9669942,-1.755508571,0.78696362,0.002167618
NCU05037,220.9045101,-1.757550119,0.661490827,6.20E-04
NCU09754,2662.565048,-1.757999798,0.300695333,2.81E-10
NCU07027,36821.5431,-1.759499132,0.280725845,1.65E-11
NCU11353,618.4305242,-1.762365735,0.273635424,4.55E-12
NCU03967,38436.55329,-1.764499802,0.329416902,3.96E-09
NCU00972,1428.444671,-1.767442516,0.454445091,6.36E-06
NCU09293,154.8555442,-1.770855341,0.815183413,0.002581094
NCU09777,259.1196092,-1.771050063,0.451795647,5.76E-06
NCU02376,1794.691972,-1.772264267,0.374308608,1.16E-07
NCU00936,2128.49086,-1.772900012,0.495211436,2.36E-05
NCU05429,26270.01938,-1.774371964,0.501688628,2.78E-05
NCU01112,755.0885302,-1.778213038,0.63053053,3.67E-04
NCU07167,1149.529176,-1.778732169,0.382917599,2.14E-07
NCU08413,54.91976076,-1.786087536,0.617188745,2.82E-04
NCU12025,212.4925799,-1.790708637,0.960480314,0.00589615
NCU05850,18346.01697,-1.791762383,0.359783777,3.18E-08
NCU02526,9919.370893,-1.794356766,0.352797157,1.89E-08
NCU00175,2884.917767,-1.794513277,0.550057225,7.91E-05
NCU08557,24.14013785,-1.796225433,1.094083879,0.009944446
NCU03313,583.1516405,-1.804684434,0.50056292,2.15E-05
NCU06876,1057.11769,-1.808412878,0.249011312,1.28E-14
NCU03086,573.233173,-1.812620918,0.574061591,1.13E-04
NCU01419,1910.202795,-1.813078145,0.466858346,6.46E-06
NCU04323,784.689524,-1.8198548,0.274249591,1.23E-12
NCU07783,67.3041749,-1.823237715,0.809464759,0.002005373
NCU00787,233.0316378,-1.823295371,0.401440313,3.25E-07
NCU06416,4565.745965,-1.825256248,0.391330341,1.95E-07
NCU08669,4894.468303,-1.826039996,0.308482455,1.51E-10
NCU06935,87.66400064,-1.827870308,1.090539305,0.009208587
NCU08407,1284.214263,-1.82934028,0.786023803,0.001608774
NCU01816,2031.546802,-1.831071447,0.310498159,1.68E-10
NCU15067,117.1884321,-1.83545516,0.53745876,4.49E-05
NCU00378,6458.379295,-1.836020228,0.315064846,2.97E-10
NCU11006,20.12593633,-1.839398391,1.085488093,0.008834774
NCU06125,3048.259374,-1.844597963,0.45947935,3.60E-06
NCU03985,162.3453615,-1.845536402,0.383885596,8.92E-08
NCU09656,1575.818296,-1.847214853,0.39207014,1.45E-07
NCU09306,541.2356508,-1.847281768,0.491587289,1.12E-05
NCU05841,3758.668536,-1.851619808,0.276584436,8.80E-13
NCU05040,322.9506735,-1.853237609,0.574671469,8.83E-05
NCU06108,1771.936997,-1.858244656,0.291400312,8.00E-12
NCU08773,48.18227411,-1.86102609,0.991981625,0.005716638
NCU07860,2123.558597,-1.866250759,0.861428231,0.002631994
NCU06305,11218.75038,-1.867125675,0.42154011,5.26E-07
NCU01058,62.35258316,-1.872745191,1.015198965,0.006191988
NCU04635,2839.328988,-1.874521817,0.564266385,6.49E-05
NCU09560,5975.025541,-1.876688028,0.459826557,2.63E-06
NCU07333,1078.232874,-1.878406611,0.367909862,1.62E-08
NCU10400,1046.143603,-1.880156047,0.459571039,2.54E-06
NCU00659,581.1386155,-1.88851787,0.453360251,1.83E-06
NCU02480,5489.452549,-1.8897826,0.384484867,4.49E-08
NCU00260,854.275166,-1.906521443,0.447323125,1.12E-06
NCU04569,1992.09945,-1.911192435,0.310904012,3.94E-11
NCU09594,747.1307788,-1.914358785,0.817902203,0.001530635
NCU04295,690.6633536,-1.919343791,0.340036242,6.78E-10
NCU11287,1953.502651,-1.920427765,0.488208658,5.23E-06
NCU02513,3658.827897,-1.923896312,0.465802104,2.15E-06
NCU02536,805.8166985,-1.924092689,0.406758618,1.25E-07
NCU16918,26.14250899,-1.925461413,1.140349143,0.008947825
NCU07537,204.9124287,-1.928414,0.580684073,6.52E-05
NCU04309,345.3478145,-1.929282494,0.305639207,9.77E-12
NCU11395,2932.130707,-1.93091083,0.718405115,5.69E-04
NCU03188,3963.922205,-1.933491178,0.363080132,4.83E-09
NCU01546,13171.45515,-1.946131186,0.658912005,2.36E-04
NCU07921,739.4723396,-1.94738441,0.926517811,0.003143703
NCU09413,48.81476115,-1.948167367,1.150421831,0.00887578
NCU16511,1238.040329,-1.948187797,0.285181622,4.19E-13
NCU01589,6630.02132,-1.953439378,0.392718664,3.30E-08
NCU08934,410.8081491,-1.955799914,0.297574754,1.77E-12
NCU01138,164.769213,-1.964764397,0.719616797,4.80E-04
NCU06201,1130.91145,-1.973403756,0.298815744,1.43E-12
NCU09176,565.3287147,-1.98432455,1.038825548,0.005190985
NCU02014,132.6612489,-1.994086544,0.687596303,2.78E-04
NCU01060,518.7221405,-1.997417794,0.53172895,1.13E-05
NCU02239,66.08051863,-2.004591981,0.65496363,1.64E-04
NCU06232,5836.747111,-2.00724483,0.395067379,1.93E-08
NCU04322,368.5013288,-2.008897351,0.892831322,0.002025319
NCU01258,2362.260186,-2.012053031,0.412569605,5.88E-08
NCU06945,1157.117816,-2.014474961,0.516187424,6.05E-06
NCU04669,2747.824705,-2.014554955,0.501384586,3.51E-06
NCU08475,323.5807285,-2.014979959,0.544471057,1.48E-05
NCU04538,649.2622577,-2.015819407,0.922052361,0.002454224
NCU07559,56.23150307,-2.02115468,1.053418244,0.005074339
NCU00642,1331.155814,-2.025752782,0.320708154,9.16E-12
NCU03755,2438.583396,-2.026348884,0.297429572,4.45E-13
NCU00462,18.41679546,-2.027863772,0.994939874,0.003812565
NCU09535,2427.782534,-2.038246074,0.469582078,7.93E-07
NCU07807,67176.49736,-2.042648537,0.254411228,5.03E-17
NCU08949,13184.99099,-2.045288715,0.581590057,3.12E-05
NCU00147,1235.563528,-2.049612321,0.422222191,6.67E-08
NCU17113,1839.146758,-2.05006282,0.348177584,1.75E-10
NCU06490,173.6506673,-2.059073304,0.743733159,4.25E-04
NCU00629,14505.36504,-2.062081131,0.252599968,1.62E-17
NCU09821,6556.373505,-2.065365796,0.733849635,3.71E-04
NCU02124,4607.638476,-2.071233022,0.543156128,8.75E-06
NCU07474,2031.194575,-2.07292723,1.240682862,0.009293252
NCU09272,129.4580484,-2.090430511,0.912820651,0.001790987
NCU08272,1894.359588,-2.090816388,0.418358294,2.83E-08
NCU02319,3853.288202,-2.093043877,0.357060047,2.22E-10
NCU03087,1292.87737,-2.096142829,0.261809954,5.70E-17
NCU04801,1790.887462,-2.099919344,0.313247573,8.22E-13
NCU05964,1528.429359,-2.101025959,0.388190242,3.08E-09
NCU09676,862.4480749,-2.107569846,0.753261962,3.98E-04
NCU01652,1750.40542,-2.116482331,0.407736101,1.00E-08
NCU06687,17235.47385,-2.122924145,0.520117709,2.61E-06
NCU00838,1689.804591,-2.129295283,0.771595234,4.32E-04
NCU02540,978.2636482,-2.132356703,0.668573385,1.00E-04
NCU08693,12353.05608,-2.141031022,0.408884744,7.35E-09
NCU03648,586.4923968,-2.142680806,0.727309933,2.41E-04
NCU10011,1647.563326,-2.147668941,0.414620185,1.12E-08
NCU00810,1541.89977,-2.152438695,0.370450952,3.25E-10
NCU04368,2066.108478,-2.153202666,0.459613677,1.67E-07
NCU08092,4213.332174,-2.164957791,0.331932686,2.42E-12
NCU06682,1235.792826,-2.166060691,0.404817565,4.06E-09
NCU01127,376.1567558,-2.16637835,0.626973615,3.91E-05
NCU06522,1282.945706,-2.17360857,0.384498551,6.54E-10
NCU09829,1063.602602,-2.185114343,0.314333587,1.74E-13
NCU05840,1369.437171,-2.186574581,0.198005081,1.14E-29
NCU14046,300.4204712,-2.188621784,0.391890609,9.79E-10
NCU09800,345.7234837,-2.190377432,0.453757497,7.86E-08
NCU09173,2251.041413,-2.209605709,0.436103725,2.20E-08
NCU02887,11191.25786,-2.214046052,0.627123153,2.85E-05
NCU10007,11763.06135,-2.221508932,0.372812687,1.17E-10
NCU16657,346.8708877,-2.222748036,0.776484226,3.14E-04
NCU03034,31.14123749,-2.225427409,1.215385931,0.006405018
NCU05838,625.187766,-2.226885977,0.596799815,1.27E-05
NCU01893,1373.432333,-2.228322456,0.479892019,2.16E-07
NCU04832,671.1064815,-2.243781197,0.321913496,1.62E-13
NCU00813,778.6513198,-2.259215425,0.285535272,9.64E-17
NCU07834,562.8801624,-2.262197507,0.391728715,3.87E-10
NCU02190,1225.745402,-2.273318332,0.470943245,7.97E-08
NCU00549,1690.249373,-2.278275295,0.417126364,2.27E-09
NCU09035,180.672301,-2.285850177,0.750341628,1.73E-04
NCU09287,1904.186932,-2.286614459,0.580407322,5.15E-06
NCU07082,3768.507882,-2.291877494,0.617132706,1.38E-05
NCU01162,522.2730522,-2.292627185,0.737914335,1.37E-04
NCU03779,8633.9588,-2.295567008,0.353731077,3.56E-12
NCU05338,4004.869942,-2.299429974,0.64488925,2.45E-05
NCU09403,1262.724988,-2.300138544,0.420156647,2.21E-09
NCU08998,5979.510139,-2.301457553,0.288508788,7.18E-17
NCU06521,1958.588064,-2.304910752,0.480011853,9.17E-08
NCU08791,9460.632652,-2.30806442,0.735156214,1.19E-04
NCU16678,55.88746146,-2.311173312,0.970554734,0.001398074
NCU04823,1280.115783,-2.313829489,0.78007375,2.28E-04
NCU02579,4208.400881,-2.31779899,0.451109388,1.43E-08
NCU04815,2421.475813,-2.320569933,0.484110023,9.43E-08
NCU05188,866.8785388,-2.326154404,0.584261812,4.32E-06
NCU05652,1352.616407,-2.329354055,0.866637595,5.68E-04
NCU08803,787.064308,-2.336177097,0.349216185,9.39E-13
NCU06524,402.5525795,-2.34105354,0.556013167,1.42E-06
NCU04510,4722.938878,-2.342518168,0.803079978,2.68E-04
NCU00809,322.1510058,-2.34700254,0.313468726,1.75E-15
NCU05377,1358.43274,-2.350193369,0.670036327,3.26E-05
NCU08064,765.7609051,-2.352962674,0.66586829,2.84E-05
NCU01417,2443.820679,-2.356193066,0.346688662,5.58E-13
NCU12152,479.9673574,-2.357965973,0.321522346,7.22E-15
NCU05490,5510.401824,-2.359374764,0.594608649,4.56E-06
NCU16742,1981.5079,-2.37133691,0.639759302,1.45E-05
NCU00766,1262.204845,-2.374849759,0.749391363,1.07E-04
NCU04563,8.401158507,-2.380309553,1.303247613,0.006463171
NCU09680,454.5861779,-2.384838937,0.462667214,1.27E-08
NCU06603,32025.17702,-2.386908605,0.763949191,1.25E-04
NCU00884,10041.26936,-2.391160285,0.527302555,3.32E-07
NCU16649,23.79596639,-2.391999331,1.296553612,0.006183886
NCU04674,933.8813484,-2.393538016,0.396742431,8.52E-11
NCU02663,769.8535173,-2.400673344,0.484598306,3.68E-08
NCU09027,442.8825894,-2.407380528,0.375920546,6.51E-12
NCU02906,1178.10556,-2.413207755,0.458657653,6.14E-09
NCU09955,72.84641106,-2.422842265,0.906515585,5.97E-04
NCU06009,3411.171012,-2.435030915,0.462854629,6.30E-09
NCU06031,14530.59793,-2.440744072,0.288203867,3.86E-19
NCU03098,328.5408254,-2.441917691,0.496220825,4.33E-08
NCU04393,37.61444456,-2.446631121,1.007629406,0.001244166
NCU17258,484.0021289,-2.446895436,0.619285062,4.89E-06
NCU03617,2163.858119,-2.457396888,0.666465151,1.56E-05
NCU04142,26208.02333,-2.458110214,0.316448886,1.80E-16
NCU14176,15185.25537,-2.470308236,0.602594761,2.38E-06
NCU07120,1393.726618,-2.471251005,0.566534521,7.00E-07
NCU03472,12.6781763,-2.477805943,1.428085903,0.007964831
NCU14120,34.1890379,-2.481972466,0.886122796,3.96E-04
NCU11346,29.01182485,-2.486785034,0.911072627,4.82E-04
NCU01092,1901.857063,-2.492788817,0.655338229,9.11E-06
NCU06220,2331.702898,-2.503104468,0.232667195,2.24E-28
NCU04667,7925.191771,-2.517656546,0.670736323,1.16E-05
NCU06977,11870.20657,-2.522381424,0.558776444,3.62E-07
NCU02320,527.3188366,-2.528184088,0.463428894,2.39E-09
NCU17042,11.2603565,-2.547955542,1.069339341,0.001395027
NCU04474,2227.898389,-2.552399676,0.314906485,2.92E-17
NCU08330,9036.215753,-2.55944958,0.385022559,1.15E-12
NCU16500,73.00057824,-2.566562103,1.191259944,0.002697881
NCU09602,50489.92543,-2.572363168,0.450226559,5.02E-10
NCU00993,66.69674407,-2.575721294,0.737620896,3.49E-05
NCU10539,107.2271036,-2.577712318,1.429931921,0.006831048
NCU04873,16.58732958,-2.592006684,1.050311968,0.001108076
NCU04415,9717.101937,-2.592977315,0.646936196,3.78E-06
NCU00173,1715.496386,-2.599029182,0.455208614,5.19E-10
NCU16673,8477.897743,-2.602331016,0.745456942,3.53E-05
NCU07081,1417.608401,-2.60374809,0.636404123,2.52E-06
NCU00763,18.12823342,-2.61196185,1.118103336,0.001554273
NCU07051,18.37514958,-2.622888389,1.204914234,0.002558163
NCU04908,1473.927612,-2.631524877,0.609709847,8.67E-07
NCU08443,82.22361058,-2.633861443,1.416011441,0.005935719
NCU04343,3950.868614,-2.638232247,0.57755988,2.92E-07
NCU00585,6750.000022,-2.64663573,0.559934189,1.28E-07
NCU02653,82.59008221,-2.650796999,0.926810828,3.19E-04
NCU02902,8.063824057,-2.654343193,1.459998839,0.006564514
NCU01140,2873.463762,-2.665340742,0.386194712,2.29E-13
NCU06132,4333.78079,-2.676556173,0.527606119,2.04E-08
NCU17073,7.882620075,-2.689792092,1.295684088,0.003379109
NCU02638,17.67344259,-2.695709113,1.453354329,0.006039073
NCU00864,1346.125923,-2.699786785,0.514745304,6.98E-09
NCU00730,776.9653228,-2.704567669,0.647674788,1.71E-06
NCU07332,1748.09141,-2.704918581,0.645102543,1.51E-06
NCU09096,13.59918931,-2.708477861,1.327115202,0.00378931
NCU14178,15.92506068,-2.717688487,1.310416195,0.00341758
NCU03753,107183.0062,-2.722338346,0.780766914,3.58E-05
NCU14150,26.86556797,-2.730081007,0.970347387,3.73E-04
NCU09344,313.9729779,-2.730340206,0.663229061,2.25E-06
NCU03895,17.79113161,-2.730695837,1.074823005,8.89E-04
NCU09957,16.59657655,-2.739617008,1.104357078,0.001070871
NCU16941,88.47197481,-2.744328116,1.00394583,4.76E-04
NCU04502,18520.65708,-2.745985586,0.467165275,1.95E-10
NCU02397,5293.716986,-2.750248889,0.607876847,3.41E-07
NCU00327,18.66090579,-2.757396398,1.54890054,0.007227132
NCU03208,431.6295314,-2.768280723,1.25275099,0.00229049
NCU08846,18.18503645,-2.768595696,1.058833348,7.09E-04
NCU04605,1881.488839,-2.768649148,0.566222347,5.33E-08
NCU04130,2308.286674,-2.769090667,0.537761659,1.32E-08
NCU02690,1821.769826,-2.76917658,0.608397176,3.10E-07
NCU16710,354.2633969,-2.78084507,0.873130344,1.02E-04
NCU03040,11.10609819,-2.790601345,1.12348321,0.001046523
NCU00130,1548.51758,-2.803062093,0.606578652,2.42E-07
NCU06236,21.66433633,-2.819744067,1.107281422,8.67E-04
NCU01107,17190.68836,-2.830133151,0.888365537,1.02E-04
NCU02932,7622.232935,-2.844913078,0.473960355,9.47E-11
NCU09042,217.7571095,-2.85231687,0.611321649,1.90E-07
NCU02765,5974.962149,-2.854554607,0.621526304,2.59E-07
NCU07273,2938.419575,-2.856481469,0.636066836,3.97E-07
NCU03640,30.3465399,-2.871426352,1.021959361,3.79E-04
NCU04314,6298.04485,-2.888482851,0.382083822,1.43E-15
NCU03420,23.92867424,-2.911899963,1.2217165,0.001391991
NCU09345,67855.68046,-2.935659864,0.379842864,5.17E-16
NCU09043,4004.950595,-2.936013467,0.593228623,3.82E-08
NCU04490,33.24331647,-2.945520571,1.477130292,0.004226053
NCU07748,991.4990151,-2.966025873,0.630219884,1.48E-07
NCU03731,14.1633538,-2.968972061,1.252300231,0.001456565
NCU06231,2322.010186,-2.972621847,0.48557151,4.28E-11
NCU01989,688.1930717,-2.991361927,0.576468948,1.05E-08
NCU03813,4089.675146,-3.001023284,0.63784302,1.50E-07
NCU09174,5857.671818,-3.002306448,0.330566668,2.21E-21
NCU00582,3463.46807,-3.02421408,0.389444491,2.67E-16
NCU00552,12960.59155,-3.028013335,0.368973364,5.38E-18
NCU05557,39.63936722,-3.054223212,1.108874644,4.40E-04
NCU09023,111.5074734,-3.061785103,1.11331428,4.47E-04
NCU10429,140.062705,-3.069953303,0.955244343,9.32E-05
NCU09285,17998.18835,-3.07103685,0.480698198,7.60E-12
NCU04276,11381.55307,-3.084215732,0.785149103,5.43E-06
NCU16409,10.52210099,-3.090719688,1.751689091,0.007589732
NCU09799,408.8920254,-3.094556922,0.953324902,8.39E-05
NCU01510,4177.797473,-3.105241301,0.710264647,6.44E-07
NCU08171,2315.244284,-3.106228131,0.81351457,8.57E-06
NCU08037,298.7095322,-3.112769664,1.570588816,0.004360366
NCU08516,820.2142117,-3.126921902,0.712216249,5.75E-07
NCU02321,469.3557525,-3.138969283,0.943174063,6.40E-05
NCU11368,193.8597661,-3.142167736,0.6110356,1.41E-08
NCU02322,1935.611918,-3.145060129,0.854306386,1.59E-05
NCU00988,501.0279917,-3.161673944,0.599221304,5.52E-09
NCU14079,29.32830967,-3.176009043,0.747715227,1.22E-06
NCU08549,2701.461035,-3.18478635,1.08643402,2.52E-04
NCU02596,1932.137121,-3.191297326,0.75520082,1.32E-06
NCU01057,1203.992042,-3.223030385,1.071185178,2.03E-04
NCU07352,2197.419093,-3.252398235,0.352999349,9.33E-22
NCU05448,34.01457439,-3.256280237,1.248401292,7.22E-04
NCU16699,229.3711451,-3.26120846,0.925028542,2.99E-05
NCU01633,13791.69316,-3.272997648,0.596216841,2.11E-09
NCU04914,571.9913703,-3.277879932,0.746385404,5.67E-07
NCU07434,711.8173428,-3.31556778,0.735713114,3.88E-07
NCU09057,3920.587934,-3.324166988,0.822455895,3.11E-06
NCU09049,12720.8355,-3.330495212,0.827664604,3.31E-06
NCU09776,56.83383479,-3.360637479,0.604810895,1.15E-09
NCU08699,778.9292073,-3.401947282,0.46395376,8.14E-15
NCU16599,43.54098739,-3.419733721,0.784347233,7.08E-07
NCU03780,332.1188627,-3.441182751,0.786105829,6.05E-07
NCU16492,25.0742589,-3.458889107,1.188585596,2.70E-04
NCU05844,739.9725587,-3.466970422,1.168288281,2.26E-04
NCU08441,254.8659345,-3.477794793,0.552973176,1.44E-11
NCU09024,1460.482914,-3.478515214,0.681716901,1.72E-08
NCU03049,59.42709122,-3.482636606,1.001147686,3.63E-05
NCU08128,20.49125221,-3.517615432,1.706088726,0.003561813
NCU02712,3275.83836,-3.520864241,0.660449847,4.60E-09
NCU01348,26585.65813,-3.582259035,0.398418429,1.13E-20
NCU07661,1037.522424,-3.598174119,1.305961539,4.36E-04
NCU09041,9624.685954,-3.622086162,0.857681353,1.35E-06
NCU05156,289.2757408,-3.626011965,0.833951486,7.59E-07
NCU14167,40.26900265,-3.63158704,0.893457389,2.88E-06
NCU05143,1397.487592,-3.637621811,0.744707857,5.60E-08
NCU11295,2192.709801,-3.641239528,1.046994926,3.66E-05
NCU08017,343.5488934,-3.666600002,0.784373721,1.81E-07
NCU07369,14.07000567,-3.684229011,1.071762607,4.18E-05
NCU06153,1397.487609,-3.689698038,1.41308306,7.18E-04
NCU00358,26.60522566,-3.741578899,0.808539107,2.39E-07
NCU14174,13326.30852,-3.744372834,0.583885767,5.48E-12
NCU07723,1845.133375,-3.751948326,1.112986487,5.25E-05
NCU16361,19.5658491,-3.754391141,0.996224388,1.07E-05
NCU14065,6.485854302,-3.76351187,1.572422016,0.001355973
NCU00762,53.5244543,-3.805193919,1.26266136,1.97E-04
NCU02077,10.97506693,-3.81431911,1.123796331,4.85E-05
NCU05005,1323.671591,-3.815397496,0.820775061,2.06E-07
NCU06061,1021.107148,-3.856866622,0.592863261,2.96E-12
NCU09097,1476.955667,-3.891262736,0.369585428,2.42E-27
NCU05148,819.7826708,-3.923576283,0.683049495,4.73E-10
NCU07094,112.5460335,-3.927897743,0.852591848,2.45E-07
NCU09873,11963.3125,-3.941191687,0.784556311,2.72E-08
NCU12026,145.4794386,-3.953199196,1.021379134,6.70E-06
NCU07267,7682.976294,-3.958594755,0.805111547,4.41E-08
NCU09235,7732.012213,-3.97676848,0.518264541,8.00E-16
NCU07750,13.16374106,-4.048677457,1.536363762,6.72E-04
NCU00187,120.0639344,-4.108453145,1.088661529,1.03E-05
NCU08790,36.24029393,-4.153996827,1.141942446,1.85E-05
NCU17268,50.60387177,-4.188019397,1.415432053,2.33E-04
NCU09774,26.88669994,-4.282164737,1.832320311,0.001544128
NCU08439,101.2269273,-4.306435609,1.229493573,3.33E-05
NCU07555,15.83363912,-4.343069504,1.359312843,9.92E-05
NCU07028,42.57865429,-4.347854083,0.927071715,1.60E-07
NCU05883,9.929145025,-4.364504547,1.408628432,1.42E-04
NCU02964,13.61227318,-4.368398291,1.47475899,2.32E-04
NCU02939,31.03238733,-4.426911832,1.295723431,4.45E-05
NCU09852,152.1381838,-4.467242248,0.946208055,1.35E-07
NCU06597,2600.307909,-4.472286887,0.738026145,7.16E-11
NCU05884,27.04153495,-4.480295267,1.242867701,2.16E-05
NCU07918,36.33077149,-4.504852364,1.685855319,6.00E-04
NCU00732,27639.64136,-4.617660371,0.797317703,3.54E-10
NCU16363,5.437301223,-4.617943571,2.720564102,0.008742689
NCU05147,8.411611857,-4.619308934,1.60400142,3.01E-04
NCU05069,3755.601591,-4.670363362,0.986846421,1.21E-07
NCU07752,28.14496738,-4.758536192,1.524019819,1.27E-04
NCU03322,164.665762,-4.806179994,1.098556301,6.20E-07
NCU09532,278.7809546,-4.871706687,0.869604628,7.91E-10
NCU05819,1443.743217,-4.891658274,0.859076831,5.71E-10
NCU05498,19877.39858,-4.905693381,0.414038998,1.22E-33
NCU00110,5.471203726,-4.907108118,2.708080101,0.006675166
NCU14096,17.08243038,-4.907994995,2.901033535,0.008906577
NCU05142,103.2768351,-4.908634806,1.369143013,2.27E-05
NCU15223,4.007111072,-4.912837793,2.865321786,0.008347522
NCU01861,4305.415729,-4.932407671,1.233406351,4.00E-06
NCU07053,2327.995004,-4.936873443,1.795519534,4.49E-04
NCU09277,156.7987143,-4.963341302,1.14308279,7.85E-07
NCU06803,1659.272001,-5.009554851,0.771497253,3.35E-12
NCU07351,3974.84508,-5.05280515,0.560377431,8.82E-21
NCU02654,240.2600835,-5.225604544,0.916011846,5.35E-10
NCU00887,6.856356568,-5.324874036,2.855984013,0.005888301
NCU09923,14.5948145,-5.376916881,2.600359077,0.003494884
NCU00028,4.418225918,-5.442171542,2.858076499,0.005279341
NCU07337,165.1887488,-5.443767603,1.021538956,4.72E-09
NCU07977,138.4321951,-5.535479438,1.626440982,4.65E-05
NCU06060,35.6497131,-5.671128648,1.361413989,1.81E-06
NCU05762,84.90959626,-5.806883385,2.988424154,0.004797513
NCU15376,7.019381715,-5.931605497,2.876524439,0.003556218
NCU02710,11.07254416,-6.180222862,2.651200905,0.001588231
NCU01038,82.57934375,-6.321745621,1.914318537,6.89E-05
NCU09418,22.91039419,-6.621430107,2.748701811,0.001294529
NCU05631,19.70687712,-7.037002629,2.74969412,8.38E-04
NCU00606,51.07871471,-7.044568923,1.498907332,1.54E-07
NCU04028,98.74681913,-7.146300443,1.672766029,1.06E-06
NCU08746,413.0935067,-7.512221909,0.928605966,3.28E-17
