NAME	GS<br> follow link to MSigDB	GS DETAILS	SIZE	ES	NES	NOM p-val	FDR q-val	FWER p-val	RANK AT MAX	LEADING EDGE
GO:0016614	GO:0016614	Details ...	100	-0.6444802	-2.504061	0	0	0	1676	"tags=43%, list=17%, signal=51%"
GO:0016616	GO:0016616	Details ...	72	-0.6503213	-2.4369502	0	0	0	1522	"tags=44%, list=16%, signal=52%"
GO:0016765	GO:0016765	Details ...	37	-0.6755885	-2.207482	0	0.006821814	0.0255	1463	"tags=51%, list=15%, signal=60%"
GO:0098800	GO:0098800	Details ...	40	-0.66639817	-2.2072337	0	0.00511636	0.0255	702	"tags=35%, list=7%, signal=38%"
GO:0016829	GO:0016829	Details ...	112	-0.54546225	-2.1772594	0	0.00683313	0.0425	1562	"tags=41%, list=16%, signal=48%"
GO:0006091	GO:0006091	Details ...	80	-0.57459813	-2.1656542	0	0.006878326	0.051	1302	"tags=35%, list=13%, signal=40%"
GO:0046034	GO:0046034	Details ...	40	-0.6533324	-2.162048	0	0.006285753	0.054	1849	"tags=50%, list=19%, signal=62%"
GO:0006739	GO:0006739	Details ...	16	-0.78625923	-2.1507463	9.29E-04	0.00672379	0.066	1166	"tags=63%, list=12%, signal=71%"
GO:0044282	GO:0044282	Details ...	117	-0.5251003	-2.1247764	0	0.0097073	0.103	1515	"tags=43%, list=16%, signal=50%"
GO:0043648	GO:0043648	Details ...	29	-0.6769249	-2.096828	9.07E-04	0.013943031	0.16	1525	"tags=52%, list=16%, signal=61%"
GO:0005777	GO:0005777	Details ...	31	-0.6623697	-2.086499	0	0.014466634	0.181	1435	"tags=48%, list=15%, signal=57%"
GO:0042579	GO:0042579	Details ...	31	-0.6623697	-2.078949	0	0.015060762	0.202	1435	"tags=48%, list=15%, signal=57%"
GO:0051186	GO:0051186	Details ...	158	-0.49698064	-2.0745196	0	0.014658057	0.2115	1830	"tags=41%, list=19%, signal=50%"
GO:0044242	GO:0044242	Details ...	43	-0.6080608	-2.0738006	0	0.01369615	0.2125	1378	"tags=44%, list=14%, signal=51%"
GO:0016836	GO:0016836	Details ...	38	-0.63436097	-2.067237	0	0.014357805	0.239	1517	"tags=53%, list=16%, signal=62%"
GO:0006790	GO:0006790	Details ...	101	-0.5232994	-2.065743	0	0.013756567	0.2425	1830	"tags=49%, list=19%, signal=59%"
GO:0003735	GO:0003735	Details ...	168	-0.4894046	-2.063957	0	0.013272456	0.248	2974	"tags=67%, list=31%, signal=95%"
GO:0045259	GO:0045259	Details ...	14	-0.7717684	-2.0499396	0	0.01574883	0.303	702	"tags=50%, list=7%, signal=54%"
GO:0005743	GO:0005743	Details ...	122	-0.5002111	-2.0393953	0	0.017069953	0.338	1849	"tags=39%, list=19%, signal=48%"
GO:0072524	GO:0072524	Details ...	25	-0.6785772	-2.0377927	9.30E-04	0.0166681	0.3455	1360	"tags=48%, list=14%, signal=56%"
GO:0016469	GO:0016469		14	-0.7717684	-2.0288188	0	0.018142302	0.386	702	"tags=50%, list=7%, signal=54%"
GO:0005753	GO:0005753		14	-0.7717684	-2.0256538	9.59E-04	0.018048003	0.398	702	"tags=50%, list=7%, signal=54%"
GO:0046395	GO:0046395		75	-0.54039717	-2.0226283	0	0.018223973	0.4175	1515	"tags=47%, list=16%, signal=55%"
GO:0016054	GO:0016054		76	-0.5376089	-2.019396	0	0.018432008	0.4325	1515	"tags=46%, list=16%, signal=54%"
GO:0016835	GO:0016835		43	-0.59446025	-2.0188365	0	0.017757868	0.4325	1517	"tags=47%, list=16%, signal=55%"
GO:0006119	GO:0006119		16	-0.736343	-2.017644	0	0.017423078	0.44	1199	"tags=50%, list=12%, signal=57%"
GO:0017144	GO:0017144		108	-0.50712234	-2.0134246	0	0.01799118	0.4615	1768	"tags=43%, list=18%, signal=52%"
GO:0006749	GO:0006749		24	-0.66717607	-2.0041664	0	0.01956679	0.503	1561	"tags=54%, list=16%, signal=64%"
GO:0042773	GO:0042773		16	-0.736343	-2.000547	0.001874414	0.019826107	0.52	1199	"tags=50%, list=12%, signal=57%"
GO:0015985	GO:0015985		15	-0.7380103	-1.9875939	9.35E-04	0.02290778	0.5825	1849	"tags=67%, list=19%, signal=82%"
GO:0009205	GO:0009205		18	-0.6991696	-1.9790378	0.001816531	0.024344567	0.614	702	"tags=44%, list=7%, signal=48%"
GO:0015986	GO:0015986		15	-0.7380103	-1.9751085	9.37E-04	0.024741095	0.63	1849	"tags=67%, list=19%, signal=82%"
GO:0006082	GO:0006082		282	-0.43773317	-1.9735398	0	0.024420468	0.635	1525	"tags=33%, list=16%, signal=38%"
GO:0019395	GO:0019395		17	-0.7101566	-1.9722472	0.001819836	0.02400429	0.6415	1887	"tags=76%, list=19%, signal=95%"
GO:0006754	GO:0006754		15	-0.7380103	-1.9708847	9.07E-04	0.02375824	0.6475	1849	"tags=67%, list=19%, signal=82%"
GO:0006089	GO:0006089		13	-0.7563661	-1.9667414	0.003755869	0.024289655	0.6655	1490	"tags=62%, list=15%, signal=73%"
GO:0034440	GO:0034440		17	-0.7101566	-1.9626436	9.35E-04	0.024720713	0.68	1887	"tags=76%, list=19%, signal=95%"
GO:0055086	GO:0055086		162	-0.46556497	-1.9621828	0	0.024183605	0.681	1861	"tags=39%, list=19%, signal=47%"
GO:0042775	GO:0042775		11	-0.7847962	-1.9619632	0.002788104	0.023604136	0.6815	1199	"tags=64%, list=12%, signal=73%"
GO:0019866	GO:0019866		127	-0.4818667	-1.9613074	0	0.02323994	0.685	1849	"tags=38%, list=19%, signal=46%"
GO:0044455	GO:0044455		86	-0.5093391	-1.9591017	0	0.02330636	0.694	702	"tags=27%, list=7%, signal=29%"
GO:0031966	GO:0031966		156	-0.47268224	-1.9582547	0	0.022949364	0.698	1929	"tags=38%, list=20%, signal=47%"
GO:0050662	GO:0050662		207	-0.45435873	-1.9539948	0	0.02359727	0.7175	1772	"tags=33%, list=18%, signal=40%"
GO:0044391	GO:0044391		129	-0.47186136	-1.9449224	0	0.025989333	0.7625	3812	"tags=79%, list=39%, signal=129%"
GO:0043436	GO:0043436		278	-0.43499425	-1.941267	0	0.026554493	0.7785	1525	"tags=32%, list=16%, signal=37%"
GO:0016810	GO:0016810		70	-0.5191641	-1.9389491	0	0.026826143	0.7885	984	"tags=33%, list=10%, signal=36%"
GO:0043094	GO:0043094		22	-0.6542956	-1.9361115	9.23E-04	0.027136356	0.8	1315	"tags=45%, list=14%, signal=52%"
GO:0009201	GO:0009201		19	-0.67529696	-1.9337779	0.006392694	0.027259568	0.8055	1849	"tags=63%, list=19%, signal=78%"
GO:0044429	GO:0044429		268	-0.43491894	-1.9306452	0	0.027861636	0.819	1979	"tags=36%, list=20%, signal=44%"
GO:0006635	GO:0006635		17	-0.7101566	-1.9293643	0.001862197	0.027737763	0.8235	1887	"tags=76%, list=19%, signal=95%"
GO:0098798	GO:0098798		101	-0.4884142	-1.9252248	0	0.028592404	0.836	2789	"tags=54%, list=29%, signal=76%"
GO:0005740	GO:0005740		179	-0.45620435	-1.922952	0	0.028829992	0.844	1929	"tags=37%, list=20%, signal=45%"
GO:0044769	GO:0044769		13	-0.7448141	-1.922177	0.005655042	0.02855371	0.8475	1849	"tags=69%, list=19%, signal=85%"
GO:0110053	GO:0110053		19	-0.67471415	-1.9213243	0.004664179	0.028324567	0.853	1671	"tags=63%, list=17%, signal=76%"
GO:1902101	GO:1902101		13	-0.74186426	-1.9200306	0.002814259	0.028274834	0.857	659	"tags=46%, list=7%, signal=49%"
GO:0009206	GO:0009206		17	-0.70771295	-1.9186308	0.001874414	0.028184995	0.8615	702	"tags=47%, list=7%, signal=51%"
GO:0009199	GO:0009199		20	-0.6663568	-1.917432	0.002824859	0.028174568	0.8655	1849	"tags=60%, list=19%, signal=74%"
GO:0045842	GO:0045842		13	-0.74186426	-1.9128416	0.002801121	0.029273294	0.8835	659	"tags=46%, list=7%, signal=49%"
GO:0006740	GO:0006740		11	-0.78446823	-1.9072537	0.002724796	0.03058473	0.902	1514	"tags=73%, list=16%, signal=86%"
GO:0006753	GO:0006753		119	-0.4730262	-1.905728	0	0.030599428	0.905	1861	"tags=41%, list=19%, signal=50%"
GO:0019752	GO:0019752		270	-0.4288328	-1.900223	0	0.031860556	0.916	1525	"tags=32%, list=16%, signal=37%"
GO:0044439	GO:0044439		12	-0.7412506	-1.8995197	0.001863933	0.031569023	0.917	1815	"tags=75%, list=19%, signal=92%"
GO:0016903	GO:0016903		17	-0.68053246	-1.899242	0.004725898	0.031129476	0.917	1505	"tags=53%, list=16%, signal=63%"
GO:0046933	GO:0046933		13	-0.7448141	-1.8892848	0.001888574	0.0339942	0.936	1849	"tags=69%, list=19%, signal=85%"
GO:0008064	GO:0008064		19	-0.67471415	-1.8884789	0.002717391	0.033724636	0.937	1671	"tags=63%, list=17%, signal=76%"
GO:0030832	GO:0030832		19	-0.67471415	-1.8881452	0.005565863	0.03335147	0.9375	1671	"tags=63%, list=17%, signal=76%"
GO:0009063	GO:0009063		44	-0.5518556	-1.8877827	8.42E-04	0.032947753	0.938	1515	"tags=45%, list=16%, signal=54%"
GO:0071949	GO:0071949		47	-0.5523679	-1.8867362	0.003430532	0.0328569	0.94	2448	"tags=45%, list=25%, signal=60%"
GO:0052689	GO:0052689		57	-0.5254081	-1.8847467	0.002559727	0.033124544	0.9445	2180	"tags=42%, list=23%, signal=54%"
GO:0061650	GO:0061650		15	-0.71026224	-1.8846766	0.005415163	0.032685004	0.945	1285	"tags=67%, list=13%, signal=77%"
GO:1901970	GO:1901970		14	-0.7027135	-1.8830813	0.004784689	0.03291101	0.947	659	"tags=43%, list=7%, signal=46%"
GO:0009117	GO:0009117		115	-0.47070643	-1.8815793	0	0.03288387	0.9505	1861	"tags=41%, list=19%, signal=50%"
GO:0051188	GO:0051188		109	-0.467581	-1.8792522	8.22E-04	0.033214938	0.9545	1632	"tags=37%, list=17%, signal=44%"
GO:1901565	GO:1901565		268	-0.41830957	-1.8778653	0	0.033277303	0.956	1451	"tags=30%, list=15%, signal=35%"
GO:1905820	GO:1905820		14	-0.7027135	-1.8731655	0.009363296	0.034426477	0.96	659	"tags=43%, list=7%, signal=46%"
GO:0061631	GO:0061631		14	-0.70126444	-1.8706816	0.005545287	0.034772187	0.9635	1637	"tags=71%, list=17%, signal=86%"
GO:0009678	GO:0009678		15	-0.692836	-1.869642	0.003629764	0.03471305	0.964	1849	"tags=60%, list=19%, signal=74%"
GO:0044106	GO:0044106		18	-0.6664077	-1.8648448	0.004432624	0.03583152	0.97	529	"tags=28%, list=5%, signal=29%"
GO:0019239	GO:0019239		21	-0.6390067	-1.8645798	0.002822201	0.035467673	0.97	1322	"tags=48%, list=14%, signal=55%"
GO:0015934	GO:0015934		80	-0.4892068	-1.8625767	8.38E-04	0.035766408	0.972	3428	"tags=71%, list=35%, signal=109%"
GO:0044438	GO:0044438		12	-0.7412506	-1.8619243	0.002808989	0.03554308	0.9735	1815	"tags=75%, list=19%, signal=92%"
GO:0006576	GO:0006576		18	-0.6664077	-1.8534551	0.007532957	0.038395487	0.98	529	"tags=28%, list=5%, signal=29%"
GO:0030041	GO:0030041		18	-0.658357	-1.8462079	0.005371531	0.040756393	0.9845	1671	"tags=61%, list=17%, signal=74%"
GO:0016667	GO:0016667		24	-0.61141723	-1.8449371	0.004460303	0.040783077	0.985	1435	"tags=54%, list=15%, signal=63%"
GO:1905369	GO:1905369		10	-0.76320344	-1.8444692	0.002901354	0.040507354	0.986	1652	"tags=80%, list=17%, signal=96%"
GO:0019362	GO:0019362		22	-0.6288005	-1.843126	0.003717472	0.040562846	0.9865	1360	"tags=45%, list=14%, signal=53%"
GO:0030833	GO:0030833		18	-0.658357	-1.8415734	0.007619048	0.040593743	0.9875	1671	"tags=61%, list=17%, signal=74%"
GO:0046496	GO:0046496		22	-0.6288005	-1.8400712	0.008152174	0.04066079	0.988	1360	"tags=45%, list=14%, signal=53%"
GO:0072329	GO:0072329		33	-0.5800638	-1.8395267	0.003616637	0.04040694	0.988	1887	"tags=64%, list=19%, signal=79%"
GO:0004029	GO:0004029		12	-0.714919	-1.8377364	0.005524862	0.04057027	0.988	1300	"tags=50%, list=13%, signal=58%"
GO:0072522	GO:0072522		45	-0.53818065	-1.83255	0.002636204	0.042130847	0.9895	814	"tags=31%, list=8%, signal=34%"
GO:0022900	GO:0022900		37	-0.5585119	-1.8314521	0.003457217	0.04213157	0.9895	1204	"tags=35%, list=12%, signal=40%"
GO:0016042	GO:0016042		55	-0.52106124	-1.8294352	0.00170068	0.042429484	0.99	1908	"tags=47%, list=20%, signal=59%"
GO:1901575	GO:1901575		473	-0.38815996	-1.8287212	0	0.04227074	0.99	1561	"tags=29%, list=16%, signal=33%"
GO:0016620	GO:0016620		13	-0.7004369	-1.8209729	0.010486177	0.044796992	0.9935	1505	"tags=54%, list=16%, signal=64%"
GO:0044248	GO:0044248		468	-0.38924393	-1.8184065	0	0.04545501	0.994	1561	"tags=29%, list=16%, signal=33%"
GO:0006575	GO:0006575		55	-0.51348895	-1.8140389	0.003398471	0.046816714	0.995	1561	"tags=35%, list=16%, signal=41%"
GO:0004364	GO:0004364		11	-0.74294513	-1.8125588	0.009615385	0.046948735	0.9955	1435	"tags=64%, list=15%, signal=75%"
GO:0009308	GO:0009308		22	-0.61834615	-1.8110871	0.015412511	0.04710378	0.9955	529	"tags=23%, list=5%, signal=24%"
GO:0009055	GO:0009055		34	-0.55739707	-1.8093678	0.004587156	0.047235742	0.9955	1204	"tags=35%, list=12%, signal=40%"
GO:0034404	GO:0034404		32	-0.5703263	-1.8065017	0.010416667	0.047980815	0.9955	1315	"tags=38%, list=14%, signal=43%"
GO:0044445	GO:0044445		100	-0.457603	-1.8005341	8.33E-04	0.050227016	0.9965	3021	"tags=66%, list=31%, signal=95%"
GO:0006732	GO:0006732		91	-0.46708435	-1.7967615	8.43E-04	0.051391166	0.9975	1555	"tags=35%, list=16%, signal=41%"
GO:0000276	GO:0000276		10	-0.73922473	-1.7946723	0.008426966	0.05188838	0.998	1849	"tags=70%, list=19%, signal=86%"
GO:0016651	GO:0016651		40	-0.5274665	-1.7927752	0.002606429	0.052170746	0.9985	1204	"tags=25%, list=12%, signal=28%"
GO:1901681	GO:1901681		14	-0.6864432	-1.7900977	0.014911464	0.05286424	0.9985	1887	"tags=71%, list=19%, signal=89%"
GO:0033177	GO:0033177		12	-0.707144	-1.7890117	0.011846002	0.05292655	0.9985	702	"tags=42%, list=7%, signal=45%"
GO:0042455	GO:0042455		13	-0.682391	-1.7869028	0.016393442	0.053439565	0.9985	814	"tags=46%, list=8%, signal=50%"
GO:0045263	GO:0045263		12	-0.707144	-1.7785108	0.009363296	0.05711607	0.999	702	"tags=42%, list=7%, signal=45%"
GO:0019637	GO:0019637		253	-0.40025434	-1.7737578	0	0.058814906	0.999	1360	"tags=28%, list=14%, signal=31%"
GO:0009060	GO:0009060		22	-0.60866016	-1.7731054	0.010045663	0.05858577	0.999	1448	"tags=36%, list=15%, signal=43%"
GO:0098754	GO:0098754		37	-0.5426962	-1.7663027	0.008272059	0.061445184	0.999	1768	"tags=43%, list=18%, signal=53%"
GO:0009144	GO:0009144		20	-0.61322236	-1.7620806	0.011981566	0.06316277	0.999	1849	"tags=60%, list=19%, signal=74%"
GO:0006457	GO:0006457		66	-0.48769495	-1.7596321	0.001694915	0.06398664	0.999	2236	"tags=53%, list=23%, signal=68%"
GO:0009145	GO:0009145		18	-0.63396317	-1.7589353	0.015219337	0.063766204	0.999	702	"tags=44%, list=7%, signal=48%"
GO:0009163	GO:0009163		17	-0.6374726	-1.7574992	0.020332716	0.06387059	0.999	814	"tags=41%, list=8%, signal=45%"
GO:0098803	GO:0098803		14	-0.668553	-1.7542182	0.013157895	0.064969055	0.9995	482	"tags=29%, list=5%, signal=30%"
GO:1901606	GO:1901606		36	-0.54173046	-1.7530346	0.007985803	0.06506837	0.9995	1515	"tags=44%, list=16%, signal=52%"
GO:0009142	GO:0009142		22	-0.6006056	-1.7521691	0.011439466	0.0649351	0.9995	702	"tags=41%, list=7%, signal=44%"
GO:1901293	GO:1901293		79	-0.46148252	-1.7480367	0.003378379	0.066643514	0.9995	1861	"tags=43%, list=19%, signal=53%"
GO:0009165	GO:0009165		78	-0.4659236	-1.7478708	8.38E-04	0.0661835	0.9995	1861	"tags=44%, list=19%, signal=54%"
GO:0006520	GO:0006520		159	-0.41391426	-1.7452706	0.002255639	0.06704156	0.9995	1451	"tags=30%, list=15%, signal=34%"
GO:0051984	GO:0051984		20	-0.62283766	-1.743287	0.015370705	0.06752879	1	659	"tags=35%, list=7%, signal=37%"
GO:0016830	GO:0016830		29	-0.55816007	-1.7432725	0.007792208	0.06698421	1	1442	"tags=41%, list=15%, signal=48%"
GO:0062033	GO:0062033		18	-0.61218697	-1.7370747	0.015697138	0.069923185	1	659	"tags=33%, list=7%, signal=36%"
GO:0090407	GO:0090407		168	-0.4112085	-1.7359804	7.75E-04	0.070031285	1	1861	"tags=36%, list=19%, signal=43%"
GO:0005840	GO:0005840		159	-0.41562304	-1.7291523	7.77E-04	0.073161915	1	3197	"tags=65%, list=33%, signal=96%"
GO:0070469	GO:0070469		20	-0.61176115	-1.7279155	0.015769944	0.07332625	1	1531	"tags=40%, list=16%, signal=47%"
GO:0051287	GO:0051287		20	-0.6035093	-1.7231935	0.01904762	0.07538343	1	1772	"tags=40%, list=18%, signal=49%"
GO:0005746	GO:0005746		14	-0.6552901	-1.7207397	0.024051804	0.07621389	1	1531	"tags=43%, list=16%, signal=51%"
GO:0006081	GO:0006081		10	-0.70935374	-1.719667	0.015799256	0.07632332	1	310	"tags=30%, list=3%, signal=31%"
GO:0009636	GO:0009636		43	-0.5152849	-1.7196151	0.009499136	0.07577184	1	1768	"tags=44%, list=18%, signal=54%"
GO:0051015	GO:0051015		19	-0.6120915	-1.7195327	0.014035088	0.075246505	1	1398	"tags=53%, list=14%, signal=61%"
GO:1902903	GO:1902903		29	-0.55203074	-1.7150605	0.013949433	0.07719721	1	1671	"tags=48%, list=17%, signal=58%"
GO:0005198	GO:0005198		208	-0.39024743	-1.7119589	0	0.07856166	1	2984	"tags=59%, list=31%, signal=83%"
GO:0005759	GO:0005759		95	-0.44110933	-1.7106571	0	0.07874722	1	2861	"tags=56%, list=30%, signal=78%"
GO:0010181	GO:0010181		17	-0.61937904	-1.7097199	0.02578269	0.07875169	1	1284	"tags=41%, list=13%, signal=47%"
GO:0051087	GO:0051087		11	-0.6947657	-1.7085341	0.01593252	0.07884533	1	1710	"tags=55%, list=18%, signal=66%"
GO:0007021	GO:0007021		13	-0.65528107	-1.6983067	0.025280898	0.08469413	1	2189	"tags=69%, list=23%, signal=89%"
GO:0022625	GO:0022625		43	-0.4977789	-1.694978	0.013404826	0.08623389	1	3749	"tags=84%, list=39%, signal=136%"
GO:0016226	GO:0016226		17	-0.61785823	-1.6944051	0.027153557	0.08601288	1	1923	"tags=59%, list=20%, signal=73%"
GO:0042537	GO:0042537		14	-0.64296436	-1.691586	0.020966271	0.08707465	1	1006	"tags=43%, list=10%, signal=48%"
GO:0009072	GO:0009072		23	-0.5745801	-1.6905378	0.017117117	0.08715118	1	1515	"tags=39%, list=16%, signal=46%"
GO:1901659	GO:1901659		22	-0.5789106	-1.6905284	0.017690875	0.08654873	1	814	"tags=32%, list=8%, signal=35%"
GO:0033108	GO:0033108		35	-0.51253635	-1.6899482	0.016740087	0.086272605	1	3780	"tags=86%, list=39%, signal=140%"
GO:0031163	GO:0031163		17	-0.61785823	-1.6898822	0.02495379	0.08571702	1	1923	"tags=59%, list=20%, signal=73%"
GO:0032271	GO:0032271		27	-0.5387916	-1.6894431	0.02295684	0.085407585	1	1671	"tags=48%, list=17%, signal=58%"
GO:0006733	GO:0006733		40	-0.51015043	-1.6892229	0.009606987	0.084936954	1	1555	"tags=38%, list=16%, signal=44%"
GO:0032535	GO:0032535		25	-0.5531154	-1.6876006	0.015817223	0.08533569	1	1671	"tags=52%, list=17%, signal=63%"
GO:0008154	GO:0008154		21	-0.58370703	-1.6841002	0.021455225	0.0870254	1	1671	"tags=62%, list=17%, signal=75%"
GO:0009141	GO:0009141		27	-0.5492054	-1.6829064	0.021201413	0.08720783	1	1849	"tags=52%, list=19%, signal=64%"
GO:0031975	GO:0031975		257	-0.3728629	-1.6811405	7.15E-04	0.08772363	1	1736	"tags=30%, list=18%, signal=36%"
GO:0009108	GO:0009108		70	-0.456656	-1.6794745	0.006013746	0.08829502	1	1555	"tags=36%, list=16%, signal=42%"
GO:0031625	GO:0031625		19	-0.58540815	-1.6791462	0.02532833	0.08791832	1	1637	"tags=58%, list=17%, signal=70%"
GO:0090066	GO:0090066		25	-0.5531154	-1.6784219	0.02719855	0.08779591	1	1671	"tags=52%, list=17%, signal=63%"
GO:0072525	GO:0072525		20	-0.59581053	-1.6778381	0.021159153	0.087619714	1	1360	"tags=45%, list=14%, signal=52%"
GO:0044389	GO:0044389		20	-0.5867315	-1.6773384	0.021062272	0.08735721	1	1968	"tags=65%, list=20%, signal=81%"
GO:0006555	GO:0006555		20	-0.58358777	-1.674965	0.021395348	0.08846448	1	1183	"tags=40%, list=12%, signal=45%"
GO:0003779	GO:0003779		30	-0.5268851	-1.6704556	0.017621145	0.09071127	1	1671	"tags=53%, list=17%, signal=64%"
GO:0051261	GO:0051261		11	-0.68245286	-1.6690811	0.023764258	0.09104615	1	1398	"tags=64%, list=14%, signal=74%"
GO:0004659	GO:0004659		13	-0.6537818	-1.6684102	0.029676259	0.090940565	1	1463	"tags=54%, list=15%, signal=63%"
GO:0016831	GO:0016831		19	-0.5868922	-1.6669534	0.02690167	0.09132895	1	982	"tags=37%, list=10%, signal=41%"
GO:0009086	GO:0009086		20	-0.58358777	-1.6600496	0.02374169	0.09526411	1	1183	"tags=40%, list=12%, signal=45%"
GO:1901605	GO:1901605		111	-0.4132913	-1.6591109	0.003996803	0.09536494	1	1515	"tags=29%, list=16%, signal=34%"
GO:0009081	GO:0009081		16	-0.6097364	-1.6580231	0.02166065	0.09550741	1	1273	"tags=56%, list=13%, signal=65%"
GO:0016814	GO:0016814		15	-0.60934687	-1.657282	0.02310536	0.09547692	1	1322	"tags=40%, list=14%, signal=46%"
GO:0050660	GO:0050660		94	-0.42795625	-1.6551142	0.003336113	0.096386455	1	1991	"tags=33%, list=21%, signal=41%"
GO:0051494	GO:0051494		11	-0.6666149	-1.6530114	0.025242718	0.09713809	1	1671	"tags=64%, list=17%, signal=77%"
GO:1990748	GO:1990748		28	-0.5420835	-1.6523653	0.016934047	0.096998766	1	1768	"tags=43%, list=18%, signal=52%"
GO:0048037	GO:0048037		308	-0.36407974	-1.6497772	0	0.09820599	1	1991	"tags=31%, list=21%, signal=38%"
GO:0051187	GO:0051187		13	-0.64266306	-1.6485001	0.033395175	0.09852719	1	695	"tags=31%, list=7%, signal=33%"
GO:0009260	GO:0009260		44	-0.48371527	-1.6437097	0.01642178	0.10127664	1	1861	"tags=48%, list=19%, signal=59%"
GO:0006793	GO:0006793		466	-0.34953123	-1.6398555	0	0.10335071	1	1454	"tags=26%, list=15%, signal=30%"
GO:0008237	GO:0008237		36	-0.49942037	-1.6374362	0.023601398	0.104569376	1	942	"tags=28%, list=10%, signal=31%"
GO:0005770	GO:0005770		33	-0.5112732	-1.6342227	0.01404741	0.106234945	1	1215	"tags=33%, list=13%, signal=38%"
GO:0000315	GO:0000315		35	-0.5009518	-1.6330515	0.020535715	0.10644768	1	3197	"tags=63%, list=33%, signal=93%"
GO:0008652	GO:0008652		55	-0.45817155	-1.6288923	0.017497813	0.10868786	1	1747	"tags=36%, list=18%, signal=44%"
GO:0031967	GO:0031967		256	-0.36543798	-1.6280093	0	0.108707465	1	1736	"tags=30%, list=18%, signal=35%"
GO:0045840	GO:0045840		20	-0.5669846	-1.6269773	0.032579187	0.108869925	1	659	"tags=30%, list=7%, signal=32%"
GO:0022904	GO:0022904		22	-0.55151325	-1.624429	0.031307552	0.11013199	1	1199	"tags=36%, list=12%, signal=41%"
GO:0051082	GO:0051082		38	-0.49364418	-1.6237884	0.017730497	0.10997625	1	2048	"tags=50%, list=21%, signal=63%"
GO:0022626	GO:0022626		77	-0.43184513	-1.6220108	0.006802721	0.11070307	1	3785	"tags=83%, list=39%, signal=135%"
GO:0005762	GO:0005762		35	-0.5009518	-1.6208014	0.026223777	0.110957704	1	3197	"tags=63%, list=33%, signal=93%"
GO:0070887	GO:0070887		124	-0.40130565	-1.6175942	0.003863988	0.11263218	1	1792	"tags=34%, list=19%, signal=41%"
GO:0009110	GO:0009110		12	-0.6443129	-1.6173704	0.03816794	0.112189695	1	1626	"tags=58%, list=17%, signal=70%"
GO:0016679	GO:0016679		11	-0.6589374	-1.6145753	0.037249282	0.11387552	1	482	"tags=27%, list=5%, signal=29%"
GO:0071985	GO:0071985		20	-0.5663454	-1.614022	0.032317635	0.113679305	1	1386	"tags=45%, list=14%, signal=52%"
GO:0009226	GO:0009226		13	-0.61356395	-1.6118389	0.03516682	0.1146866	1	1068	"tags=38%, list=11%, signal=43%"
GO:0044396	GO:0044396		11	-0.65316665	-1.6116956	0.042213883	0.11421788	1	1671	"tags=64%, list=17%, signal=77%"
GO:0032509	GO:0032509		20	-0.5663454	-1.609636	0.03773585	0.11518056	1	1386	"tags=45%, list=14%, signal=52%"
GO:0009062	GO:0009062		22	-0.5408299	-1.605399	0.031220436	0.117894456	1	1887	"tags=64%, list=19%, signal=79%"
GO:0006586	GO:0006586		10	-0.6580934	-1.602173	0.044485636	0.11994386	1	529	"tags=30%, list=5%, signal=32%"
GO:0000313	GO:0000313		53	-0.45495617	-1.6017636	0.01791809	0.119644865	1	2960	"tags=57%, list=31%, signal=81%"
GO:0000147	GO:0000147		10	-0.65521306	-1.5987448	0.04725898	0.12136324	1	1526	"tags=60%, list=16%, signal=71%"
GO:0008238	GO:0008238		40	-0.47995636	-1.5973386	0.020664869	0.12178892	1	2077	"tags=40%, list=21%, signal=51%"
GO:0051785	GO:0051785		20	-0.5669846	-1.5952923	0.03538175	0.12288435	1	659	"tags=30%, list=7%, signal=32%"
GO:0016776	GO:0016776		10	-0.6781619	-1.5948193	0.034938622	0.12259284	1	665	"tags=40%, list=7%, signal=43%"
GO:0006766	GO:0006766		20	-0.5541754	-1.5947552	0.024319066	0.122029655	1	667	"tags=35%, list=7%, signal=38%"
GO:0009152	GO:0009152		35	-0.49592096	-1.5938156	0.027803522	0.12221238	1	814	"tags=31%, list=8%, signal=34%"
GO:0016782	GO:0016782		15	-0.5859369	-1.5937934	0.044061303	0.121613085	1	1251	"tags=40%, list=13%, signal=46%"
GO:0022627	GO:0022627		31	-0.49953395	-1.5921799	0.029918404	0.12227905	1	3554	"tags=84%, list=37%, signal=132%"
GO:0000097	GO:0000097		24	-0.5273305	-1.5902251	0.03539823	0.12316044	1	1183	"tags=38%, list=12%, signal=43%"
GO:0015980	GO:0015980		45	-0.46457404	-1.5881107	0.024680851	0.12421049	1	1448	"tags=29%, list=15%, signal=34%"
GO:0005761	GO:0005761		53	-0.45495617	-1.5880824	0.017256256	0.123626664	1	2960	"tags=57%, list=31%, signal=81%"
GO:0051156	GO:0051156		12	-0.6368705	-1.5878837	0.037700284	0.12315805	1	3007	"tags=83%, list=31%, signal=121%"
GO:0033617	GO:0033617		15	-0.5979864	-1.5866683	0.0362117	0.12352926	1	3647	"tags=93%, list=38%, signal=149%"
GO:0006796	GO:0006796		449	-0.33869857	-1.5862862	0	0.123211965	1	1448	"tags=26%, list=15%, signal=29%"
GO:0008535	GO:0008535		16	-0.5762067	-1.5835737	0.04478976	0.12482	1	3865	"tags=94%, list=40%, signal=156%"
GO:0019359	GO:0019359		18	-0.562003	-1.5835316	0.052875694	0.12424913	1	1360	"tags=44%, list=14%, signal=52%"
GO:0030258	GO:0030258		36	-0.4830012	-1.5821186	0.03102837	0.1247917	1	1887	"tags=44%, list=19%, signal=55%"
GO:0006568	GO:0006568		10	-0.6580934	-1.5805115	0.036077704	0.1255277	1	529	"tags=30%, list=5%, signal=32%"
GO:0030838	GO:0030838		10	-0.6449533	-1.5801816	0.04863813	0.12520705	1	1526	"tags=60%, list=16%, signal=71%"
GO:0019867	GO:0019867		20	-0.5536676	-1.5799975	0.04225352	0.12475398	1	537	"tags=35%, list=6%, signal=37%"
GO:0042430	GO:0042430		10	-0.6580934	-1.5795952	0.053294573	0.124461256	1	529	"tags=30%, list=5%, signal=32%"
GO:0017004	GO:0017004		26	-0.51931715	-1.5774035	0.047321428	0.1256172	1	3994	"tags=92%, list=41%, signal=157%"
GO:0036452	GO:0036452		10	-0.65393114	-1.5771505	0.043392505	0.12522684	1	1088	"tags=40%, list=11%, signal=45%"
GO:0045333	GO:0045333		36	-0.4900618	-1.5762076	0.032	0.12540841	1	1199	"tags=28%, list=12%, signal=32%"
GO:0009404	GO:0009404		17	-0.57485133	-1.571686	0.05151794	0.12838987	1	1747	"tags=59%, list=18%, signal=72%"
GO:0005741	GO:0005741		19	-0.5598376	-1.5715253	0.03974122	0.12791845	1	537	"tags=37%, list=6%, signal=39%"
GO:0008483	GO:0008483		16	-0.5715811	-1.5705646	0.043643262	0.12806587	1	1427	"tags=44%, list=15%, signal=51%"
GO:0032787	GO:0032787		100	-0.40087977	-1.5682145	0.010906041	0.12934498	1	1284	"tags=32%, list=13%, signal=37%"
GO:0031968	GO:0031968		20	-0.5536676	-1.5676193	0.045119707	0.1292316	1	537	"tags=35%, list=6%, signal=37%"
GO:0070071	GO:0070071		11	-0.6255444	-1.5630152	0.055258468	0.13241106	1	1849	"tags=55%, list=19%, signal=67%"
GO:0009066	GO:0009066		32	-0.4895146	-1.5569888	0.04406475	0.13674833	1	1183	"tags=28%, list=12%, signal=32%"
GO:0045324	GO:0045324		22	-0.5253278	-1.5559272	0.03778802	0.13706931	1	1299	"tags=36%, list=13%, signal=42%"
GO:0019363	GO:0019363		18	-0.562003	-1.5557785	0.04803074	0.13658512	1	1360	"tags=44%, list=14%, signal=52%"
GO:0045010	GO:0045010		10	-0.6449533	-1.5534736	0.053171642	0.13796137	1	1526	"tags=60%, list=16%, signal=71%"
GO:0016854	GO:0016854		12	-0.61291456	-1.5527267	0.056169428	0.13796908	1	1194	"tags=50%, list=12%, signal=57%"
GO:0016811	GO:0016811		32	-0.48810068	-1.5508323	0.03177405	0.13886143	1	984	"tags=34%, list=10%, signal=38%"
GO:1901607	GO:1901607		52	-0.43733624	-1.5508277	0.026478376	0.13826455	1	1747	"tags=35%, list=18%, signal=42%"
GO:0016769	GO:0016769		16	-0.5715811	-1.5497085	0.042380523	0.13858554	1	1427	"tags=44%, list=15%, signal=51%"
GO:0007031	GO:0007031		12	-0.6130484	-1.5479516	0.05785921	0.13944124	1	1443	"tags=42%, list=15%, signal=49%"
GO:0016627	GO:0016627		31	-0.49132824	-1.5477531	0.044762757	0.13902088	1	1887	"tags=45%, list=19%, signal=56%"
GO:0016846	GO:0016846		13	-0.60219646	-1.5468155	0.05809524	0.1392074	1	1809	"tags=46%, list=19%, signal=57%"
GO:1902905	GO:1902905		19	-0.5413388	-1.542571	0.058287796	0.14229313	1	1629	"tags=47%, list=17%, signal=57%"
GO:0046390	GO:0046390		48	-0.45070508	-1.5419228	0.027681662	0.1422942	1	1861	"tags=44%, list=19%, signal=54%"
GO:0072521	GO:0072521		77	-0.41322225	-1.5416417	0.019214703	0.14193605	1	814	"tags=23%, list=8%, signal=25%"
GO:0097237	GO:0097237		32	-0.49049914	-1.5398363	0.041012216	0.14287183	1	1768	"tags=41%, list=18%, signal=50%"
GO:0006164	GO:0006164		38	-0.46834734	-1.5374092	0.03652174	0.14426994	1	814	"tags=29%, list=8%, signal=31%"
GO:0051495	GO:0051495		19	-0.5413388	-1.5340413	0.055037312	0.14667581	1	1629	"tags=47%, list=17%, signal=57%"
GO:0101031	GO:0101031		11	-0.626014	-1.5298837	0.06057782	0.14981966	1	2048	"tags=64%, list=21%, signal=81%"
GO:0005884	GO:0005884		10	-0.62977254	-1.5295769	0.065048546	0.14948672	1	375	"tags=30%, list=4%, signal=31%"
GO:0015935	GO:0015935		49	-0.43948752	-1.528807	0.03133159	0.14951621	1	3785	"tags=80%, list=39%, signal=130%"
GO:1902904	GO:1902904		10	-0.63469046	-1.5276467	0.059797607	0.14996463	1	1671	"tags=60%, list=17%, signal=72%"
GO:0042737	GO:0042737		33	-0.47573367	-1.5274262	0.05470852	0.1495312	1	2426	"tags=52%, list=25%, signal=68%"
GO:0070585	GO:0070585		15	-0.5705181	-1.5260435	0.06332703	0.15012679	1	1000	"tags=33%, list=10%, signal=37%"
GO:1902600	GO:1902600		67	-0.41481093	-1.5232111	0.018518519	0.15202072	1	1199	"tags=27%, list=12%, signal=30%"
GO:0042364	GO:0042364		11	-0.6215052	-1.5177282	0.05517909	0.15642251	1	1626	"tags=55%, list=17%, signal=65%"
GO:0006626	GO:0006626		15	-0.5705181	-1.5176806	0.064305685	0.15585472	1	1000	"tags=33%, list=10%, signal=37%"
GO:0006490	GO:0006490		11	-0.6122729	-1.5144219	0.06534091	0.15809749	1	1578	"tags=45%, list=16%, signal=54%"
GO:0009150	GO:0009150		56	-0.42196178	-1.5143615	0.031358887	0.15753038	1	1849	"tags=39%, list=19%, signal=48%"
GO:0072655	GO:0072655		15	-0.5705181	-1.509612	0.06623134	0.16143572	1	1000	"tags=33%, list=10%, signal=37%"
GO:0051603	GO:0051603		150	-0.36089277	-1.5082731	0.013312451	0.16207962	1	1445	"tags=27%, list=15%, signal=32%"
GO:1901137	GO:1901137		161	-0.3553055	-1.5079552	0.007930215	0.1617269	1	1680	"tags=31%, list=17%, signal=37%"
GO:0044283	GO:0044283		215	-0.34743205	-1.5067353	0.005925926	0.16220985	1	1555	"tags=28%, list=16%, signal=33%"
GO:0046128	GO:0046128		13	-0.57656914	-1.5052767	0.0712963	0.16290998	1	814	"tags=38%, list=8%, signal=42%"
GO:0034599	GO:0034599		35	-0.4586229	-1.503632	0.05062167	0.16383152	1	2247	"tags=54%, list=23%, signal=70%"
GO:0006767	GO:0006767		19	-0.52853453	-1.5033349	0.06377079	0.16346166	1	637	"tags=32%, list=7%, signal=34%"
GO:0005811	GO:0005811		12	-0.59418595	-1.5015278	0.06634615	0.16457085	1	679	"tags=17%, list=7%, signal=18%"
GO:0044257	GO:0044257		153	-0.3565332	-1.4960431	0.010861132	0.16916874	1	1445	"tags=27%, list=15%, signal=32%"
GO:0009119	GO:0009119		21	-0.51930964	-1.4957992	0.069747165	0.16876446	1	929	"tags=33%, list=10%, signal=37%"
GO:0006508	GO:0006508		291	-0.3289842	-1.495348	0	0.16859773	1	1445	"tags=24%, list=15%, signal=28%"
GO:0042440	GO:0042440		27	-0.48839194	-1.49528	0.05851064	0.16801696	1	895	"tags=22%, list=9%, signal=24%"
GO:0051181	GO:0051181		17	-0.5414056	-1.4923668	0.06535948	0.17012313	1	1418	"tags=53%, list=15%, signal=62%"
GO:0046148	GO:0046148		26	-0.4944616	-1.4885707	0.05785124	0.17307808	1	895	"tags=23%, list=9%, signal=25%"
GO:0043254	GO:0043254		42	-0.4417647	-1.487914	0.04749104	0.17311606	1	1811	"tags=40%, list=19%, signal=50%"
GO:0016052	GO:0016052		41	-0.44588175	-1.4876198	0.051813472	0.17277388	1	3007	"tags=59%, list=31%, signal=85%"
GO:0044272	GO:0044272		40	-0.43957332	-1.4869709	0.04442509	0.17275344	1	1487	"tags=40%, list=15%, signal=47%"
GO:0000096	GO:0000096		31	-0.4665294	-1.4863677	0.06824147	0.1726867	1	1223	"tags=32%, list=13%, signal=37%"
GO:0042625	GO:0042625		21	-0.5058315	-1.4849997	0.07342008	0.17335682	1	702	"tags=29%, list=7%, signal=31%"
GO:0015740	GO:0015740		11	-0.60623956	-1.4838694	0.078849725	0.17378074	1	233	"tags=18%, list=2%, signal=19%"
GO:0009259	GO:0009259		67	-0.40533957	-1.4833119	0.03448276	0.17368929	1	1861	"tags=40%, list=19%, signal=50%"
GO:0019693	GO:0019693		74	-0.39718482	-1.4827765	0.032718122	0.17357917	1	1861	"tags=39%, list=19%, signal=48%"
GO:0009067	GO:0009067		27	-0.49284503	-1.4821693	0.06512043	0.17356472	1	1183	"tags=30%, list=12%, signal=34%"
GO:0008374	GO:0008374		17	-0.53322405	-1.4810369	0.076850094	0.17407727	1	1841	"tags=47%, list=19%, signal=58%"
GO:0042221	GO:0042221		216	-0.34334695	-1.480612	0.005231689	0.17383032	1	1445	"tags=24%, list=15%, signal=28%"
GO:0043162	GO:0043162		17	-0.547893	-1.477111	0.08250227	0.17667057	1	1299	"tags=41%, list=13%, signal=47%"
GO:0019829	GO:0019829		21	-0.5058315	-1.4768263	0.06715064	0.17632172	1	702	"tags=29%, list=7%, signal=31%"
GO:0009225	GO:0009225		18	-0.5190761	-1.4735206	0.07584269	0.17904355	1	1068	"tags=28%, list=11%, signal=31%"
GO:0019941	GO:0019941		133	-0.3600601	-1.4720643	0.013229572	0.17988764	1	1445	"tags=28%, list=15%, signal=32%"
GO:0006511	GO:0006511		130	-0.36210543	-1.4631271	0.020520916	0.18816693	1	1445	"tags=28%, list=15%, signal=32%"
GO:0006641	GO:0006641		13	-0.55747694	-1.4629364	0.09040075	0.187678	1	1841	"tags=62%, list=19%, signal=76%"
GO:0043328	GO:0043328		12	-0.5756754	-1.4628513	0.08921569	0.18709856	1	1299	"tags=42%, list=13%, signal=48%"
GO:0006163	GO:0006163		60	-0.40875226	-1.461103	0.05147679	0.18822452	1	1849	"tags=38%, list=19%, signal=47%"
GO:0099512	GO:0099512		39	-0.43482712	-1.4599516	0.058666665	0.1887716	1	2008	"tags=41%, list=21%, signal=52%"
GO:0015749	GO:0015749		32	-0.45856622	-1.4587334	0.058128975	0.1893125	1	1129	"tags=25%, list=12%, signal=28%"
GO:0045454	GO:0045454		21	-0.5062991	-1.4571788	0.085299455	0.19028783	1	2247	"tags=52%, list=23%, signal=68%"
GO:0030433	GO:0030433		23	-0.49142447	-1.4561989	0.082796685	0.190662	1	1445	"tags=35%, list=15%, signal=41%"
GO:0008645	GO:0008645		32	-0.45856622	-1.4560262	0.06388889	0.19021314	1	1129	"tags=25%, list=12%, signal=28%"
GO:0050661	GO:0050661		28	-0.47526547	-1.4557931	0.0778872	0.18978798	1	1772	"tags=43%, list=18%, signal=52%"
GO:0099080	GO:0099080		39	-0.43482712	-1.453851	0.05762082	0.19119887	1	2008	"tags=41%, list=21%, signal=52%"
GO:0046365	GO:0046365		12	-0.57507026	-1.4529252	0.10239852	0.19140793	1	1302	"tags=50%, list=13%, signal=58%"
GO:0007015	GO:0007015		30	-0.46569607	-1.4529021	0.065198235	0.19078134	1	1671	"tags=47%, list=17%, signal=56%"
GO:0030176	GO:0030176		58	-0.40434492	-1.4526472	0.054237287	0.19039507	1	2265	"tags=48%, list=23%, signal=63%"
GO:0006639	GO:0006639		14	-0.5452661	-1.446366	0.1065033	0.19635676	1	1841	"tags=57%, list=19%, signal=70%"
GO:0046349	GO:0046349		10	-0.60100985	-1.4381758	0.093000956	0.2045195	1	1068	"tags=30%, list=11%, signal=34%"
GO:0032511	GO:0032511		17	-0.5206856	-1.437217	0.1036036	0.20485598	1	1299	"tags=41%, list=13%, signal=47%"
GO:0006638	GO:0006638		15	-0.53258395	-1.4370749	0.09205426	0.20430106	1	1841	"tags=53%, list=19%, signal=66%"
GO:0043632	GO:0043632		142	-0.34618977	-1.4364748	0.02016129	0.20427191	1	1921	"tags=34%, list=20%, signal=42%"
GO:0034219	GO:0034219		33	-0.44792035	-1.4345063	0.074652776	0.20569837	1	1129	"tags=24%, list=12%, signal=27%"
GO:0099081	GO:0099081		39	-0.43482712	-1.4334611	0.067010306	0.20613626	1	2008	"tags=41%, list=21%, signal=52%"
GO:0030163	GO:0030163		177	-0.33865538	-1.4326446	0.019637462	0.20636588	1	1445	"tags=25%, list=15%, signal=29%"
GO:0015672	GO:0015672		76	-0.3804966	-1.4316571	0.04463519	0.20676711	1	1199	"tags=24%, list=12%, signal=27%"
GO:0009166	GO:0009166		13	-0.5537649	-1.4300523	0.09375	0.20783268	1	1182	"tags=31%, list=12%, signal=35%"
GO:0009435	GO:0009435		15	-0.53629845	-1.4296893	0.103738315	0.20755933	1	1360	"tags=40%, list=14%, signal=46%"
GO:0044273	GO:0044273		11	-0.58544695	-1.4278932	0.103286386	0.20886156	1	1561	"tags=45%, list=16%, signal=54%"
GO:1901136	GO:1901136		24	-0.47874174	-1.4273046	0.091651544	0.20885485	1	1412	"tags=33%, list=15%, signal=39%"
GO:0044440	GO:0044440		47	-0.40980473	-1.4257672	0.05922166	0.20986132	1	1303	"tags=28%, list=13%, signal=32%"
GO:0051119	GO:0051119		34	-0.43635738	-1.4255371	0.085365854	0.20940389	1	1129	"tags=24%, list=12%, signal=27%"
GO:0030641	GO:0030641		10	-0.5827106	-1.4233987	0.10451978	0.21099062	1	2172	"tags=70%, list=22%, signal=90%"
GO:0031227	GO:0031227		59	-0.39844325	-1.423313	0.05887372	0.21039844	1	2265	"tags=47%, list=23%, signal=62%"
GO:0016655	GO:0016655		12	-0.5574181	-1.4228739	0.110687025	0.21018556	1	3202	"tags=67%, list=33%, signal=99%"
GO:0032592	GO:0032592		38	-0.4307098	-1.4220178	0.07611549	0.21043167	1	594	"tags=24%, list=6%, signal=25%"
GO:0051258	GO:0051258		31	-0.44850498	-1.4209085	0.07837838	0.21097745	1	1671	"tags=45%, list=17%, signal=54%"
GO:0006206	GO:0006206		14	-0.53467995	-1.4167299	0.11674208	0.21508203	1	1861	"tags=57%, list=19%, signal=71%"
GO:0051537	GO:0051537		12	-0.56451714	-1.4165173	0.10786106	0.2146457	1	2831	"tags=75%, list=29%, signal=106%"
GO:1901135	GO:1901135		245	-0.32210618	-1.4161115	0.013473053	0.21440224	1	1861	"tags=32%, list=19%, signal=39%"
GO:0000287	GO:0000287		40	-0.42407122	-1.4154367	0.08240344	0.21445581	1	2062	"tags=38%, list=21%, signal=47%"
GO:0015149	GO:0015149		33	-0.4465681	-1.4124069	0.08217913	0.21736099	1	1129	"tags=24%, list=12%, signal=27%"
GO:0032970	GO:0032970		34	-0.43657777	-1.4120449	0.07801419	0.21711072	1	1671	"tags=41%, list=17%, signal=50%"
GO:0015035	GO:0015035		13	-0.54220927	-1.4119594	0.105820104	0.21654102	1	1825	"tags=62%, list=19%, signal=76%"
GO:0015145	GO:0015145		33	-0.4465681	-1.4107388	0.08675373	0.21727836	1	1129	"tags=24%, list=12%, signal=27%"
GO:0098796	GO:0098796		178	-0.33365148	-1.4101579	0.019417476	0.21723954	1	1929	"tags=34%, list=20%, signal=42%"
GO:0006090	GO:0006090		12	-0.5643131	-1.4054376	0.12197393	0.22187741	1	3007	"tags=67%, list=31%, signal=97%"
GO:0015078	GO:0015078		76	-0.378592	-1.4051968	0.05338983	0.2214446	1	1199	"tags=26%, list=12%, signal=30%"
GO:0006979	GO:0006979		47	-0.40764728	-1.4041761	0.07235142	0.2218907	1	2349	"tags=51%, list=24%, signal=67%"
GO:0072599	GO:0072599		22	-0.47360414	-1.4037497	0.11184834	0.22169149	1	1925	"tags=45%, list=20%, signal=57%"
GO:0031301	GO:0031301		140	-0.34086087	-1.4000876	0.0311042	0.22537464	1	2136	"tags=38%, list=22%, signal=48%"
GO:0032273	GO:0032273		18	-0.50387436	-1.3931155	0.12717292	0.23296241	1	1629	"tags=44%, list=17%, signal=53%"
GO:0008654	GO:0008654		69	-0.3791501	-1.3930992	0.055021834	0.23226951	1	1093	"tags=20%, list=11%, signal=23%"
GO:0007034	GO:0007034		59	-0.38957515	-1.3903964	0.066447906	0.23473555	1	1130	"tags=27%, list=12%, signal=31%"
GO:0098869	GO:0098869		25	-0.4642559	-1.3901142	0.10685664	0.23438492	1	1768	"tags=36%, list=18%, signal=44%"
GO:0006885	GO:0006885		12	-0.5544441	-1.3900503	0.12716763	0.23375809	1	2172	"tags=67%, list=22%, signal=86%"
GO:0004177	GO:0004177		19	-0.49215993	-1.3877231	0.11924119	0.23584019	1	1813	"tags=42%, list=19%, signal=52%"
GO:0006518	GO:0006518		354	-0.30312946	-1.3862092	0.009845289	0.23691481	1	2974	"tags=50%, list=31%, signal=69%"
GO:0031334	GO:0031334		24	-0.4691946	-1.3854612	0.0975161	0.23712344	1	1629	"tags=42%, list=17%, signal=50%"
GO:0005402	GO:0005402		36	-0.41964525	-1.3853977	0.09866667	0.23650165	1	1129	"tags=22%, list=12%, signal=25%"
GO:0032956	GO:0032956		34	-0.43657777	-1.3837419	0.110192835	0.2378309	1	1671	"tags=41%, list=17%, signal=50%"
GO:0051453	GO:0051453		10	-0.5827106	-1.3834115	0.12757973	0.2374924	1	2172	"tags=70%, list=22%, signal=90%"
GO:0045047	GO:0045047		22	-0.47360414	-1.3813676	0.101584345	0.23930858	1	1925	"tags=45%, list=20%, signal=57%"
GO:0072523	GO:0072523		17	-0.50303316	-1.380707	0.13424657	0.23934956	1	1412	"tags=35%, list=15%, signal=41%"
GO:1902099	GO:1902099		31	-0.43503287	-1.3794887	0.09760426	0.24010414	1	1101	"tags=29%, list=11%, signal=33%"
GO:0016701	GO:0016701		19	-0.48421216	-1.3793355	0.1240942	0.23958081	1	1734	"tags=37%, list=18%, signal=45%"
GO:0007005	GO:0007005		114	-0.3468181	-1.377653	0.033965245	0.24094257	1	2163	"tags=39%, list=22%, signal=50%"
GO:0030071	GO:0030071		31	-0.43503287	-1.375231	0.10946196	0.24329096	1	1101	"tags=29%, list=11%, signal=33%"
GO:0051205	GO:0051205		10	-0.5731686	-1.3740724	0.13031161	0.24391107	1	616	"tags=30%, list=6%, signal=32%"
GO:0015077	GO:0015077		82	-0.3610519	-1.374023	0.065181516	0.24326622	1	1199	"tags=24%, list=12%, signal=28%"
GO:0006835	GO:0006835		15	-0.51026165	-1.3730884	0.1507782	0.24366762	1	1380	"tags=33%, list=14%, signal=39%"
GO:1901701	GO:1901701		23	-0.4672773	-1.3728275	0.12545455	0.24330567	1	1768	"tags=35%, list=18%, signal=42%"
GO:1901992	GO:1901992		22	-0.46466553	-1.3718531	0.11433757	0.24383569	1	659	"tags=27%, list=7%, signal=29%"
GO:0009070	GO:0009070		15	-0.51453936	-1.3707446	0.13009709	0.2445139	1	421	"tags=20%, list=4%, signal=21%"
GO:0051184	GO:0051184		10	-0.5675813	-1.3704163	0.13288718	0.24425092	1	1410	"tags=50%, list=15%, signal=58%"
GO:0006605	GO:0006605		71	-0.36755598	-1.369032	0.077787384	0.2452932	1	1929	"tags=34%, list=20%, signal=42%"
GO:0098573	GO:0098573		40	-0.41197857	-1.368602	0.10147441	0.24516092	1	594	"tags=23%, list=6%, signal=24%"
GO:0072528	GO:0072528		20	-0.47909358	-1.3685971	0.12790698	0.24447922	1	1861	"tags=55%, list=19%, signal=68%"
GO:0072666	GO:0072666		31	-0.43384832	-1.3682353	0.11161116	0.24423173	1	1299	"tags=32%, list=13%, signal=37%"
GO:0007091	GO:0007091		31	-0.43503287	-1.3663893	0.10625	0.24576235	1	1101	"tags=29%, list=11%, signal=33%"
GO:0044784	GO:0044784		31	-0.43503287	-1.3650931	0.10877514	0.24669729	1	1101	"tags=29%, list=11%, signal=33%"
GO:0031300	GO:0031300		143	-0.3323003	-1.3649726	0.042768274	0.24615844	1	2136	"tags=37%, list=22%, signal=47%"
GO:0010008	GO:0010008		38	-0.41817245	-1.3648188	0.10568383	0.24567313	1	1303	"tags=29%, list=13%, signal=33%"
GO:1901361	GO:1901361		136	-0.3330139	-1.3642863	0.054160126	0.24565154	1	1551	"tags=27%, list=16%, signal=32%"
GO:0005310	GO:0005310		14	-0.51870066	-1.3639481	0.14044444	0.24538253	1	2296	"tags=50%, list=24%, signal=65%"
GO:0099513	GO:0099513		38	-0.41954005	-1.3638865	0.09762774	0.24477808	1	2008	"tags=39%, list=21%, signal=50%"
GO:0010638	GO:0010638		50	-0.39041165	-1.3627348	0.09014322	0.24545239	1	1629	"tags=34%, list=17%, signal=41%"
GO:0005351	GO:0005351		36	-0.41964525	-1.3619548	0.10163339	0.24572845	1	1129	"tags=22%, list=12%, signal=25%"
GO:0016684	GO:0016684		15	-0.50126153	-1.3593285	0.12197393	0.24835452	1	1768	"tags=40%, list=18%, signal=49%"
GO:1901292	GO:1901292		15	-0.5102042	-1.3589051	0.13114753	0.24816827	1	1182	"tags=27%, list=12%, signal=30%"
GO:1901989	GO:1901989		22	-0.46466553	-1.358199	0.12962963	0.2482917	1	659	"tags=27%, list=7%, signal=29%"
GO:2001252	GO:2001252		24	-0.44980785	-1.3567752	0.119282514	0.24936092	1	659	"tags=25%, list=7%, signal=27%"
GO:0005996	GO:0005996		42	-0.40421656	-1.3536158	0.10051546	0.25250116	1	2849	"tags=55%, list=29%, signal=77%"
GO:0046474	GO:0046474		52	-0.38841698	-1.3534667	0.09982639	0.25201398	1	1093	"tags=19%, list=11%, signal=22%"
GO:0015036	GO:0015036		15	-0.51081717	-1.352386	0.14744802	0.25267047	1	2112	"tags=60%, list=22%, signal=77%"
GO:1903008	GO:1903008		24	-0.4445914	-1.3510008	0.11648746	0.25370625	1	537	"tags=21%, list=6%, signal=22%"
GO:0042168	GO:0042168		17	-0.48764727	-1.3492253	0.14845939	0.25525904	1	895	"tags=29%, list=9%, signal=32%"
GO:0046394	GO:0046394		100	-0.3437539	-1.348787	0.07096774	0.25516376	1	1517	"tags=29%, list=16%, signal=34%"
GO:0016209	GO:0016209		23	-0.46474272	-1.3483258	0.1353167	0.25507143	1	1768	"tags=35%, list=18%, signal=42%"
GO:0010965	GO:0010965		32	-0.4214172	-1.3457404	0.115658365	0.2575565	1	809	"tags=25%, list=8%, signal=27%"
GO:1901700	GO:1901700		27	-0.4380136	-1.3452892	0.12511499	0.2574471	1	1834	"tags=37%, list=19%, signal=46%"
GO:1990204	GO:1990204		26	-0.44765982	-1.3439943	0.12793733	0.25838408	1	482	"tags=19%, list=5%, signal=20%"
GO:0006783	GO:0006783		16	-0.49702737	-1.3430381	0.15592904	0.25894523	1	895	"tags=31%, list=9%, signal=34%"
GO:0015144	GO:0015144		38	-0.405036	-1.3428702	0.11675579	0.25847986	1	1129	"tags=21%, list=12%, signal=24%"
GO:0016790	GO:0016790		12	-0.5220221	-1.3407046	0.15243343	0.2605162	1	1273	"tags=58%, list=13%, signal=67%"
GO:0046434	GO:0046434		27	-0.43234858	-1.339723	0.12488522	0.26104718	1	1264	"tags=22%, list=13%, signal=25%"
GO:0016298	GO:0016298		34	-0.42004853	-1.3377023	0.11764706	0.26291072	1	117	"tags=6%, list=1%, signal=6%"
GO:0072348	GO:0072348		16	-0.49198553	-1.3373917	0.1477171	0.26260126	1	2392	"tags=63%, list=25%, signal=83%"
GO:0016053	GO:0016053		101	-0.34176368	-1.3338685	0.071544714	0.2663594	1	1517	"tags=29%, list=16%, signal=34%"
GO:0004222	GO:0004222		15	-0.49529222	-1.3335648	0.16556914	0.26603162	1	926	"tags=33%, list=10%, signal=37%"
GO:0033014	GO:0033014		17	-0.48127866	-1.3330333	0.12885155	0.26601058	1	895	"tags=29%, list=9%, signal=32%"
GO:0043603	GO:0043603		400	-0.2844066	-1.3310966	0.01650619	0.2678357	1	2974	"tags=48%, list=31%, signal=66%"
GO:0009403	GO:0009403		12	-0.5265591	-1.3302132	0.15741584	0.2682895	1	1747	"tags=58%, list=18%, signal=71%"
GO:0006506	GO:0006506		22	-0.45288956	-1.3300829	0.14016172	0.2677558	1	980	"tags=27%, list=10%, signal=30%"
GO:0006779	GO:0006779		17	-0.48127866	-1.3288578	0.1542013	0.26858884	1	895	"tags=29%, list=9%, signal=32%"
GO:1905818	GO:1905818		32	-0.4214172	-1.3266814	0.13063063	0.27076125	1	809	"tags=25%, list=8%, signal=27%"
GO:0008643	GO:0008643		40	-0.39691994	-1.3249289	0.10995671	0.27232125	1	1129	"tags=23%, list=12%, signal=25%"
GO:0042278	GO:0042278		16	-0.48367837	-1.3243498	0.1571936	0.27238014	1	814	"tags=31%, list=8%, signal=34%"
GO:0006900	GO:0006900		20	-0.4530547	-1.3230484	0.15398717	0.27340007	1	1299	"tags=35%, list=13%, signal=40%"
GO:0051213	GO:0051213		51	-0.3787456	-1.3225899	0.124107145	0.27330077	1	1734	"tags=31%, list=18%, signal=38%"
GO:0051306	GO:0051306		33	-0.41233367	-1.3205475	0.13055304	0.27531144	1	809	"tags=24%, list=8%, signal=26%"
GO:0009112	GO:0009112		28	-0.42891452	-1.3182273	0.14209591	0.2776393	1	1861	"tags=36%, list=19%, signal=44%"
GO:0050136	GO:0050136		11	-0.5304086	-1.3170006	0.17555147	0.27854183	1	3202	"tags=64%, list=33%, signal=95%"
GO:0006778	GO:0006778		18	-0.47238892	-1.316831	0.15695067	0.27808386	1	895	"tags=28%, list=9%, signal=31%"
GO:0033013	GO:0033013		18	-0.47238892	-1.3152145	0.15639375	0.2795528	1	895	"tags=28%, list=9%, signal=31%"
GO:0008233	GO:0008233		151	-0.31674203	-1.3150582	0.06998445	0.2790573	1	1013	"tags=17%, list=10%, signal=18%"
GO:0006829	GO:0006829		12	-0.51866347	-1.3150337	0.15955473	0.27840447	1	21	"tags=8%, list=0%, signal=8%"
GO:0051983	GO:0051983		44	-0.38419688	-1.3139545	0.14680484	0.27911457	1	809	"tags=23%, list=8%, signal=25%"
GO:0017001	GO:0017001		10	-0.54194444	-1.3137542	0.1628131	0.27867457	1	310	"tags=20%, list=3%, signal=21%"
GO:0036503	GO:0036503		25	-0.43328977	-1.3134048	0.14933333	0.27847767	1	1445	"tags=32%, list=15%, signal=38%"
GO:0072665	GO:0072665		43	-0.3945	-1.3118691	0.14554794	0.2797684	1	1299	"tags=28%, list=13%, signal=32%"
GO:0051304	GO:0051304		40	-0.39522836	-1.31066	0.13204226	0.28065044	1	1921	"tags=38%, list=20%, signal=47%"
GO:0019439	GO:0019439		129	-0.31964514	-1.309016	0.060965955	0.28207505	1	1551	"tags=26%, list=16%, signal=31%"
GO:0016853	GO:0016853		68	-0.35498258	-1.3078119	0.10094909	0.28294814	1	1760	"tags=35%, list=18%, signal=43%"
GO:0008137	GO:0008137		11	-0.5304086	-1.300444	0.1824687	0.29226032	1	3202	"tags=64%, list=33%, signal=95%"
GO:0046112	GO:0046112		16	-0.4754112	-1.3000183	0.16856061	0.29217228	1	633	"tags=19%, list=7%, signal=20%"
GO:0071577	GO:0071577		12	-0.51866347	-1.2991887	0.18198529	0.29258403	1	21	"tags=8%, list=0%, signal=8%"
GO:0005758	GO:0005758		22	-0.44284865	-1.2929734	0.16637631	0.3004929	1	1858	"tags=32%, list=19%, signal=39%"
GO:0019748	GO:0019748		61	-0.36058483	-1.2924987	0.119166665	0.3004412	1	1982	"tags=31%, list=20%, signal=39%"
GO:1901615	GO:1901615		104	-0.3254968	-1.2911704	0.090763055	0.30156076	1	877	"tags=17%, list=9%, signal=19%"
GO:0010033	GO:0010033		66	-0.3537634	-1.287997	0.12331081	0.30535161	1	1445	"tags=24%, list=15%, signal=28%"
GO:0005975	GO:0005975		170	-0.30558327	-1.2866925	0.08365608	0.30642694	1	1851	"tags=29%, list=19%, signal=35%"
GO:0003954	GO:0003954		13	-0.5021876	-1.284928	0.20699432	0.3081892	1	3202	"tags=62%, list=33%, signal=92%"
GO:0009116	GO:0009116		35	-0.3996484	-1.2837137	0.14410481	0.30922437	1	2065	"tags=43%, list=21%, signal=54%"
GO:0061645	GO:0061645		24	-0.42359003	-1.2832938	0.18026906	0.30909654	1	1526	"tags=42%, list=16%, signal=49%"
GO:0043161	GO:0043161		78	-0.34050748	-1.2832656	0.12541528	0.30840114	1	1921	"tags=35%, list=20%, signal=43%"
GO:0022853	GO:0022853		92	-0.33167496	-1.2765338	0.10821807	0.317261	1	1129	"tags=22%, list=12%, signal=24%"
GO:0006730	GO:0006730		11	-0.5091545	-1.269947	0.19751908	0.32590985	1	2326	"tags=45%, list=24%, signal=60%"
GO:0015556	GO:0015556		11	-0.5231892	-1.2694392	0.19600381	0.32585078	1	16	"tags=9%, list=0%, signal=9%"
GO:0016746	GO:0016746		112	-0.31896675	-1.266055	0.10401891	0.3300058	1	1433	"tags=25%, list=15%, signal=29%"
GO:0006650	GO:0006650		78	-0.33399245	-1.2653207	0.13261051	0.33028778	1	2498	"tags=38%, list=26%, signal=51%"
GO:0044265	GO:0044265		239	-0.28527284	-1.2617805	0.06884058	0.3348478	1	1551	"tags=25%, list=16%, signal=29%"
GO:0004499	GO:0004499		11	-0.5178208	-1.2604696	0.20260224	0.33598644	1	1336	"tags=36%, list=14%, signal=42%"
GO:0030479	GO:0030479		24	-0.42359003	-1.2602797	0.19154677	0.33548632	1	1526	"tags=42%, list=16%, signal=49%"
GO:0042180	GO:0042180		37	-0.37731946	-1.2596987	0.18334809	0.33553144	1	1555	"tags=30%, list=16%, signal=35%"
GO:0006006	GO:0006006		20	-0.4351304	-1.2581007	0.18778077	0.33712935	1	2549	"tags=55%, list=26%, signal=74%"
GO:0019205	GO:0019205		17	-0.45473444	-1.2556717	0.20552996	0.3399893	1	1777	"tags=47%, list=18%, signal=58%"
GO:0033045	GO:0033045		41	-0.3713485	-1.2555839	0.17000872	0.33933792	1	809	"tags=22%, list=8%, signal=24%"
GO:0043244	GO:0043244		12	-0.4963062	-1.25538	0.22232646	0.33887306	1	1398	"tags=50%, list=14%, signal=58%"
GO:0006144	GO:0006144		14	-0.4723918	-1.2546012	0.20503262	0.3392038	1	388	"tags=14%, list=4%, signal=15%"
GO:0072527	GO:0072527		27	-0.41558725	-1.2481167	0.19946572	0.34832287	1	1861	"tags=48%, list=19%, signal=59%"
GO:1905368	GO:1905368		32	-0.39111874	-1.2475487	0.19217081	0.3483534	1	1891	"tags=41%, list=20%, signal=50%"
GO:0009057	GO:0009057		278	-0.27834833	-1.2474202	0.07226277	0.347728	1	1551	"tags=24%, list=16%, signal=27%"
GO:0043624	GO:0043624		24	-0.41513717	-1.2471129	0.2005571	0.34741557	1	1398	"tags=38%, list=14%, signal=44%"
GO:0033047	GO:0033047		40	-0.3775493	-1.2447357	0.17901234	0.35030562	1	809	"tags=23%, list=8%, signal=24%"
GO:1901657	GO:1901657		41	-0.37086973	-1.244156	0.17743325	0.3503472	1	2241	"tags=41%, list=23%, signal=54%"
GO:0010498	GO:0010498		81	-0.32905695	-1.2437695	0.14238682	0.35015303	1	1921	"tags=35%, list=20%, signal=43%"
GO:0009247	GO:0009247		25	-0.40960765	-1.2427281	0.21317475	0.35104582	1	980	"tags=24%, list=10%, signal=27%"
GO:0006412	GO:0006412		314	-0.27146202	-1.241677	0.06839453	0.35188237	1	2974	"tags=49%, list=31%, signal=68%"
GO:0070317	GO:0070317		13	-0.47669312	-1.2372267	0.22075471	0.35788378	1	686	"tags=31%, list=7%, signal=33%"
GO:1902533	GO:1902533		11	-0.50319505	-1.2367197	0.23070018	0.35784805	1	1659	"tags=36%, list=17%, signal=44%"
GO:0097526	GO:0097526		27	-0.409041	-1.2356464	0.20107238	0.358755	1	1523	"tags=37%, list=16%, signal=44%"
GO:0043043	GO:0043043		323	-0.27057973	-1.2324436	0.06613947	0.36286363	1	2974	"tags=49%, list=31%, signal=68%"
GO:0097435	GO:0097435		48	-0.36308783	-1.2323478	0.17522123	0.36219263	1	1671	"tags=38%, list=17%, signal=45%"
GO:0006896	GO:0006896		12	-0.4862426	-1.2312505	0.22335497	0.36313468	1	1049	"tags=33%, list=11%, signal=37%"
GO:0045017	GO:0045017		59	-0.34217396	-1.2301672	0.18094406	0.3640452	1	1848	"tags=31%, list=19%, signal=37%"
GO:0006839	GO:0006839		31	-0.38794544	-1.2298169	0.19056262	0.36382133	1	1929	"tags=35%, list=20%, signal=44%"
GO:0046700	GO:0046700		124	-0.3053799	-1.2293749	0.13742927	0.36373022	1	1551	"tags=26%, list=16%, signal=30%"
GO:0009074	GO:0009074		15	-0.4644094	-1.2286599	0.23374176	0.3640656	1	1515	"tags=33%, list=16%, signal=39%"
GO:0046486	GO:0046486		90	-0.31866264	-1.22803	0.14890017	0.3641863	1	2498	"tags=41%, list=26%, signal=55%"
GO:0070316	GO:0070316		13	-0.47669312	-1.2268231	0.21047619	0.36526367	1	686	"tags=31%, list=7%, signal=33%"
GO:0031985	GO:0031985		11	-0.49850047	-1.2258319	0.23353294	0.366045	1	20	"tags=9%, list=0%, signal=9%"
GO:0016879	GO:0016879		32	-0.3854546	-1.224727	0.20506108	0.36702955	1	2392	"tags=47%, list=25%, signal=62%"
GO:0016877	GO:0016877		12	-0.48014703	-1.2245297	0.22621359	0.36654523	1	1902	"tags=50%, list=20%, signal=62%"
GO:0045023	GO:0045023		13	-0.47669312	-1.222212	0.23529412	0.36952248	1	686	"tags=31%, list=7%, signal=33%"
GO:0005768	GO:0005768		96	-0.3128683	-1.2219043	0.15500794	0.36922917	1	1392	"tags=26%, list=14%, signal=30%"
GO:0004553	GO:0004553		63	-0.33508313	-1.2201887	0.17438921	0.3711632	1	1612	"tags=25%, list=17%, signal=30%"
GO:0005876	GO:0005876		12	-0.47563308	-1.216235	0.25692454	0.37663952	1	2008	"tags=50%, list=21%, signal=63%"
GO:0016780	GO:0016780		12	-0.47996956	-1.2136465	0.23402256	0.37999237	1	2242	"tags=58%, list=23%, signal=76%"
GO:0031970	GO:0031970		23	-0.41330388	-1.2132365	0.2298951	0.3798194	1	1858	"tags=30%, list=19%, signal=38%"
GO:1901658	GO:1901658		10	-0.49891573	-1.2127186	0.23932473	0.3798835	1	2241	"tags=60%, list=23%, signal=78%"
GO:0022411	GO:0022411		59	-0.34254208	-1.2122965	0.18718381	0.37974718	1	1037	"tags=24%, list=11%, signal=26%"
GO:0005675	GO:0005675		10	-0.50613505	-1.2115436	0.24856046	0.3801424	1	2529	"tags=50%, list=26%, signal=68%"
GO:0030246	GO:0030246		32	-0.37919298	-1.2103287	0.22654867	0.3813561	1	3318	"tags=56%, list=34%, signal=85%"
GO:0016747	GO:0016747		100	-0.31126106	-1.2102785	0.15862633	0.3806267	1	1433	"tags=23%, list=15%, signal=27%"
GO:0009123	GO:0009123		30	-0.3822881	-1.2100023	0.21719457	0.3802751	1	1861	"tags=37%, list=19%, signal=45%"
GO:0006505	GO:0006505		26	-0.39666596	-1.2075044	0.22714682	0.38354954	1	980	"tags=23%, list=10%, signal=26%"
GO:0016197	GO:0016197		52	-0.3414191	-1.2066758	0.19862425	0.38410237	1	1539	"tags=31%, list=16%, signal=36%"
GO:0000209	GO:0000209		34	-0.37525064	-1.2049149	0.23144877	0.3861435	1	1285	"tags=26%, list=13%, signal=30%"
GO:0046364	GO:0046364		14	-0.4541909	-1.2046851	0.24814126	0.38573283	1	2549	"tags=50%, list=26%, signal=68%"
GO:0044270	GO:0044270		126	-0.29640278	-1.2044743	0.14698984	0.3852894	1	1551	"tags=25%, list=16%, signal=29%"
GO:0019005	GO:0019005		10	-0.49589604	-1.2042801	0.25480768	0.38480812	1	3672	"tags=90%, list=38%, signal=145%"
GO:0009100	GO:0009100		62	-0.3336826	-1.2038049	0.17444718	0.38471693	1	1661	"tags=37%, list=17%, signal=44%"
GO:0009064	GO:0009064		19	-0.42053884	-1.2028942	0.23906977	0.38533437	1	1618	"tags=37%, list=17%, signal=44%"
GO:0008276	GO:0008276		26	-0.40124798	-1.198891	0.23644444	0.39111346	1	2175	"tags=46%, list=22%, signal=59%"
GO:0016788	GO:0016788		293	-0.26692468	-1.1972729	0.109281436	0.39299098	1	2251	"tags=30%, list=23%, signal=38%"
GO:0051493	GO:0051493		48	-0.3450302	-1.1957667	0.22016807	0.39462912	1	1671	"tags=35%, list=17%, signal=43%"
GO:1901698	GO:1901698		37	-0.3605211	-1.1898988	0.22583404	0.40364033	1	1445	"tags=24%, list=15%, signal=28%"
GO:0006534	GO:0006534		11	-0.48537728	-1.188225	0.27663553	0.40567464	1	276	"tags=18%, list=3%, signal=19%"
GO:0016310	GO:0016310		184	-0.27604288	-1.1881956	0.14542729	0.40489894	1	1886	"tags=28%, list=19%, signal=34%"
GO:0010243	GO:0010243		37	-0.3605211	-1.18734	0.2238938	0.40544376	1	1445	"tags=24%, list=15%, signal=28%"
GO:0070011	GO:0070011		142	-0.28485444	-1.1855382	0.16653258	0.4076345	1	1013	"tags=15%, list=10%, signal=17%"
GO:0042764	GO:0042764		11	-0.4715398	-1.1842905	0.28666037	0.4089506	1	1628	"tags=36%, list=17%, signal=44%"
GO:0006040	GO:0006040		26	-0.38819018	-1.1789106	0.25942963	0.41733375	1	1068	"tags=19%, list=11%, signal=22%"
GO:0004601	GO:0004601		14	-0.4569678	-1.1783688	0.2726415	0.4173931	1	1768	"tags=36%, list=18%, signal=44%"
GO:0019842	GO:0019842		59	-0.3252824	-1.1777921	0.21761219	0.41750026	1	1427	"tags=27%, list=15%, signal=32%"
GO:0046323	GO:0046323		30	-0.37563732	-1.1735975	0.25336927	0.42394745	1	1129	"tags=20%, list=12%, signal=23%"
GO:0015295	GO:0015295		40	-0.35328916	-1.1735427	0.25486726	0.42318574	1	1129	"tags=20%, list=12%, signal=23%"
GO:1904659	GO:1904659		30	-0.37563732	-1.1730021	0.26473254	0.42328584	1	1129	"tags=20%, list=12%, signal=23%"
GO:0004857	GO:0004857		22	-0.40007725	-1.1704428	0.27428058	0.42686608	1	1211	"tags=32%, list=13%, signal=36%"
GO:0015850	GO:0015850		11	-0.4734475	-1.1680974	0.28544062	0.43007547	1	314	"tags=18%, list=3%, signal=19%"
GO:0015293	GO:0015293		41	-0.34895408	-1.1678252	0.23056537	0.42970264	1	1129	"tags=20%, list=12%, signal=22%"
GO:0044255	GO:0044255		235	-0.26597345	-1.1667962	0.16591929	0.43062466	1	1276	"tags=20%, list=13%, signal=23%"
GO:0006629	GO:0006629		279	-0.26156408	-1.16624	0.152	0.43077883	1	1296	"tags=20%, list=13%, signal=23%"
GO:0072594	GO:0072594		104	-0.29438436	-1.1661178	0.21307506	0.4301273	1	1929	"tags=30%, list=20%, signal=37%"
GO:0009303	GO:0009303		11	-0.47606656	-1.1659015	0.29332042	0.42963296	1	583	"tags=27%, list=6%, signal=29%"
GO:0005355	GO:0005355		30	-0.37563732	-1.1639651	0.24668436	0.43221542	1	1129	"tags=20%, list=12%, signal=23%"
GO:0098781	GO:0098781		13	-0.453905	-1.1637397	0.2807657	0.43173552	1	583	"tags=23%, list=6%, signal=25%"
GO:0004520	GO:0004520		16	-0.42848992	-1.1635695	0.2906221	0.4311758	1	899	"tags=25%, list=9%, signal=28%"
GO:0042157	GO:0042157		39	-0.34759882	-1.163099	0.25432998	0.43115228	1	980	"tags=21%, list=10%, signal=23%"
GO:0000070	GO:0000070		95	-0.2989612	-1.1602519	0.21619433	0.4353155	1	2066	"tags=35%, list=21%, signal=44%"
GO:0006644	GO:0006644		109	-0.29069164	-1.159748	0.20500404	0.43534184	1	980	"tags=15%, list=10%, signal=16%"
GO:0042763	GO:0042763		11	-0.4715398	-1.1591223	0.29245284	0.4355783	1	1628	"tags=36%, list=17%, signal=44%"
GO:0015294	GO:0015294		41	-0.34895408	-1.1591176	0.26098418	0.43473494	1	1129	"tags=20%, list=12%, signal=22%"
GO:0051604	GO:0051604		65	-0.31397134	-1.1567969	0.25126904	0.43790132	1	2134	"tags=37%, list=22%, signal=47%"
GO:0005628	GO:0005628		11	-0.4715398	-1.15444	0.30210325	0.4412851	1	1628	"tags=36%, list=17%, signal=44%"
GO:0033218	GO:0033218		34	-0.35828432	-1.1532524	0.2699115	0.44253916	1	1901	"tags=44%, list=20%, signal=55%"
GO:0033365	GO:0033365		156	-0.2762038	-1.151381	0.196875	0.44506252	1	1929	"tags=29%, list=20%, signal=36%"
GO:0044089	GO:0044089		32	-0.3572819	-1.150545	0.26642984	0.44566703	1	1100	"tags=25%, list=11%, signal=28%"
GO:0070972	GO:0070972		30	-0.364637	-1.1503417	0.2754821	0.44520658	1	1925	"tags=40%, list=20%, signal=50%"
GO:0016798	GO:0016798		77	-0.30355456	-1.1475126	0.24378109	0.44934767	1	1612	"tags=23%, list=17%, signal=28%"
GO:1990542	GO:1990542		24	-0.3800807	-1.1468092	0.27502254	0.44972873	1	3360	"tags=67%, list=35%, signal=102%"
GO:0051233	GO:0051233		10	-0.46683797	-1.1456435	0.30009496	0.45097232	1	2008	"tags=60%, list=21%, signal=76%"
GO:0044743	GO:0044743		12	-0.4560076	-1.1388177	0.30931798	0.4623831	1	1000	"tags=33%, list=10%, signal=37%"
GO:0070085	GO:0070085		68	-0.3081488	-1.1385849	0.26732674	0.4619185	1	1661	"tags=34%, list=17%, signal=41%"
GO:0044550	GO:0044550		54	-0.32136458	-1.1374626	0.27104378	0.46302366	1	2627	"tags=39%, list=27%, signal=53%"
GO:0007029	GO:0007029		17	-0.41195315	-1.137183	0.30873087	0.46263146	1	2058	"tags=47%, list=21%, signal=60%"
GO:0005385	GO:0005385		14	-0.42618287	-1.1361301	0.31285444	0.4636073	1	21	"tags=7%, list=0%, signal=7%"
GO:0030170	GO:0030170		44	-0.33240405	-1.1352907	0.2875874	0.46429577	1	1427	"tags=30%, list=15%, signal=34%"
GO:0005874	GO:0005874		28	-0.36017707	-1.1317723	0.31989247	0.46980304	1	2008	"tags=39%, list=21%, signal=49%"
GO:0032006	GO:0032006		14	-0.43212673	-1.1291319	0.31992516	0.47379124	1	1659	"tags=29%, list=17%, signal=34%"
GO:0006165	GO:0006165		10	-0.4718529	-1.1278207	0.3288719	0.47537473	1	3007	"tags=60%, list=31%, signal=87%"
GO:0000422	GO:0000422		15	-0.41835007	-1.1251719	0.2952468	0.47933823	1	537	"tags=20%, list=6%, signal=21%"
GO:0016407	GO:0016407		59	-0.31323883	-1.1245648	0.27739727	0.47959626	1	911	"tags=15%, list=9%, signal=17%"
GO:0051651	GO:0051651		18	-0.39919445	-1.1220059	0.32618827	0.48346558	1	302	"tags=22%, list=3%, signal=23%"
GO:0061726	GO:0061726		15	-0.41835007	-1.1194755	0.3164794	0.48719585	1	537	"tags=20%, list=6%, signal=21%"
GO:0016485	GO:0016485		32	-0.353136	-1.1194038	0.30626655	0.4864156	1	2126	"tags=41%, list=22%, signal=52%"
GO:0006221	GO:0006221		16	-0.40851295	-1.1174995	0.32444853	0.48902664	1	1861	"tags=50%, list=19%, signal=62%"
GO:0031501	GO:0031501		16	-0.40877414	-1.1153717	0.30502284	0.4921114	1	980	"tags=25%, list=10%, signal=28%"
GO:0009161	GO:0009161		23	-0.3736888	-1.1135062	0.32547992	0.4947611	1	1861	"tags=39%, list=19%, signal=48%"
GO:0046939	GO:0046939		11	-0.44716993	-1.1108739	0.33397684	0.4989134	1	3007	"tags=55%, list=31%, signal=79%"
GO:0044877	GO:0044877		86	-0.29031053	-1.1097844	0.27914354	0.50004894	1	1535	"tags=29%, list=16%, signal=34%"
GO:0000778	GO:0000778		32	-0.34880692	-1.1094002	0.31781557	0.49986523	1	1101	"tags=22%, list=11%, signal=25%"
GO:0045936	GO:0045936		18	-0.39174265	-1.1087255	0.34185606	0.5002179	1	659	"tags=22%, list=7%, signal=24%"
GO:0016884	GO:0016884		13	-0.435401	-1.1086576	0.33663365	0.49942052	1	2131	"tags=54%, list=22%, signal=69%"
GO:0035690	GO:0035690		17	-0.40669385	-1.1083586	0.3236994	0.49907392	1	1347	"tags=35%, list=14%, signal=41%"
GO:0000413	GO:0000413		14	-0.41694194	-1.1081824	0.3449862	0.49850884	1	2236	"tags=50%, list=23%, signal=65%"
GO:0016859	GO:0016859		14	-0.41694194	-1.1081487	0.3308057	0.49765536	1	2236	"tags=50%, list=23%, signal=65%"
GO:0070279	GO:0070279		44	-0.33240405	-1.1079788	0.3160667	0.49705938	1	1427	"tags=30%, list=15%, signal=34%"
GO:0002098	GO:0002098		16	-0.40079075	-1.106422	0.33864915	0.49904177	1	2530	"tags=56%, list=26%, signal=76%"
GO:0090068	GO:0090068		39	-0.3334065	-1.1057891	0.31344613	0.49932593	1	659	"tags=18%, list=7%, signal=19%"
GO:1901682	GO:1901682		15	-0.420326	-1.1055752	0.32447818	0.49881238	1	1140	"tags=33%, list=12%, signal=38%"
GO:0031902	GO:0031902		10	-0.4544424	-1.1047084	0.34890372	0.4995175	1	1092	"tags=30%, list=11%, signal=34%"
GO:0032543	GO:0032543		38	-0.3349709	-1.104277	0.31954226	0.49944225	1	2533	"tags=42%, list=26%, signal=57%"
GO:0003755	GO:0003755		14	-0.41694194	-1.0967466	0.35321528	0.51281595	1	2236	"tags=50%, list=23%, signal=65%"
GO:0010563	GO:0010563		18	-0.39174265	-1.0962243	0.34392524	0.51286787	1	659	"tags=22%, list=7%, signal=24%"
GO:0019318	GO:0019318		29	-0.35283294	-1.0940382	0.33584195	0.5161663	1	2849	"tags=55%, list=29%, signal=78%"
GO:0016874	GO:0016874		104	-0.27588648	-1.0927138	0.29348722	0.5177925	1	1997	"tags=35%, list=21%, signal=43%"
GO:0010647	GO:0010647		15	-0.4072272	-1.092209	0.34430605	0.51782453	1	1060	"tags=27%, list=11%, signal=30%"
GO:0016301	GO:0016301		122	-0.27162394	-1.0920913	0.2920354	0.51713556	1	1851	"tags=29%, list=19%, signal=35%"
GO:0043604	GO:0043604		344	-0.23930025	-1.0907255	0.24294563	0.51881725	1	2974	"tags=47%, list=31%, signal=66%"
GO:0051540	GO:0051540		32	-0.3413682	-1.0878199	0.35371178	0.5235863	1	2831	"tags=50%, list=29%, signal=70%"
GO:0042133	GO:0042133		11	-0.43577474	-1.08768	0.36576578	0.5229091	1	1204	"tags=36%, list=12%, signal=41%"
GO:0006515	GO:0006515		16	-0.40155298	-1.0845939	0.35084426	0.5279312	1	2603	"tags=63%, list=27%, signal=85%"
GO:0006661	GO:0006661		28	-0.3543906	-1.0830276	0.3585903	0.5300955	1	980	"tags=21%, list=10%, signal=24%"
GO:0034976	GO:0034976		37	-0.33276868	-1.0825338	0.3587983	0.530157	1	1445	"tags=27%, list=15%, signal=32%"
GO:0051010	GO:0051010		12	-0.4232078	-1.0815095	0.37971014	0.531236	1	1375	"tags=33%, list=14%, signal=39%"
GO:0051536	GO:0051536		32	-0.3413682	-1.0814	0.3434256	0.5305111	1	2831	"tags=50%, list=29%, signal=70%"
GO:0000780	GO:0000780		33	-0.33371052	-1.0804433	0.349162	0.5314836	1	1101	"tags=21%, list=11%, signal=24%"
GO:0031400	GO:0031400		18	-0.38204372	-1.0768058	0.3610586	0.53758	1	659	"tags=22%, list=7%, signal=24%"
GO:0001505	GO:0001505		11	-0.43577474	-1.0717807	0.38548538	0.5463339	1	1204	"tags=36%, list=12%, signal=41%"
GO:0034655	GO:0034655		103	-0.27137166	-1.0691867	0.32348242	0.55062807	1	1551	"tags=24%, list=16%, signal=29%"
GO:0008092	GO:0008092		89	-0.27915472	-1.0665853	0.33761027	0.5548063	1	1398	"tags=26%, list=14%, signal=30%"
GO:0000819	GO:0000819		102	-0.27255878	-1.0655501	0.3469218	0.5559441	1	2066	"tags=32%, list=21%, signal=41%"
GO:0031314	GO:0031314		10	-0.43991816	-1.0632828	0.3996194	0.5595271	1	1555	"tags=30%, list=16%, signal=36%"
GO:0140296	GO:0140296		14	-0.40393656	-1.0608782	0.38967136	0.56324416	1	583	"tags=14%, list=6%, signal=15%"
GO:0042626	GO:0042626		49	-0.30882895	-1.0585198	0.37907377	0.5670573	1	702	"tags=16%, list=7%, signal=18%"
GO:0048584	GO:0048584		20	-0.37245482	-1.0573173	0.3831692	0.5684903	1	1659	"tags=35%, list=17%, signal=42%"
GO:0004252	GO:0004252		25	-0.35376275	-1.0551617	0.39103138	0.5718652	1	810	"tags=20%, list=8%, signal=22%"
GO:0006623	GO:0006623		21	-0.36086464	-1.0534161	0.39368618	0.5743984	1	1130	"tags=24%, list=12%, signal=27%"
GO:0140096	GO:0140096		402	-0.22580318	-1.0523666	0.3166209	0.57552433	1	1910	"tags=24%, list=20%, signal=29%"
GO:0032446	GO:0032446		108	-0.26623765	-1.0499258	0.3764415	0.57956237	1	1968	"tags=32%, list=20%, signal=40%"
GO:0031072	GO:0031072		12	-0.4115274	-1.047083	0.41917294	0.5842787	1	1148	"tags=25%, list=12%, signal=28%"
GO:0016180	GO:0016180		10	-0.43152636	-1.0460175	0.41214952	0.58539605	1	3373	"tags=70%, list=35%, signal=107%"
GO:0010035	GO:0010035		34	-0.3209501	-1.0457311	0.39270198	0.5849913	1	2831	"tags=53%, list=29%, signal=75%"
GO:0045931	GO:0045931		35	-0.3214045	-1.044115	0.3992838	0.58726615	1	659	"tags=17%, list=7%, signal=18%"
GO:0000407	GO:0000407		19	-0.3651521	-1.0438198	0.40967155	0.5868459	1	483	"tags=16%, list=5%, signal=17%"
GO:0070647	GO:0070647		137	-0.25261945	-1.0430837	0.36941177	0.5874118	1	1968	"tags=30%, list=20%, signal=37%"
GO:0098662	GO:0098662		125	-0.25721288	-1.0423129	0.3855702	0.58802664	1	886	"tags=14%, list=9%, signal=15%"
GO:0006414	GO:0006414		27	-0.3374929	-1.0302746	0.41129032	0.6118759	1	1644	"tags=37%, list=17%, signal=44%"
GO:0009069	GO:0009069		26	-0.3401753	-1.0295818	0.43396226	0.61228776	1	421	"tags=12%, list=4%, signal=12%"
GO:0031305	GO:0031305		27	-0.333116	-1.0273343	0.42184725	0.6159479	1	3865	"tags=74%, list=40%, signal=123%"
GO:0033043	GO:0033043		145	-0.24777904	-1.0268766	0.39460784	0.6158506	1	1101	"tags=18%, list=11%, signal=20%"
GO:0016050	GO:0016050		60	-0.28434297	-1.0259522	0.4090909	0.6166702	1	1394	"tags=25%, list=14%, signal=29%"
GO:0005875	GO:0005875		17	-0.36995322	-1.0253297	0.44383058	0.61697567	1	2352	"tags=47%, list=24%, signal=62%"
GO:0034472	GO:0034472		10	-0.43152636	-1.0236609	0.44220182	0.61950076	1	3373	"tags=70%, list=35%, signal=107%"
GO:0048029	GO:0048029		15	-0.38153255	-1.0228249	0.43037975	0.6201777	1	3007	"tags=53%, list=31%, signal=77%"
GO:0048285	GO:0048285		150	-0.24534905	-1.0223385	0.40140846	0.6201056	1	2014	"tags=30%, list=21%, signal=37%"
GO:0044432	GO:0044432		198	-0.23632276	-1.0221332	0.40378788	0.6195077	1	1976	"tags=34%, list=20%, signal=42%"
GO:0051346	GO:0051346		16	-0.37707627	-1.0221317	0.42287233	0.61847204	1	1059	"tags=31%, list=11%, signal=35%"
GO:0098813	GO:0098813		116	-0.2537221	-1.0199329	0.40501213	0.6220039	1	2066	"tags=31%, list=21%, signal=39%"
GO:0009266	GO:0009266		10	-0.41887292	-1.0194998	0.42698705	0.6218726	1	1769	"tags=50%, list=18%, signal=61%"
GO:0097502	GO:0097502		31	-0.32726902	-1.0182804	0.431426	0.6232743	1	1126	"tags=23%, list=12%, signal=25%"
GO:0015399	GO:0015399		53	-0.28911838	-1.0145371	0.43350604	0.6301575	1	702	"tags=15%, list=7%, signal=16%"
GO:0006612	GO:0006612		28	-0.3278092	-1.0125198	0.4406165	0.63339543	1	1925	"tags=32%, list=20%, signal=40%"
GO:0046942	GO:0046942		65	-0.27762356	-1.0111839	0.42564103	0.63511324	1	1827	"tags=31%, list=19%, signal=38%"
GO:0015695	GO:0015695		10	-0.42013627	-1.0105163	0.4499514	0.6354431	1	1410	"tags=40%, list=15%, signal=47%"
GO:0009408	GO:0009408		10	-0.41887292	-1.0071447	0.45596868	0.64159864	1	1769	"tags=50%, list=18%, signal=61%"
GO:0098661	GO:0098661		18	-0.3602322	-1.0025083	0.44912925	0.6503602	1	2243	"tags=50%, list=23%, signal=65%"
GO:1901616	GO:1901616		16	-0.36316922	-1.0003027	0.44183865	0.6539727	1	2549	"tags=44%, list=26%, signal=59%"
GO:0016702	GO:0016702		15	-0.3825307	-0.9994969	0.45936072	0.654634	1	1734	"tags=33%, list=18%, signal=41%"
GO:0065002	GO:0065002		17	-0.35588613	-0.9983789	0.4505893	0.655887	1	1000	"tags=24%, list=10%, signal=26%"
GO:0006487	GO:0006487		36	-0.30698708	-0.9964077	0.46045694	0.6590118	1	1661	"tags=36%, list=17%, signal=43%"
GO:0042181	GO:0042181		19	-0.34673488	-0.99631304	0.4514652	0.65813994	1	1963	"tags=37%, list=20%, signal=46%"
GO:0032984	GO:0032984		40	-0.30377585	-0.99564624	0.46654773	0.65849066	1	1398	"tags=28%, list=14%, signal=32%"
GO:0015629	GO:0015629		44	-0.28989223	-0.9946746	0.4591928	0.6594955	1	1671	"tags=32%, list=17%, signal=38%"
GO:0140053	GO:0140053		47	-0.29246956	-0.99450296	0.4754386	0.6587864	1	2533	"tags=38%, list=26%, signal=52%"
GO:0051315	GO:0051315		15	-0.37058085	-0.99436915	0.45041704	0.6579848	1	979	"tags=27%, list=10%, signal=30%"
GO:0051130	GO:0051130		65	-0.27102908	-0.9936039	0.47118643	0.6585568	1	1100	"tags=22%, list=11%, signal=24%"
GO:0098660	GO:0098660		139	-0.24283646	-0.99315727	0.47258687	0.65842247	1	1033	"tags=14%, list=11%, signal=16%"
GO:0016051	GO:0016051		37	-0.30285564	-0.9927409	0.47432306	0.65824836	1	2549	"tags=46%, list=26%, signal=62%"
GO:0042402	GO:0042402		11	-0.40308157	-0.9921623	0.479572	0.65845305	1	529	"tags=18%, list=5%, signal=19%"
GO:0004812	GO:0004812		33	-0.3115644	-0.991788	0.4730216	0.6582262	1	1329	"tags=24%, list=14%, signal=28%"
GO:0016875	GO:0016875		33	-0.3115644	-0.989572	0.45950705	0.661865	1	1329	"tags=24%, list=14%, signal=28%"
GO:0033044	GO:0033044		75	-0.26288697	-0.98893297	0.4799331	0.6621732	1	809	"tags=15%, list=8%, signal=16%"
GO:0000777	GO:0000777		35	-0.3057835	-0.98888415	0.47826087	0.661219	1	1101	"tags=20%, list=11%, signal=22%"
GO:0015849	GO:0015849		66	-0.27229285	-0.9884388	0.4711952	0.66110486	1	1827	"tags=30%, list=19%, signal=37%"
GO:0016311	GO:0016311		96	-0.25395307	-0.98697454	0.49418604	0.6631614	1	1513	"tags=26%, list=16%, signal=31%"
GO:0008509	GO:0008509		77	-0.2613784	-0.98495513	0.4826159	0.6664118	1	2468	"tags=42%, list=25%, signal=55%"
GO:0098805	GO:0098805		215	-0.2249555	-0.98397684	0.4763336	0.66735363	1	1454	"tags=21%, list=15%, signal=25%"
GO:0009126	GO:0009126		12	-0.38706645	-0.9834385	0.48467433	0.66742706	1	814	"tags=25%, list=8%, signal=27%"
GO:0032553	GO:0032553		442	-0.20986289	-0.98281425	0.5060484	0.6677175	1	2015	"tags=26%, list=21%, signal=31%"
GO:0030865	GO:0030865		28	-0.31432948	-0.98187655	0.48550045	0.66864496	1	1671	"tags=36%, list=17%, signal=43%"
GO:1902850	GO:1902850		30	-0.3141564	-0.9811479	0.47682709	0.6691889	1	3120	"tags=50%, list=32%, signal=74%"
GO:0032507	GO:0032507		17	-0.35786322	-0.9798114	0.49332145	0.6710185	1	172	"tags=18%, list=2%, signal=18%"
GO:0042493	GO:0042493		75	-0.2639982	-0.9795472	0.47840533	0.6705221	1	2374	"tags=37%, list=25%, signal=49%"
GO:0007059	GO:0007059		129	-0.24079663	-0.9787791	0.48813292	0.67110807	1	2104	"tags=30%, list=22%, signal=38%"
GO:0000152	GO:0000152		14	-0.37198228	-0.9787189	0.47771317	0.6701858	1	639	"tags=21%, list=7%, signal=23%"
GO:0016653	GO:0016653		11	-0.3957883	-0.97457	0.48622048	0.6779543	1	132	"tags=9%, list=1%, signal=9%"
GO:0045185	GO:0045185		17	-0.35786322	-0.97133005	0.48603353	0.68365765	1	172	"tags=18%, list=2%, signal=18%"
GO:0006094	GO:0006094		13	-0.37609422	-0.9710813	0.48600745	0.68311965	1	2549	"tags=46%, list=26%, signal=63%"
GO:0009167	GO:0009167		12	-0.38706645	-0.9707138	0.5047081	0.6828117	1	814	"tags=25%, list=8%, signal=27%"
GO:0043039	GO:0043039		33	-0.30109462	-0.97024024	0.4939551	0.6827658	1	1329	"tags=27%, list=14%, signal=32%"
GO:0007088	GO:0007088		54	-0.27728483	-0.9702041	0.50377834	0.68177414	1	809	"tags=17%, list=8%, signal=18%"
GO:0045787	GO:0045787		48	-0.2832767	-0.96970034	0.5025818	0.6817711	1	659	"tags=15%, list=7%, signal=16%"
GO:0000779	GO:0000779		36	-0.29332575	-0.96910876	0.46842104	0.68194646	1	1101	"tags=19%, list=11%, signal=22%"
GO:0046915	GO:0046915		29	-0.31237862	-0.9689908	0.50715566	0.68112725	1	302	"tags=7%, list=3%, signal=7%"
GO:0051783	GO:0051783		57	-0.26978543	-0.9679965	0.49142367	0.6821547	1	809	"tags=16%, list=8%, signal=17%"
GO:0140014	GO:0140014		116	-0.24058186	-0.9673599	0.5168447	0.6823827	1	2066	"tags=30%, list=21%, signal=38%"
GO:0019888	GO:0019888		12	-0.38520378	-0.9664244	0.5014245	0.683378	1	663	"tags=33%, list=7%, signal=36%"
GO:0019319	GO:0019319		13	-0.37609422	-0.965522	0.49953228	0.6842299	1	2549	"tags=46%, list=26%, signal=63%"
GO:0017171	GO:0017171		33	-0.29998988	-0.9652962	0.49162996	0.68362343	1	810	"tags=15%, list=8%, signal=16%"
GO:0071806	GO:0071806		18	-0.33825955	-0.9651418	0.49317563	0.68291426	1	1000	"tags=22%, list=10%, signal=25%"
GO:0030866	GO:0030866		28	-0.31432948	-0.96498156	0.48670945	0.68220294	1	1671	"tags=36%, list=17%, signal=43%"
GO:0070897	GO:0070897		25	-0.3228094	-0.9647314	0.49147728	0.68168235	1	63	"tags=8%, list=1%, signal=8%"
GO:0008236	GO:0008236		33	-0.29998988	-0.96308327	0.51390135	0.6841223	1	810	"tags=15%, list=8%, signal=16%"
GO:0016772	GO:0016772		209	-0.22108772	-0.9626077	0.53443116	0.68404365	1	1320	"tags=17%, list=14%, signal=20%"
GO:0006497	GO:0006497		36	-0.29666257	-0.96257937	0.5063177	0.6830534	1	1249	"tags=22%, list=13%, signal=25%"
GO:0006890	GO:0006890		19	-0.33753073	-0.96206033	0.5	0.68311703	1	1793	"tags=32%, list=19%, signal=39%"
GO:0031461	GO:0031461		29	-0.31341955	-0.96047145	0.49648505	0.68536764	1	964	"tags=21%, list=10%, signal=23%"
GO:0043086	GO:0043086		31	-0.3060154	-0.9594369	0.5070299	0.686467	1	1211	"tags=26%, list=13%, signal=29%"
GO:0030863	GO:0030863		40	-0.29054072	-0.95881754	0.51486015	0.6867163	1	1526	"tags=33%, list=16%, signal=38%"
GO:0016825	GO:0016825		33	-0.29998988	-0.957332	0.5157516	0.68875	1	810	"tags=15%, list=8%, signal=16%"
GO:0009310	GO:0009310		12	-0.38533878	-0.9570006	0.5050973	0.68842995	1	529	"tags=17%, list=5%, signal=18%"
GO:0007052	GO:0007052		27	-0.3121767	-0.95652056	0.5344353	0.6883529	1	3120	"tags=52%, list=32%, signal=76%"
GO:0004497	GO:0004497		89	-0.24836172	-0.9557058	0.5339806	0.68905	1	2476	"tags=34%, list=26%, signal=45%"
GO:0043038	GO:0043038		35	-0.2959087	-0.9530953	0.5094002	0.6934339	1	2113	"tags=37%, list=22%, signal=47%"
GO:0042158	GO:0042158		36	-0.29666257	-0.9520657	0.5439513	0.6945302	1	1249	"tags=22%, list=13%, signal=25%"
GO:0046943	GO:0046943		53	-0.27274874	-0.9513135	0.525394	0.6950452	1	2468	"tags=40%, list=25%, signal=53%"
GO:0015804	GO:0015804		10	-0.39217323	-0.9488923	0.52057415	0.69904244	1	1395	"tags=30%, list=14%, signal=35%"
GO:0034622	GO:0034622		301	-0.20988531	-0.94589764	0.61445785	0.70420563	1	1739	"tags=24%, list=18%, signal=28%"
GO:0035304	GO:0035304		15	-0.35528627	-0.94467896	0.5214612	0.7056728	1	1416	"tags=40%, list=15%, signal=47%"
GO:0000314	GO:0000314		16	-0.3409173	-0.94364005	0.5217391	0.7068007	1	3981	"tags=75%, list=41%, signal=127%"
GO:0071011	GO:0071011		19	-0.33355343	-0.94332856	0.5300546	0.7063886	1	1523	"tags=32%, list=16%, signal=37%"
GO:0065003	GO:0065003		308	-0.2077904	-0.94288105	0.6203704	0.7062708	1	1739	"tags=23%, list=18%, signal=28%"
GO:0030029	GO:0030029		61	-0.25884274	-0.94083834	0.54880136	0.70958537	1	1100	"tags=21%, list=11%, signal=24%"
GO:0044087	GO:0044087		68	-0.25506964	-0.94061077	0.5598958	0.7090036	1	1100	"tags=19%, list=11%, signal=21%"
GO:0008514	GO:0008514		61	-0.26263016	-0.93950427	0.5543478	0.7102118	1	1935	"tags=31%, list=20%, signal=39%"
GO:0005342	GO:0005342		54	-0.26507568	-0.9385002	0.53156996	0.71122503	1	2468	"tags=39%, list=25%, signal=52%"
GO:0051235	GO:0051235		33	-0.29509866	-0.93805885	0.53955555	0.711069	1	740	"tags=18%, list=8%, signal=20%"
GO:0010256	GO:0010256		48	-0.26813903	-0.9344108	0.5470009	0.71745336	1	2179	"tags=29%, list=22%, signal=37%"
GO:0030036	GO:0030036		60	-0.2601759	-0.9336063	0.5577586	0.7180395	1	1100	"tags=22%, list=11%, signal=24%"
GO:0061024	GO:0061024		104	-0.23424932	-0.93347764	0.58164984	0.7172577	1	1852	"tags=23%, list=19%, signal=28%"
GO:0005763	GO:0005763		16	-0.3409173	-0.932855	0.539272	0.71746105	1	3981	"tags=75%, list=41%, signal=127%"
GO:0017108	GO:0017108		10	-0.38174176	-0.931734	0.5564893	0.7186601	1	899	"tags=20%, list=9%, signal=22%"
GO:0007080	GO:0007080		16	-0.34155908	-0.93147767	0.5407883	0.7181543	1	979	"tags=25%, list=10%, signal=28%"
GO:0006820	GO:0006820		140	-0.22623901	-0.92737174	0.6074544	0.725457	1	2468	"tags=36%, list=25%, signal=48%"
GO:0098656	GO:0098656		87	-0.24088636	-0.9250953	0.57377046	0.72911483	1	2296	"tags=37%, list=24%, signal=48%"
GO:0009250	GO:0009250		12	-0.3654208	-0.92467713	0.54364324	0.72889584	1	1369	"tags=42%, list=14%, signal=48%"
GO:0016888	GO:0016888		10	-0.38174176	-0.92186004	0.5421104	0.73353475	1	899	"tags=20%, list=9%, signal=22%"
GO:0090150	GO:0090150		46	-0.27060473	-0.920901	0.5919791	0.734415	1	2012	"tags=33%, list=21%, signal=41%"
GO:0032806	GO:0032806		13	-0.3548082	-0.92042625	0.5477876	0.7343403	1	3846	"tags=62%, list=40%, signal=102%"
GO:0051123	GO:0051123		16	-0.34225848	-0.9190436	0.5572093	0.7361372	1	1020	"tags=19%, list=11%, signal=21%"
GO:0016791	GO:0016791		83	-0.2404407	-0.9187782	0.588141	0.7356258	1	1769	"tags=28%, list=18%, signal=34%"
GO:0019208	GO:0019208		13	-0.36375448	-0.916802	0.5619224	0.73857224	1	663	"tags=31%, list=7%, signal=33%"
GO:0051310	GO:0051310		16	-0.34155908	-0.91634476	0.56036866	0.73841095	1	979	"tags=25%, list=10%, signal=28%"
GO:0042398	GO:0042398		17	-0.33142108	-0.9145587	0.5600757	0.7409567	1	2392	"tags=41%, list=25%, signal=55%"
GO:0016999	GO:0016999		13	-0.3513428	-0.91157025	0.5628466	0.7458334	1	310	"tags=15%, list=3%, signal=16%"
GO:0006220	GO:0006220		18	-0.32231456	-0.90775925	0.5866142	0.7525422	1	1861	"tags=44%, list=19%, signal=55%"
GO:0072593	GO:0072593		15	-0.34106416	-0.9074651	0.5794732	0.7520719	1	2995	"tags=60%, list=31%, signal=87%"
GO:0005509	GO:0005509		28	-0.29044893	-0.90592533	0.57001793	0.75408417	1	372	"tags=11%, list=4%, signal=11%"
GO:0019787	GO:0019787		86	-0.23448451	-0.9037789	0.62794477	0.757336	1	1304	"tags=21%, list=13%, signal=24%"
GO:0000280	GO:0000280		140	-0.21938473	-0.90216607	0.6713505	0.75955415	1	2014	"tags=29%, list=21%, signal=36%"
GO:0015103	GO:0015103		16	-0.33389276	-0.9010766	0.57899714	0.7606865	1	2444	"tags=56%, list=25%, signal=75%"
GO:0002097	GO:0002097		18	-0.32778803	-0.9000111	0.60411084	0.76178235	1	2530	"tags=50%, list=26%, signal=68%"
GO:0035303	GO:0035303		17	-0.32413167	-0.89719224	0.60168695	0.766449	1	934	"tags=29%, list=10%, signal=32%"
GO:0055088	GO:0055088		13	-0.35100296	-0.8962293	0.5876951	0.76729155	1	1887	"tags=38%, list=19%, signal=48%"
GO:0009156	GO:0009156		20	-0.31879595	-0.8958413	0.6044053	0.76697546	1	1861	"tags=35%, list=19%, signal=43%"
GO:0034032	GO:0034032		17	-0.32254046	-0.8952568	0.5769231	0.76705146	1	1830	"tags=41%, list=19%, signal=51%"
GO:0033865	GO:0033865		17	-0.32254046	-0.89030045	0.6053131	0.77574915	1	1830	"tags=41%, list=19%, signal=51%"
GO:0140029	GO:0140029		11	-0.35774094	-0.889571	0.59790874	0.7760795	1	1811	"tags=36%, list=19%, signal=45%"
GO:0051129	GO:0051129		41	-0.26565757	-0.8864196	0.6294372	0.7811844	1	1101	"tags=20%, list=11%, signal=22%"
GO:0071902	GO:0071902		10	-0.36632663	-0.88640034	0.5974659	0.78012586	1	3459	"tags=70%, list=36%, signal=109%"
GO:0044092	GO:0044092		33	-0.2772586	-0.8860615	0.60934746	0.77971935	1	1211	"tags=24%, list=13%, signal=28%"
GO:0005680	GO:0005680		11	-0.3559726	-0.8844276	0.6015109	0.7818918	1	639	"tags=18%, list=7%, signal=19%"
GO:0010639	GO:0010639		39	-0.27010533	-0.8841983	0.6338894	0.78124535	1	1101	"tags=21%, list=11%, signal=23%"
GO:0033875	GO:0033875		17	-0.32254046	-0.8829529	0.6007293	0.78260106	1	1830	"tags=41%, list=19%, signal=51%"
GO:0031670	GO:0031670		12	-0.34626704	-0.88167536	0.585458	0.78400755	1	141	"tags=8%, list=1%, signal=8%"
GO:0097708	GO:0097708		146	-0.21118031	-0.8799123	0.7211838	0.7863871	1	1303	"tags=18%, list=13%, signal=21%"
GO:0034614	GO:0034614		10	-0.368276	-0.8794474	0.60754716	0.786214	1	2831	"tags=70%, list=29%, signal=99%"
GO:0042144	GO:0042144		16	-0.32988146	-0.879205	0.60053146	0.7856021	1	2172	"tags=50%, list=22%, signal=64%"
GO:0098588	GO:0098588		253	-0.19928093	-0.8791501	0.7641791	0.7846099	1	2056	"tags=27%, list=21%, signal=33%"
GO:0006301	GO:0006301		10	-0.35974842	-0.87757933	0.6234742	0.786587	1	466	"tags=20%, list=5%, signal=21%"
GO:0006904	GO:0006904		11	-0.35774094	-0.8770537	0.610586	0.78648055	1	1811	"tags=36%, list=19%, signal=45%"
GO:0097576	GO:0097576		17	-0.31475383	-0.8758751	0.6270718	0.78767794	1	2172	"tags=47%, list=22%, signal=61%"
GO:0051303	GO:0051303		18	-0.3120447	-0.874926	0.6044776	0.7884	1	979	"tags=22%, list=10%, signal=25%"
GO:0008213	GO:0008213		39	-0.26219854	-0.87376046	0.66079706	0.7895784	1	2175	"tags=36%, list=22%, signal=46%"
GO:0016860	GO:0016860		18	-0.310194	-0.872364	0.6174559	0.7912127	1	1686	"tags=33%, list=17%, signal=40%"
GO:0031410	GO:0031410		146	-0.21118031	-0.8710637	0.7475884	0.7925566	1	1303	"tags=18%, list=13%, signal=21%"
GO:0031304	GO:0031304		29	-0.28158298	-0.86961377	0.62882096	0.7942606	1	3865	"tags=69%, list=40%, signal=114%"
GO:0048256	GO:0048256		11	-0.34818855	-0.8692707	0.6203451	0.7938049	1	899	"tags=18%, list=9%, signal=20%"
GO:0009967	GO:0009967		13	-0.33705157	-0.86666197	0.6253575	0.7975982	1	1659	"tags=31%, list=17%, signal=37%"
GO:0034637	GO:0034637		22	-0.29448926	-0.8646972	0.63025963	0.80024505	1	1769	"tags=36%, list=18%, signal=44%"
GO:0007051	GO:0007051		30	-0.2737816	-0.864535	0.6351852	0.799461	1	3120	"tags=47%, list=32%, signal=69%"
GO:0061630	GO:0061630		53	-0.24279921	-0.86151904	0.67156863	0.8040405	1	1304	"tags=21%, list=13%, signal=24%"
GO:0023056	GO:0023056		13	-0.33705157	-0.86053234	0.61658984	0.8048214	1	1659	"tags=31%, list=17%, signal=37%"
GO:0006914	GO:0006914		59	-0.24088672	-0.8602437	0.6945643	0.8042828	1	537	"tags=10%, list=6%, signal=11%"
GO:0031982	GO:0031982		147	-0.20760499	-0.8593534	0.7531645	0.8048351	1	1303	"tags=18%, list=13%, signal=21%"
GO:0006479	GO:0006479		39	-0.26219854	-0.8572681	0.6752137	0.8076383	1	2175	"tags=36%, list=22%, signal=46%"
GO:0061919	GO:0061919		61	-0.23798153	-0.8545763	0.7037671	0.81148976	1	537	"tags=10%, list=6%, signal=10%"
GO:0006743	GO:0006743		18	-0.30554643	-0.8543123	0.64857405	0.810876	1	1963	"tags=33%, list=20%, signal=42%"
GO:0008080	GO:0008080		49	-0.2442185	-0.8524593	0.6858369	0.81321084	1	503	"tags=8%, list=5%, signal=9%"
GO:0005887	GO:0005887		198	-0.19832435	-0.85161203	0.8006088	0.8137074	1	2516	"tags=33%, list=26%, signal=44%"
GO:0009124	GO:0009124		23	-0.28459406	-0.84994763	0.67389256	0.8155869	1	1861	"tags=30%, list=19%, signal=38%"
GO:0016567	GO:0016567		92	-0.21945718	-0.84948075	0.7406484	0.81534123	1	1968	"tags=29%, list=20%, signal=36%"
GO:1901663	GO:1901663		18	-0.30554643	-0.84919745	0.64179105	0.8148095	1	1963	"tags=33%, list=20%, signal=42%"
GO:0061659	GO:0061659		53	-0.24279921	-0.8484684	0.69867843	0.8150573	1	1304	"tags=21%, list=13%, signal=24%"
GO:0006744	GO:0006744		18	-0.30554643	-0.84483445	0.65267175	0.82058436	1	1963	"tags=33%, list=20%, signal=42%"
GO:0015698	GO:0015698		23	-0.2837222	-0.8430958	0.66483516	0.8225878	1	2444	"tags=48%, list=25%, signal=64%"
GO:0005774	GO:0005774		117	-0.20906316	-0.84195256	0.75825083	0.82354516	1	2301	"tags=34%, list=24%, signal=44%"
GO:1901661	GO:1901661		18	-0.30554643	-0.8416802	0.65688074	0.82294273	1	1963	"tags=33%, list=20%, signal=42%"
GO:0032182	GO:0032182		23	-0.2870361	-0.8414769	0.69754255	0.8222117	1	1634	"tags=35%, list=17%, signal=42%"
GO:0007033	GO:0007033		54	-0.23632658	-0.83653635	0.73170733	0.82996094	1	2172	"tags=30%, list=22%, signal=38%"
GO:0007584	GO:0007584		13	-0.32229722	-0.8346965	0.6569549	0.8320898	1	141	"tags=8%, list=1%, signal=8%"
GO:0000030	GO:0000030		30	-0.26406032	-0.82860255	0.7141569	0.84156764	1	1583	"tags=27%, list=16%, signal=32%"
GO:0007017	GO:0007017		70	-0.22350444	-0.82381564	0.76226735	0.8486432	1	2352	"tags=36%, list=24%, signal=47%"
GO:0000226	GO:0000226		60	-0.22824037	-0.8191376	0.7432203	0.855361	1	2352	"tags=35%, list=24%, signal=46%"
GO:0044042	GO:0044042		16	-0.2997755	-0.8182448	0.6956522	0.8557545	1	1834	"tags=38%, list=19%, signal=46%"
GO:0018208	GO:0018208		20	-0.28329423	-0.81810313	0.69937557	0.85484916	1	2236	"tags=35%, list=23%, signal=45%"
GO:0044433	GO:0044433		83	-0.21086498	-0.81804824	0.7988506	0.853823	1	1303	"tags=18%, list=13%, signal=21%"
GO:0046031	GO:0046031		11	-0.3325192	-0.8161638	0.7155963	0.85586154	1	3007	"tags=55%, list=31%, signal=79%"
GO:0006073	GO:0006073		16	-0.2997755	-0.8101615	0.71694416	0.86452365	1	1834	"tags=38%, list=19%, signal=46%"
GO:0101005	GO:0101005		21	-0.27854633	-0.8094519	0.6993699	0.8645721	1	397	"tags=10%, list=4%, signal=10%"
GO:0099023	GO:0099023		32	-0.25248972	-0.8086656	0.7369369	0.86466426	1	2714	"tags=41%, list=28%, signal=56%"
GO:0043130	GO:0043130		21	-0.27825823	-0.8072617	0.71320754	0.8657479	1	1634	"tags=33%, list=17%, signal=40%"
GO:0140101	GO:0140101		81	-0.21424738	-0.8066232	0.8034682	0.8656483	1	1329	"tags=16%, list=14%, signal=18%"
GO:0044437	GO:0044437		120	-0.19994424	-0.8060518	0.8316041	0.86540276	1	2301	"tags=33%, list=24%, signal=43%"
GO:0043666	GO:0043666		14	-0.30616117	-0.8046896	0.70394737	0.8664649	1	1416	"tags=36%, list=15%, signal=42%"
GO:0036459	GO:0036459		21	-0.27854633	-0.80354327	0.71255815	0.86719054	1	397	"tags=10%, list=4%, signal=10%"
GO:0004843	GO:0004843		20	-0.28188568	-0.80111873	0.72982776	0.86988646	1	397	"tags=10%, list=4%, signal=10%"
GO:0043177	GO:0043177		14	-0.3002437	-0.79937446	0.7366947	0.8714731	1	911	"tags=21%, list=9%, signal=24%"
GO:0016237	GO:0016237		12	-0.31434295	-0.79915714	0.7165428	0.8706839	1	2003	"tags=33%, list=21%, signal=42%"
GO:0005615	GO:0005615		21	-0.2716176	-0.7976149	0.7171533	0.87194943	1	403	"tags=10%, list=4%, signal=10%"
GO:0044421	GO:0044421		21	-0.2716176	-0.7972734	0.7278598	0.8713647	1	403	"tags=10%, list=4%, signal=10%"
GO:0071417	GO:0071417		11	-0.3234054	-0.7964487	0.699241	0.8715189	1	141	"tags=9%, list=1%, signal=9%"
GO:1901699	GO:1901699		11	-0.3234054	-0.7949075	0.7144195	0.8727977	1	141	"tags=9%, list=1%, signal=9%"
GO:0016579	GO:0016579		23	-0.27402917	-0.79485065	0.736022	0.8717568	1	2258	"tags=35%, list=23%, signal=45%"
GO:0015631	GO:0015631		47	-0.2316797	-0.7944094	0.76816607	0.8713498	1	2189	"tags=30%, list=23%, signal=38%"
GO:0031929	GO:0031929		21	-0.27660716	-0.79348236	0.7109228	0.87158024	1	1060	"tags=14%, list=11%, signal=16%"
GO:0005793	GO:0005793		17	-0.28818727	-0.7920897	0.7173077	0.87257	1	1666	"tags=24%, list=17%, signal=28%"
GO:0044275	GO:0044275		13	-0.30812344	-0.7917674	0.7195122	0.87192947	1	2549	"tags=38%, list=26%, signal=52%"
GO:0004536	GO:0004536		25	-0.26680553	-0.7907599	0.74014336	0.872355	1	3083	"tags=44%, list=32%, signal=64%"
GO:0031226	GO:0031226		204	-0.18382089	-0.79038566	0.9065561	0.87180114	1	2306	"tags=29%, list=24%, signal=38%"
GO:0098852	GO:0098852		95	-0.20609412	-0.7901059	0.83501685	0.87109417	1	2301	"tags=35%, list=24%, signal=45%"
GO:0046488	GO:0046488		47	-0.23056996	-0.7897899	0.7848101	0.8704612	1	980	"tags=15%, list=10%, signal=16%"
GO:0009179	GO:0009179		13	-0.3063585	-0.78816366	0.74053556	0.87174374	1	494	"tags=15%, list=5%, signal=16%"
GO:0009135	GO:0009135		13	-0.3063585	-0.7870645	0.7089695	0.87227136	1	494	"tags=15%, list=5%, signal=16%"
GO:0031406	GO:0031406		14	-0.3002437	-0.7839292	0.7339535	0.8757442	1	911	"tags=21%, list=9%, signal=24%"
GO:0038201	GO:0038201		10	-0.3263447	-0.782381	0.7407749	0.8768132	1	248	"tags=10%, list=3%, signal=10%"
GO:0003746	GO:0003746		12	-0.30519748	-0.78217787	0.7241706	0.8759778	1	1644	"tags=33%, list=17%, signal=40%"
GO:0015893	GO:0015893		61	-0.21762958	-0.78196305	0.8006644	0.87519956	1	2735	"tags=38%, list=28%, signal=52%"
GO:0000329	GO:0000329		90	-0.20126967	-0.78191966	0.8557377	0.8741525	1	2301	"tags=34%, list=24%, signal=45%"
GO:0050000	GO:0050000		21	-0.27018917	-0.78070885	0.75307477	0.87478477	1	979	"tags=19%, list=10%, signal=21%"
GO:0019200	GO:0019200		11	-0.31289425	-0.77869827	0.7342007	0.8765368	1	3007	"tags=64%, list=31%, signal=92%"
GO:0000302	GO:0000302		13	-0.30666846	-0.77324945	0.7394636	0.8831261	1	2112	"tags=46%, list=22%, signal=59%"
GO:0000272	GO:0000272		15	-0.2864967	-0.7730731	0.7516159	0.8822496	1	3227	"tags=47%, list=33%, signal=70%"
GO:0042729	GO:0042729		10	-0.32078457	-0.7707985	0.7410546	0.8842956	1	936	"tags=20%, list=10%, signal=22%"
GO:0009132	GO:0009132		17	-0.27670452	-0.7693567	0.7342723	0.88507295	1	665	"tags=18%, list=7%, signal=19%"
GO:0019783	GO:0019783		23	-0.2592285	-0.7674032	0.766844	0.88665324	1	397	"tags=9%, list=4%, signal=9%"
GO:0042147	GO:0042147		21	-0.2682956	-0.76563245	0.7727699	0.887869	1	1539	"tags=29%, list=16%, signal=34%"
GO:0071495	GO:0071495		13	-0.29000875	-0.7652887	0.74323064	0.88720804	1	141	"tags=8%, list=1%, signal=8%"
GO:0000942	GO:0000942		11	-0.3066316	-0.7643	0.7238806	0.88742834	1	936	"tags=18%, list=10%, signal=20%"
GO:0080135	GO:0080135		19	-0.2687289	-0.7615144	0.7785978	0.88996357	1	1611	"tags=32%, list=17%, signal=38%"
GO:0004596	GO:0004596		13	-0.29406878	-0.7614024	0.7394958	0.8889957	1	503	"tags=15%, list=5%, signal=16%"
GO:0000940	GO:0000940		11	-0.3066316	-0.7597026	0.7511151	0.8900758	1	936	"tags=18%, list=10%, signal=20%"
GO:0000776	GO:0000776		48	-0.21868284	-0.75711924	0.84662044	0.89227223	1	1804	"tags=21%, list=19%, signal=25%"
GO:0000045	GO:0000045		25	-0.24837579	-0.7544911	0.78942484	0.89454824	1	336	"tags=8%, list=3%, signal=8%"
GO:0080134	GO:0080134		19	-0.2687289	-0.7507917	0.78317755	0.8980409	1	1611	"tags=32%, list=17%, signal=38%"
GO:1905037	GO:1905037		25	-0.24837579	-0.7503588	0.79727274	0.897478	1	336	"tags=8%, list=3%, signal=8%"
GO:0044262	GO:0044262		71	-0.20308074	-0.74961823	0.8715447	0.8972882	1	2713	"tags=38%, list=28%, signal=52%"
GO:0000151	GO:0000151		57	-0.21047136	-0.74344456	0.8572719	0.90374166	1	1256	"tags=18%, list=13%, signal=20%"
GO:0060090	GO:0060090		18	-0.2660629	-0.74039125	0.7875556	0.90632796	1	2174	"tags=39%, list=22%, signal=50%"
GO:0006418	GO:0006418		31	-0.23223098	-0.73775935	0.8298429	0.9082774	1	1329	"tags=23%, list=14%, signal=26%"
GO:0016482	GO:0016482		31	-0.23426977	-0.73312527	0.8260105	0.91255385	1	1539	"tags=23%, list=16%, signal=27%"
GO:0005801	GO:0005801		13	-0.28495556	-0.7330524	0.78856623	0.91150737	1	2450	"tags=38%, list=25%, signal=51%"
GO:0008608	GO:0008608		22	-0.24531892	-0.72822714	0.8285976	0.9157472	1	979	"tags=18%, list=10%, signal=20%"
GO:0046540	GO:0046540		23	-0.24794497	-0.7251616	0.82635796	0.9180889	1	1523	"tags=30%, list=16%, signal=36%"
GO:0015171	GO:0015171		33	-0.2217511	-0.7223121	0.8557435	0.9200877	1	1395	"tags=24%, list=14%, signal=28%"
GO:0090307	GO:0090307		17	-0.2638657	-0.7221333	0.8080073	0.9191585	1	1029	"tags=18%, list=11%, signal=20%"
GO:1902911	GO:1902911		26	-0.23806542	-0.71977097	0.85112107	0.92058855	1	2747	"tags=35%, list=28%, signal=48%"
GO:0006474	GO:0006474		16	-0.26333743	-0.7194482	0.82336706	0.919817	1	503	"tags=13%, list=5%, signal=13%"
GO:0016278	GO:0016278		13	-0.27408174	-0.71351737	0.8135755	0.92485994	1	1434	"tags=31%, list=15%, signal=36%"
GO:0009719	GO:0009719		14	-0.27022576	-0.7130508	0.8304598	0.92422366	1	141	"tags=7%, list=1%, signal=7%"
GO:0016638	GO:0016638		10	-0.2957398	-0.7126063	0.80638915	0.9235904	1	1204	"tags=20%, list=12%, signal=23%"
GO:0016279	GO:0016279		13	-0.27408174	-0.71194637	0.8211009	0.9231257	1	1434	"tags=31%, list=15%, signal=36%"
GO:0000323	GO:0000323		131	-0.17455688	-0.70986897	0.94905955	0.92418003	1	2172	"tags=29%, list=22%, signal=37%"
GO:0006367	GO:0006367		28	-0.22954232	-0.70860034	0.83027124	0.92431426	1	1642	"tags=18%, list=17%, signal=21%"
GO:0070646	GO:0070646		28	-0.2302594	-0.70837444	0.8700823	0.9234102	1	397	"tags=7%, list=4%, signal=7%"
GO:0051225	GO:0051225		19	-0.24922247	-0.70648754	0.83408886	0.9241191	1	1029	"tags=16%, list=11%, signal=18%"
GO:1902554	GO:1902554		22	-0.24315082	-0.7040576	0.84172004	0.9253956	1	3910	"tags=59%, list=40%, signal=99%"
GO:0032482	GO:0032482		12	-0.27463958	-0.6895709	0.8353832	0.93775713	1	1978	"tags=25%, list=20%, signal=31%"
GO:0051539	GO:0051539		21	-0.23578757	-0.6851	0.86564475	0.9405897	1	3780	"tags=67%, list=39%, signal=109%"
GO:0010038	GO:0010038		21	-0.23517323	-0.67621243	0.86734694	0.9471618	1	2995	"tags=48%, list=31%, signal=69%"
GO:0005976	GO:0005976		38	-0.20462412	-0.67292184	0.9022222	0.94873524	1	2925	"tags=47%, list=30%, signal=68%"
GO:0008170	GO:0008170		28	-0.2204147	-0.67213213	0.88419116	0.94824475	1	1434	"tags=21%, list=15%, signal=25%"
GO:0060590	GO:0060590		12	-0.26362187	-0.6683094	0.85494715	0.9501575	1	2132	"tags=33%, list=22%, signal=43%"
GO:0031110	GO:0031110		11	-0.27290937	-0.6679701	0.8522402	0.9492782	1	1629	"tags=27%, list=17%, signal=33%"
GO:0007006	GO:0007006		12	-0.26244783	-0.66581094	0.8593895	0.9498099	1	3382	"tags=58%, list=35%, signal=90%"
GO:0003684	GO:0003684		19	-0.23138534	-0.6541693	0.8978841	0.9575408	1	4583	"tags=74%, list=47%, signal=140%"
GO:0031365	GO:0031365		19	-0.22791953	-0.645922	0.89928055	0.9622568	1	2175	"tags=32%, list=22%, signal=41%"
GO:0035825	GO:0035825		15	-0.23213482	-0.63753366	0.8853791	0.96674716	1	2346	"tags=40%, list=24%, signal=53%"
GO:0005381	GO:0005381		11	-0.2494747	-0.6360968	0.8776493	0.966575	1	302	"tags=9%, list=3%, signal=9%"
GO:0071025	GO:0071025		19	-0.2227007	-0.6305149	0.9086799	0.9690222	1	1551	"tags=26%, list=16%, signal=31%"
GO:0051238	GO:0051238		10	-0.2591518	-0.6269679	0.8836565	0.9700898	1	302	"tags=10%, list=3%, signal=10%"
GO:0007131	GO:0007131		15	-0.23213482	-0.6244003	0.91499084	0.9704699	1	2346	"tags=40%, list=24%, signal=53%"
GO:0000775	GO:0000775		78	-0.16592844	-0.6225941	0.9764706	0.9703959	1	2228	"tags=26%, list=23%, signal=33%"
GO:2000765	GO:2000765		11	-0.24857794	-0.61535543	0.89849627	0.9734038	1	2049	"tags=27%, list=21%, signal=35%"
GO:0000291	GO:0000291		12	-0.24250357	-0.61021316	0.8973384	0.97505224	1	2785	"tags=42%, list=29%, signal=58%"
GO:0046835	GO:0046835		11	-0.2447058	-0.6015029	0.90082645	0.978579	1	3007	"tags=55%, list=31%, signal=79%"
GO:0070816	GO:0070816		13	-0.22829977	-0.5981437	0.91541356	0.9791445	1	3481	"tags=54%, list=36%, signal=84%"
GO:0034755	GO:0034755		14	-0.2274438	-0.59348214	0.9186155	0.9802863	1	2830	"tags=43%, list=29%, signal=60%"
GO:0002181	GO:0002181		56	-0.16431458	-0.59140915	0.97534925	0.98012084	1	2391	"tags=29%, list=25%, signal=38%"
GO:0034501	GO:0034501		10	-0.23970522	-0.5825351	0.92067987	0.98298424	1	1804	"tags=30%, list=19%, signal=37%"
GO:0016538	GO:0016538		11	-0.23199339	-0.5746929	0.92676055	0.9851743	1	1808	"tags=36%, list=19%, signal=45%"
GO:0034661	GO:0034661		13	-0.2184669	-0.56479514	0.93821293	0.98802996	1	1551	"tags=23%, list=16%, signal=27%"
GO:0016075	GO:0016075		13	-0.2184669	-0.5570278	0.9366603	0.9897668	1	1551	"tags=23%, list=16%, signal=27%"
GO:0002790	GO:0002790		10	-0.22790788	-0.55568266	0.94383055	0.9891275	1	2708	"tags=50%, list=28%, signal=69%"
GO:0009306	GO:0009306		10	-0.22790788	-0.5495071	0.9354839	0.99012953	1	2708	"tags=50%, list=28%, signal=69%"
GO:0071692	GO:0071692		10	-0.22790788	-0.5486528	0.9395604	0.98926985	1	2708	"tags=50%, list=28%, signal=69%"
GO:0004519	GO:0004519		69	-0.14961012	-0.54731643	0.9907795	0.98857135	1	899	"tags=10%, list=9%, signal=11%"
GO:0035592	GO:0035592		10	-0.22790788	-0.5468802	0.9395973	0.9875672	1	2708	"tags=50%, list=28%, signal=69%"
GO:0044773	GO:0044773		16	-0.19907199	-0.54279965	0.95955884	0.9877492	1	4280	"tags=63%, list=44%, signal=112%"
GO:0035251	GO:0035251		11	-0.21728344	-0.53526646	0.95615673	0.9889796	1	7584	"tags=100%, list=78%, signal=460%"
GO:0045005	GO:0045005		12	-0.20948367	-0.53297985	0.95086443	0.9885016	1	1566	"tags=25%, list=16%, signal=30%"
GO:0051650	GO:0051650		10	-0.21127799	-0.5164819	0.9647822	0.99198693	1	1375	"tags=20%, list=14%, signal=23%"
GO:0051648	GO:0051648		10	-0.21127799	-0.51519465	0.9617272	0.99116737	1	1375	"tags=20%, list=14%, signal=23%"
GO:0008287	GO:0008287		11	-0.20750815	-0.5125631	0.96091515	0.9906846	1	1416	"tags=18%, list=15%, signal=21%"
GO:0071459	GO:0071459		11	-0.2036153	-0.5117778	0.95101666	0.98973584	1	1804	"tags=27%, list=19%, signal=33%"
GO:0016893	GO:0016893		32	-0.16162625	-0.5114045	0.9786096	0.9886704	1	1346	"tags=13%, list=14%, signal=14%"
GO:1903293	GO:1903293		11	-0.20750815	-0.50912976	0.96047795	0.98807156	1	1416	"tags=18%, list=15%, signal=21%"
GO:0031312	GO:0031312		20	-0.1692103	-0.4921237	0.9757009	0.9907572	1	1555	"tags=15%, list=16%, signal=18%"
GO:0042558	GO:0042558		12	-0.17864159	-0.46442762	0.98357487	0.99463505	1	7958	"tags=100%, list=82%, signal=560%"
GO:0007030	GO:0007030		17	-0.16754568	-0.4625894	0.98578197	0.99377775	1	3902	"tags=53%, list=40%, signal=89%"
GO:0016799	GO:0016799		12	-0.18340226	-0.45968294	0.98483413	0.99305224	1	3495	"tags=50%, list=36%, signal=78%"
GO:0006760	GO:0006760		11	-0.17862311	-0.44368476	0.986124	0.9941226	1	7958	"tags=100%, list=82%, signal=560%"
GO:0000177	GO:0000177		10	-0.17575738	-0.42939657	0.98579544	0.9946424	1	2785	"tags=40%, list=29%, signal=56%"
